<?xml version="1.0" encoding="utf-8"?>
<!DOCTYPE eagle SYSTEM "eagle.dtd">
<eagle version="7.5.0">
<drawing>
<settings>
<setting alwaysvectorfont="no"/>
<setting verticaltext="up"/>
</settings>
<grid distance="0.1" unitdist="inch" unit="inch" style="lines" multiple="1" display="no" altdistance="0.01" altunitdist="inch" altunit="inch"/>
<layers>
<layer number="1" name="Top" color="4" fill="9" visible="no" active="no"/>
<layer number="2" name="Route2" color="1" fill="3" visible="no" active="no"/>
<layer number="3" name="Route3" color="4" fill="3" visible="no" active="no"/>
<layer number="4" name="Route4" color="1" fill="4" visible="no" active="no"/>
<layer number="5" name="Route5" color="4" fill="4" visible="no" active="no"/>
<layer number="6" name="Route6" color="1" fill="8" visible="no" active="no"/>
<layer number="7" name="Route7" color="4" fill="8" visible="no" active="no"/>
<layer number="8" name="Route8" color="1" fill="2" visible="no" active="no"/>
<layer number="9" name="Route9" color="4" fill="2" visible="no" active="no"/>
<layer number="10" name="Route10" color="1" fill="7" visible="no" active="no"/>
<layer number="11" name="Route11" color="4" fill="7" visible="no" active="no"/>
<layer number="12" name="Route12" color="1" fill="5" visible="no" active="no"/>
<layer number="13" name="Route13" color="4" fill="5" visible="no" active="no"/>
<layer number="14" name="Route14" color="1" fill="6" visible="no" active="no"/>
<layer number="15" name="Route15" color="4" fill="6" visible="no" active="no"/>
<layer number="16" name="Bottom" color="1" fill="1" visible="no" active="no"/>
<layer number="17" name="Pads" color="2" fill="1" visible="no" active="no"/>
<layer number="18" name="Vias" color="2" fill="1" visible="no" active="no"/>
<layer number="19" name="Unrouted" color="6" fill="1" visible="no" active="no"/>
<layer number="20" name="Dimension" color="15" fill="1" visible="no" active="no"/>
<layer number="21" name="tPlace" color="7" fill="1" visible="no" active="no"/>
<layer number="22" name="bPlace" color="7" fill="1" visible="no" active="no"/>
<layer number="23" name="tOrigins" color="15" fill="1" visible="no" active="no"/>
<layer number="24" name="bOrigins" color="15" fill="1" visible="no" active="no"/>
<layer number="25" name="tNames" color="7" fill="1" visible="no" active="no"/>
<layer number="26" name="bNames" color="7" fill="1" visible="no" active="no"/>
<layer number="27" name="tValues" color="7" fill="1" visible="no" active="no"/>
<layer number="28" name="bValues" color="7" fill="1" visible="no" active="no"/>
<layer number="29" name="tStop" color="7" fill="3" visible="no" active="no"/>
<layer number="30" name="bStop" color="7" fill="6" visible="no" active="no"/>
<layer number="31" name="tCream" color="7" fill="4" visible="no" active="no"/>
<layer number="32" name="bCream" color="7" fill="5" visible="no" active="no"/>
<layer number="33" name="tFinish" color="6" fill="3" visible="no" active="no"/>
<layer number="34" name="bFinish" color="6" fill="6" visible="no" active="no"/>
<layer number="35" name="tGlue" color="7" fill="4" visible="no" active="no"/>
<layer number="36" name="bGlue" color="7" fill="5" visible="no" active="no"/>
<layer number="37" name="tTest" color="7" fill="1" visible="no" active="no"/>
<layer number="38" name="bTest" color="7" fill="1" visible="no" active="no"/>
<layer number="39" name="tKeepout" color="4" fill="11" visible="no" active="no"/>
<layer number="40" name="bKeepout" color="1" fill="11" visible="no" active="no"/>
<layer number="41" name="tRestrict" color="4" fill="10" visible="no" active="no"/>
<layer number="42" name="bRestrict" color="1" fill="10" visible="no" active="no"/>
<layer number="43" name="vRestrict" color="2" fill="10" visible="no" active="no"/>
<layer number="44" name="Drills" color="7" fill="1" visible="no" active="no"/>
<layer number="45" name="Holes" color="7" fill="1" visible="no" active="no"/>
<layer number="46" name="Milling" color="3" fill="1" visible="no" active="no"/>
<layer number="47" name="Measures" color="7" fill="1" visible="no" active="no"/>
<layer number="48" name="Document" color="7" fill="1" visible="no" active="no"/>
<layer number="49" name="Reference" color="7" fill="1" visible="no" active="no"/>
<layer number="51" name="tDocu" color="6" fill="1" visible="no" active="no"/>
<layer number="52" name="bDocu" color="7" fill="1" visible="no" active="no"/>
<layer number="90" name="Modules" color="5" fill="1" visible="yes" active="yes"/>
<layer number="91" name="Nets" color="2" fill="1" visible="yes" active="yes"/>
<layer number="92" name="Busses" color="1" fill="1" visible="yes" active="yes"/>
<layer number="93" name="Pins" color="2" fill="1" visible="no" active="yes"/>
<layer number="94" name="Symbols" color="4" fill="1" visible="yes" active="yes"/>
<layer number="95" name="Names" color="7" fill="1" visible="yes" active="yes"/>
<layer number="96" name="Values" color="7" fill="1" visible="yes" active="yes"/>
<layer number="97" name="Info" color="7" fill="1" visible="yes" active="yes"/>
<layer number="98" name="Guide" color="6" fill="1" visible="yes" active="yes"/>
</layers>
<schematic xreflabel="%F%N/%S.%C%R" xrefpart="/%S.%C%R">
<libraries>
<library name="con-lumberg">
<description>&lt;b&gt;Lumberg Connectors&lt;/b&gt;&lt;p&gt;
include con-mfs.lbr - 2001.03.22&lt;br&gt;
Jack connectors - 2005.11.23&lt;p&gt;
http://www.lumberg.de&lt;p&gt;
&lt;author&gt;Created by librarian@cadsoft.de&lt;/author&gt;</description>
<packages>
<package name="1503_08">
<description>&lt;b&gt;Jack connectors according to JISC 6560, 3.5 mm&lt;/b&gt;&lt;p&gt;
Klinkensteckverbinder nach JISC 6560, 3,5 mm&lt;br&gt;
Source: http://www.lumberg.com/Produkte/PDFs/1503_08.pdf</description>
<wire x1="-3.3" y1="-7.75" x2="-2.9" y2="-7.35" width="0" layer="46" curve="-90"/>
<wire x1="-2.9" y1="-7.35" x2="-2.5" y2="-7.75" width="0" layer="46" curve="-90"/>
<wire x1="-2.5" y1="-7.75" x2="-2.5" y2="-8.25" width="0" layer="46"/>
<wire x1="-2.5" y1="-8.25" x2="-2.9" y2="-8.65" width="0" layer="46" curve="-90"/>
<wire x1="-2.9" y1="-8.65" x2="-3.3" y2="-8.25" width="0" layer="46" curve="-90"/>
<wire x1="-3.3" y1="-8.25" x2="-3.3" y2="-7.75" width="0" layer="46"/>
<wire x1="2.5" y1="-7.75" x2="2.9" y2="-7.35" width="0" layer="46" curve="-90"/>
<wire x1="2.9" y1="-7.35" x2="3.3" y2="-7.75" width="0" layer="46" curve="-90"/>
<wire x1="3.3" y1="-7.75" x2="3.3" y2="-8.25" width="0" layer="46"/>
<wire x1="3.3" y1="-8.25" x2="2.9" y2="-8.65" width="0" layer="46" curve="-90"/>
<wire x1="2.9" y1="-8.65" x2="2.5" y2="-8.25" width="0" layer="46" curve="-90"/>
<wire x1="2.5" y1="-8.25" x2="2.5" y2="-7.75" width="0" layer="46"/>
<wire x1="-3.7" y1="0.15" x2="-3.2" y2="0.65" width="0" layer="46" curve="-90"/>
<wire x1="-3.2" y1="0.65" x2="-2.7" y2="0.15" width="0" layer="46" curve="-90"/>
<wire x1="-2.7" y1="0.15" x2="-2.7" y2="-0.15" width="0" layer="46"/>
<wire x1="-2.7" y1="-0.15" x2="-3.2" y2="-0.65" width="0" layer="46" curve="-90"/>
<wire x1="-3.2" y1="-0.65" x2="-3.7" y2="-0.15" width="0" layer="46" curve="-90"/>
<wire x1="-3.7" y1="-0.15" x2="-3.7" y2="0.15" width="0" layer="46"/>
<wire x1="3.2" y1="-0.65" x2="2.7" y2="-0.15" width="0" layer="46" curve="-90"/>
<wire x1="2.7" y1="-0.15" x2="2.7" y2="0.15" width="0" layer="46"/>
<wire x1="2.7" y1="0.15" x2="3.2" y2="0.65" width="0" layer="46" curve="-90"/>
<wire x1="3.2" y1="0.65" x2="3.7" y2="0.15" width="0" layer="46" curve="-90"/>
<wire x1="3.7" y1="0.15" x2="3.7" y2="-0.15" width="0" layer="46"/>
<wire x1="3.7" y1="-0.15" x2="3.2" y2="-0.65" width="0" layer="46" curve="-90"/>
<wire x1="-3.4" y1="3.4" x2="3.4" y2="3.4" width="0.2032" layer="21"/>
<wire x1="3.4" y1="3.4" x2="3.4" y2="1.3" width="0.2032" layer="21"/>
<wire x1="3.4" y1="1.3" x2="3.4" y2="-1.3" width="0.2032" layer="51"/>
<wire x1="3.4" y1="-1.3" x2="3.4" y2="-6.5" width="0.2032" layer="21"/>
<wire x1="3.4" y1="-6.5" x2="3.4" y2="-7.9" width="0.2032" layer="51"/>
<wire x1="3.4" y1="-7.9" x2="2.1" y2="-7.9" width="0.2032" layer="51"/>
<wire x1="2.1" y1="-7.9" x2="-2.1" y2="-7.9" width="0.2032" layer="21"/>
<wire x1="-2.1" y1="-7.9" x2="-3.4" y2="-7.9" width="0.2032" layer="51"/>
<wire x1="-3.4" y1="-7.9" x2="-3.4" y2="-6.55" width="0.2032" layer="51"/>
<wire x1="-3.4" y1="-6.55" x2="-3.4" y2="-1.5" width="0.2032" layer="21"/>
<wire x1="-3.4" y1="-1.5" x2="-3.4" y2="1.45" width="0.2032" layer="51"/>
<wire x1="-3.4" y1="1.45" x2="-3.4" y2="3.4" width="0.2032" layer="21"/>
<wire x1="-3.1" y1="5.9" x2="3.1" y2="5.9" width="0.2032" layer="21"/>
<wire x1="-3.1" y1="3.5" x2="-3.1" y2="5.9" width="0.2032" layer="21"/>
<wire x1="3.1" y1="3.5" x2="3.1" y2="5.9" width="0.2032" layer="21"/>
<pad name="1" x="-2.9" y="-8" drill="1" diameter="1.2" shape="long" rot="R90"/>
<pad name="3" x="2.9" y="-8" drill="1" diameter="1.2" shape="long" rot="R90"/>
<pad name="2@1" x="-3.2" y="0" drill="1" diameter="1.2" shape="long" rot="R90"/>
<pad name="2@2" x="3.2" y="0" drill="1" diameter="1.2" shape="long" rot="R90"/>
<text x="-4.452" y="-8.812" size="1.27" layer="25" rot="R90">&gt;NAME</text>
<text x="5.088" y="-8.812" size="1.27" layer="27" rot="R90">&gt;VALUE</text>
<hole x="0" y="4.5" drill="1.2"/>
<hole x="0" y="-5.5" drill="1.2"/>
</package>
<package name="1503_07">
<description>&lt;b&gt;Jack connectors according to JISC 6560, 3.5 mm&lt;/b&gt;&lt;p&gt;
Klinkensteckverbinder nach JISC 6560, 3,5 mm&lt;br&gt;
Source: http://www.lumberg.com/Produkte/PDFs/1503_07.pdf</description>
<wire x1="-3.4" y1="-10.75" x2="-3" y2="-10.35" width="0" layer="46" curve="-90"/>
<wire x1="-3" y1="-10.35" x2="-2.6" y2="-10.75" width="0" layer="46" curve="-90"/>
<wire x1="-2.6" y1="-10.75" x2="-2.6" y2="-11.25" width="0" layer="46"/>
<wire x1="-2.6" y1="-11.25" x2="-3" y2="-11.65" width="0" layer="46" curve="-90"/>
<wire x1="-3" y1="-11.65" x2="-3.4" y2="-11.25" width="0" layer="46" curve="-90"/>
<wire x1="-3.4" y1="-11.25" x2="-3.4" y2="-10.75" width="0" layer="46"/>
<wire x1="2.6" y1="-10.75" x2="3" y2="-10.35" width="0" layer="46" curve="-90"/>
<wire x1="3" y1="-10.35" x2="3.4" y2="-10.75" width="0" layer="46" curve="-90"/>
<wire x1="3.4" y1="-10.75" x2="3.4" y2="-11.25" width="0" layer="46"/>
<wire x1="3.4" y1="-11.25" x2="3" y2="-11.65" width="0" layer="46" curve="-90"/>
<wire x1="3" y1="-11.65" x2="2.6" y2="-11.25" width="0" layer="46" curve="-90"/>
<wire x1="2.6" y1="-11.25" x2="2.6" y2="-10.75" width="0" layer="46"/>
<wire x1="-3.2" y1="-1.85" x2="-2.7" y2="-1.35" width="0" layer="46" curve="-90"/>
<wire x1="-2.7" y1="-1.35" x2="-2.2" y2="-1.85" width="0" layer="46" curve="-90"/>
<wire x1="-2.2" y1="-1.85" x2="-2.2" y2="-2.15" width="0" layer="46"/>
<wire x1="-2.2" y1="-2.15" x2="-2.7" y2="-2.65" width="0" layer="46" curve="-90"/>
<wire x1="-2.7" y1="-2.65" x2="-3.2" y2="-2.15" width="0" layer="46" curve="-90"/>
<wire x1="-3.2" y1="-2.15" x2="-3.2" y2="-1.85" width="0" layer="46"/>
<wire x1="2.7" y1="-2.65" x2="2.2" y2="-2.15" width="0" layer="46" curve="-90"/>
<wire x1="2.2" y1="-2.15" x2="2.2" y2="-1.85" width="0" layer="46"/>
<wire x1="2.2" y1="-1.85" x2="2.7" y2="-1.35" width="0" layer="46" curve="-90"/>
<wire x1="2.7" y1="-1.35" x2="3.2" y2="-1.85" width="0" layer="46" curve="-90"/>
<wire x1="3.2" y1="-1.85" x2="3.2" y2="-2.15" width="0" layer="46"/>
<wire x1="3.2" y1="-2.15" x2="2.7" y2="-2.65" width="0" layer="46" curve="-90"/>
<wire x1="-3.15" y1="2.4" x2="3.15" y2="2.4" width="0.2032" layer="21"/>
<wire x1="3.15" y1="2.4" x2="3.15" y2="-0.7" width="0.2032" layer="21"/>
<wire x1="3.15" y1="-0.7" x2="3.15" y2="-3.3" width="0.2032" layer="51"/>
<wire x1="3.15" y1="-3.3" x2="3.15" y2="-9.5" width="0.2032" layer="21"/>
<wire x1="3.15" y1="-9.5" x2="3.15" y2="-10.9" width="0.2032" layer="51"/>
<wire x1="3.15" y1="-10.9" x2="2.1" y2="-10.9" width="0.2032" layer="51"/>
<wire x1="2.1" y1="-10.9" x2="-2.1" y2="-10.9" width="0.2032" layer="21"/>
<wire x1="-2.1" y1="-10.9" x2="-3.15" y2="-10.9" width="0.2032" layer="51"/>
<wire x1="-3.15" y1="-10.9" x2="-3.15" y2="-9.55" width="0.2032" layer="51"/>
<wire x1="-3.15" y1="-9.55" x2="-3.15" y2="-3.5" width="0.2032" layer="21"/>
<wire x1="-3.15" y1="-3.5" x2="-3.15" y2="-0.55" width="0.2032" layer="51"/>
<wire x1="-3.15" y1="-0.55" x2="-3.15" y2="2.4" width="0.2032" layer="21"/>
<wire x1="-2.4" y1="4.9" x2="2.4" y2="4.9" width="0.2032" layer="21"/>
<wire x1="-2.4" y1="2.5" x2="-2.4" y2="4.9" width="0.2032" layer="21"/>
<wire x1="2.4" y1="2.5" x2="2.4" y2="4.9" width="0.2032" layer="21"/>
<pad name="1" x="-3" y="-11" drill="1" diameter="1.2" shape="long" rot="R90"/>
<pad name="3" x="3" y="-11" drill="1" diameter="1.2" shape="long" rot="R90"/>
<pad name="2@1" x="-2.7" y="-2" drill="1" diameter="1.2" shape="long" rot="R90"/>
<pad name="2@2" x="2.7" y="-2" drill="1" diameter="1.2" shape="long" rot="R90"/>
<text x="-4.452" y="-10.812" size="1.27" layer="25" rot="R90">&gt;NAME</text>
<text x="5.088" y="-10.812" size="1.27" layer="27" rot="R90">&gt;VALUE</text>
<hole x="-2.5" y="-7" drill="1"/>
<hole x="2.5" y="-7" drill="1"/>
</package>
</packages>
<symbols>
<symbol name="JACK-STEREO-2">
<wire x1="0" y1="2.54" x2="1.524" y2="1.016" width="0.1524" layer="94"/>
<wire x1="1.524" y1="1.016" x2="2.032" y2="1.524" width="0.1524" layer="94"/>
<wire x1="-2.54" y1="-5.08" x2="0.508" y2="-5.08" width="0.1524" layer="94"/>
<wire x1="0.508" y1="-5.08" x2="4.064" y2="-1.524" width="0.1524" layer="94"/>
<wire x1="4.064" y1="-1.524" x2="4.572" y2="-2.032" width="0.1524" layer="94"/>
<wire x1="-2.54" y1="-2.54" x2="1.016" y2="-2.54" width="0.1524" layer="94"/>
<wire x1="1.016" y1="-2.54" x2="2.54" y2="-1.016" width="0.1524" layer="94"/>
<wire x1="2.54" y1="-1.016" x2="3.048" y2="-1.524" width="0.1524" layer="94"/>
<text x="-2.54" y="4.064" size="1.778" layer="95">&gt;NAME</text>
<text x="-2.54" y="-8.89" size="1.778" layer="96">&gt;VALUE</text>
<rectangle x1="5.207" y1="-2.667" x2="6.604" y2="2.667" layer="94"/>
<pin name="1" x="-5.08" y="-5.08" visible="pad" length="short" direction="pas"/>
<pin name="2" x="-5.08" y="2.54" visible="pad" length="short" direction="pas"/>
<pin name="3" x="-5.08" y="-2.54" visible="pad" length="short" direction="pas"/>
<pin name="2@1" x="-2.54" y="2.54" visible="off" length="short" direction="pas"/>
</symbol>
</symbols>
<devicesets>
<deviceset name="1503_?" prefix="X">
<description>&lt;b&gt;Jack connectors according to JISC 6560, 3.5 mm&lt;/b&gt;&lt;p&gt;
Klinkensteckverbinder nach JISC 6560, 3,5 mm&lt;br&gt;
Source: http://www.lumberg.com/Produkte/PDFs/1503_08.pdf</description>
<gates>
<gate name="G$1" symbol="JACK-STEREO-2" x="0" y="0"/>
</gates>
<devices>
<device name="08" package="1503_08">
<connects>
<connect gate="G$1" pin="1" pad="1"/>
<connect gate="G$1" pin="2" pad="2@1"/>
<connect gate="G$1" pin="2@1" pad="2@2"/>
<connect gate="G$1" pin="3" pad="3"/>
</connects>
<technologies>
<technology name="">
<attribute name="MF" value="" constant="no"/>
<attribute name="MPN" value="" constant="no"/>
<attribute name="OC_FARNELL" value="unknown" constant="no"/>
<attribute name="OC_NEWARK" value="unknown" constant="no"/>
</technology>
</technologies>
</device>
<device name="07" package="1503_07">
<connects>
<connect gate="G$1" pin="1" pad="1"/>
<connect gate="G$1" pin="2" pad="2@1"/>
<connect gate="G$1" pin="2@1" pad="2@2"/>
<connect gate="G$1" pin="3" pad="3"/>
</connects>
<technologies>
<technology name="">
<attribute name="MF" value="" constant="no"/>
<attribute name="MPN" value="" constant="no"/>
<attribute name="OC_FARNELL" value="unknown" constant="no"/>
<attribute name="OC_NEWARK" value="unknown" constant="no"/>
</technology>
</technologies>
</device>
</devices>
</deviceset>
</devicesets>
</library>
<library name="pinhead">
<description>&lt;b&gt;Pin Header Connectors&lt;/b&gt;&lt;p&gt;
&lt;author&gt;Created by librarian@cadsoft.de&lt;/author&gt;</description>
<packages>
<package name="2X02">
<description>&lt;b&gt;PIN HEADER&lt;/b&gt;</description>
<wire x1="-2.54" y1="-1.905" x2="-1.905" y2="-2.54" width="0.1524" layer="21"/>
<wire x1="-0.635" y1="-2.54" x2="0" y2="-1.905" width="0.1524" layer="21"/>
<wire x1="0" y1="-1.905" x2="0.635" y2="-2.54" width="0.1524" layer="21"/>
<wire x1="1.905" y1="-2.54" x2="2.54" y2="-1.905" width="0.1524" layer="21"/>
<wire x1="-2.54" y1="-1.905" x2="-2.54" y2="1.905" width="0.1524" layer="21"/>
<wire x1="-2.54" y1="1.905" x2="-1.905" y2="2.54" width="0.1524" layer="21"/>
<wire x1="-1.905" y1="2.54" x2="-0.635" y2="2.54" width="0.1524" layer="21"/>
<wire x1="-0.635" y1="2.54" x2="0" y2="1.905" width="0.1524" layer="21"/>
<wire x1="0" y1="1.905" x2="0.635" y2="2.54" width="0.1524" layer="21"/>
<wire x1="0.635" y1="2.54" x2="1.905" y2="2.54" width="0.1524" layer="21"/>
<wire x1="1.905" y1="2.54" x2="2.54" y2="1.905" width="0.1524" layer="21"/>
<wire x1="0" y1="1.905" x2="0" y2="-1.905" width="0.1524" layer="21"/>
<wire x1="2.54" y1="1.905" x2="2.54" y2="-1.905" width="0.1524" layer="21"/>
<wire x1="0.635" y1="-2.54" x2="1.905" y2="-2.54" width="0.1524" layer="21"/>
<wire x1="-1.905" y1="-2.54" x2="-0.635" y2="-2.54" width="0.1524" layer="21"/>
<pad name="1" x="-1.27" y="-1.27" drill="1.016" shape="octagon"/>
<pad name="2" x="-1.27" y="1.27" drill="1.016" shape="octagon"/>
<pad name="3" x="1.27" y="-1.27" drill="1.016" shape="octagon"/>
<pad name="4" x="1.27" y="1.27" drill="1.016" shape="octagon"/>
<text x="-2.54" y="3.175" size="1.27" layer="25" ratio="10">&gt;NAME</text>
<text x="-2.54" y="-4.445" size="1.27" layer="27">&gt;VALUE</text>
<rectangle x1="-1.524" y1="-1.524" x2="-1.016" y2="-1.016" layer="51"/>
<rectangle x1="-1.524" y1="1.016" x2="-1.016" y2="1.524" layer="51"/>
<rectangle x1="1.016" y1="1.016" x2="1.524" y2="1.524" layer="51"/>
<rectangle x1="1.016" y1="-1.524" x2="1.524" y2="-1.016" layer="51"/>
</package>
<package name="2X02/90">
<description>&lt;b&gt;PIN HEADER&lt;/b&gt;</description>
<wire x1="-2.54" y1="-1.905" x2="0" y2="-1.905" width="0.1524" layer="21"/>
<wire x1="0" y1="-1.905" x2="0" y2="0.635" width="0.1524" layer="21"/>
<wire x1="0" y1="0.635" x2="-2.54" y2="0.635" width="0.1524" layer="21"/>
<wire x1="-2.54" y1="0.635" x2="-2.54" y2="-1.905" width="0.1524" layer="21"/>
<wire x1="-1.27" y1="6.985" x2="-1.27" y2="1.27" width="0.762" layer="21"/>
<wire x1="0" y1="-1.905" x2="2.54" y2="-1.905" width="0.1524" layer="21"/>
<wire x1="2.54" y1="-1.905" x2="2.54" y2="0.635" width="0.1524" layer="21"/>
<wire x1="2.54" y1="0.635" x2="0" y2="0.635" width="0.1524" layer="21"/>
<wire x1="1.27" y1="6.985" x2="1.27" y2="1.27" width="0.762" layer="21"/>
<pad name="2" x="-1.27" y="-3.81" drill="1.016" shape="octagon"/>
<pad name="4" x="1.27" y="-3.81" drill="1.016" shape="octagon"/>
<pad name="1" x="-1.27" y="-6.35" drill="1.016" shape="octagon"/>
<pad name="3" x="1.27" y="-6.35" drill="1.016" shape="octagon"/>
<text x="-3.175" y="-3.81" size="1.27" layer="25" ratio="10" rot="R90">&gt;NAME</text>
<text x="4.445" y="-3.81" size="1.27" layer="27" rot="R90">&gt;VALUE</text>
<rectangle x1="-1.651" y1="0.635" x2="-0.889" y2="1.143" layer="21"/>
<rectangle x1="0.889" y1="0.635" x2="1.651" y2="1.143" layer="21"/>
<rectangle x1="-1.651" y1="-2.921" x2="-0.889" y2="-1.905" layer="21"/>
<rectangle x1="0.889" y1="-2.921" x2="1.651" y2="-1.905" layer="21"/>
<rectangle x1="-1.651" y1="-5.461" x2="-0.889" y2="-4.699" layer="21"/>
<rectangle x1="-1.651" y1="-4.699" x2="-0.889" y2="-2.921" layer="51"/>
<rectangle x1="0.889" y1="-4.699" x2="1.651" y2="-2.921" layer="51"/>
<rectangle x1="0.889" y1="-5.461" x2="1.651" y2="-4.699" layer="21"/>
</package>
</packages>
<symbols>
<symbol name="PINH2X2">
<wire x1="-8.89" y1="-2.54" x2="6.35" y2="-2.54" width="0.4064" layer="94"/>
<wire x1="6.35" y1="-2.54" x2="6.35" y2="5.08" width="0.4064" layer="94"/>
<wire x1="6.35" y1="5.08" x2="-8.89" y2="5.08" width="0.4064" layer="94"/>
<wire x1="-8.89" y1="5.08" x2="-8.89" y2="-2.54" width="0.4064" layer="94"/>
<text x="-8.89" y="5.715" size="1.778" layer="95">&gt;NAME</text>
<text x="-8.89" y="-5.08" size="1.778" layer="96">&gt;VALUE</text>
<pin name="1" x="-5.08" y="2.54" visible="pad" length="short" direction="pas" function="dot"/>
<pin name="2" x="2.54" y="2.54" visible="pad" length="short" direction="pas" function="dot" rot="R180"/>
<pin name="3" x="-5.08" y="0" visible="pad" length="short" direction="pas" function="dot"/>
<pin name="4" x="2.54" y="0" visible="pad" length="short" direction="pas" function="dot" rot="R180"/>
</symbol>
</symbols>
<devicesets>
<deviceset name="PINHD-2X2" prefix="JP" uservalue="yes">
<description>&lt;b&gt;PIN HEADER&lt;/b&gt;</description>
<gates>
<gate name="A" symbol="PINH2X2" x="0" y="0"/>
</gates>
<devices>
<device name="" package="2X02">
<connects>
<connect gate="A" pin="1" pad="1"/>
<connect gate="A" pin="2" pad="2"/>
<connect gate="A" pin="3" pad="3"/>
<connect gate="A" pin="4" pad="4"/>
</connects>
<technologies>
<technology name=""/>
</technologies>
</device>
<device name="/90" package="2X02/90">
<connects>
<connect gate="A" pin="1" pad="1"/>
<connect gate="A" pin="2" pad="2"/>
<connect gate="A" pin="3" pad="3"/>
<connect gate="A" pin="4" pad="4"/>
</connects>
<technologies>
<technology name=""/>
</technologies>
</device>
</devices>
</deviceset>
</devicesets>
</library>
<library name="supply1">
<description>&lt;b&gt;Supply Symbols&lt;/b&gt;&lt;p&gt;
 GND, VCC, 0V, +5V, -5V, etc.&lt;p&gt;
 Please keep in mind, that these devices are necessary for the
 automatic wiring of the supply signals.&lt;p&gt;
 The pin name defined in the symbol is identical to the net which is to be wired automatically.&lt;p&gt;
 In this library the device names are the same as the pin names of the symbols, therefore the correct signal names appear next to the supply symbols in the schematic.&lt;p&gt;
 &lt;author&gt;Created by librarian@cadsoft.de&lt;/author&gt;</description>
<packages>
</packages>
<symbols>
<symbol name="GND">
<wire x1="-1.905" y1="0" x2="1.905" y2="0" width="0.254" layer="94"/>
<text x="-2.54" y="-2.54" size="1.778" layer="96">&gt;VALUE</text>
<pin name="GND" x="0" y="2.54" visible="off" length="short" direction="sup" rot="R270"/>
</symbol>
</symbols>
<devicesets>
<deviceset name="GND" prefix="GND">
<description>&lt;b&gt;SUPPLY SYMBOL&lt;/b&gt;</description>
<gates>
<gate name="1" symbol="GND" x="0" y="0"/>
</gates>
<devices>
<device name="">
<technologies>
<technology name=""/>
</technologies>
</device>
</devices>
</deviceset>
</devicesets>
</library>
</libraries>
<attributes>
</attributes>
<variantdefs>
</variantdefs>
<classes>
<class number="0" name="default" width="0" drill="0">
</class>
</classes>
<parts>
<part name="X1" library="con-lumberg" deviceset="1503_?" device="08" value="1503_08"/>
<part name="X2" library="con-lumberg" deviceset="1503_?" device="08" value="1503_08"/>
<part name="X3" library="con-lumberg" deviceset="1503_?" device="08" value="1503_08"/>
<part name="X4" library="con-lumberg" deviceset="1503_?" device="08" value="1503_08"/>
<part name="JP1" library="pinhead" deviceset="PINHD-2X2" device=""/>
<part name="GND1" library="supply1" deviceset="GND" device=""/>
<part name="JP2" library="pinhead" deviceset="PINHD-2X2" device=""/>
<part name="GND2" library="supply1" deviceset="GND" device=""/>
<part name="JP3" library="pinhead" deviceset="PINHD-2X2" device=""/>
<part name="JP4" library="pinhead" deviceset="PINHD-2X2" device=""/>
<part name="GND3" library="supply1" deviceset="GND" device=""/>
<part name="GND4" library="supply1" deviceset="GND" device=""/>
</parts>
<sheets>
<sheet>
<plain>
</plain>
<instances>
<instance part="X1" gate="G$1" x="17.78" y="48.26" rot="R180"/>
<instance part="X2" gate="G$1" x="17.78" y="27.94" rot="R180"/>
<instance part="X3" gate="G$1" x="60.96" y="48.26" rot="R180"/>
<instance part="X4" gate="G$1" x="60.96" y="27.94" rot="R180"/>
<instance part="JP1" gate="A" x="22.86" y="66.04"/>
<instance part="GND1" gate="1" x="43.18" y="63.5"/>
<instance part="JP2" gate="A" x="66.04" y="66.04"/>
<instance part="GND2" gate="1" x="86.36" y="63.5"/>
<instance part="JP3" gate="A" x="20.32" y="10.16"/>
<instance part="JP4" gate="A" x="63.5" y="10.16"/>
<instance part="GND3" gate="1" x="83.82" y="7.62"/>
<instance part="GND4" gate="1" x="40.64" y="7.62"/>
</instances>
<busses>
</busses>
<nets>
<net name="RIGHT" class="0">
<segment>
<pinref part="JP1" gate="A" pin="3"/>
<wire x1="17.78" y1="66.04" x2="10.16" y2="66.04" width="0.1524" layer="91"/>
<label x="10.16" y="66.04" size="1.778" layer="95" rot="R180" xref="yes"/>
</segment>
<segment>
<pinref part="X1" gate="G$1" pin="3"/>
<wire x1="22.86" y1="50.8" x2="33.02" y2="50.8" width="0.1524" layer="91"/>
<label x="33.02" y="50.8" size="1.778" layer="95" xref="yes"/>
</segment>
</net>
<net name="GND" class="0">
<segment>
<pinref part="JP1" gate="A" pin="1"/>
<wire x1="17.78" y1="68.58" x2="10.16" y2="68.58" width="0.1524" layer="91"/>
<wire x1="10.16" y1="68.58" x2="10.16" y2="73.66" width="0.1524" layer="91"/>
<pinref part="JP1" gate="A" pin="2"/>
<wire x1="25.4" y1="68.58" x2="33.02" y2="68.58" width="0.1524" layer="91"/>
<wire x1="10.16" y1="73.66" x2="33.02" y2="73.66" width="0.1524" layer="91"/>
<wire x1="33.02" y1="73.66" x2="33.02" y2="68.58" width="0.1524" layer="91"/>
<wire x1="33.02" y1="68.58" x2="43.18" y2="68.58" width="0.1524" layer="91"/>
<wire x1="43.18" y1="68.58" x2="43.18" y2="66.04" width="0.1524" layer="91"/>
<pinref part="GND1" gate="1" pin="GND"/>
</segment>
<segment>
<pinref part="X1" gate="G$1" pin="1"/>
<wire x1="22.86" y1="53.34" x2="25.4" y2="53.34" width="0.1524" layer="91"/>
<label x="25.4" y="53.34" size="1.778" layer="95" xref="yes"/>
</segment>
<segment>
<pinref part="JP2" gate="A" pin="1"/>
<wire x1="60.96" y1="68.58" x2="50.8" y2="68.58" width="0.1524" layer="91"/>
<wire x1="50.8" y1="68.58" x2="50.8" y2="73.66" width="0.1524" layer="91"/>
<wire x1="50.8" y1="73.66" x2="76.2" y2="73.66" width="0.1524" layer="91"/>
<wire x1="76.2" y1="73.66" x2="76.2" y2="68.58" width="0.1524" layer="91"/>
<pinref part="JP2" gate="A" pin="2"/>
<wire x1="76.2" y1="68.58" x2="68.58" y2="68.58" width="0.1524" layer="91"/>
<wire x1="68.58" y1="68.58" x2="86.36" y2="68.58" width="0.1524" layer="91"/>
<wire x1="86.36" y1="68.58" x2="86.36" y2="66.04" width="0.1524" layer="91"/>
<pinref part="GND2" gate="1" pin="GND"/>
</segment>
<segment>
<pinref part="X3" gate="G$1" pin="1"/>
<wire x1="66.04" y1="53.34" x2="76.2" y2="53.34" width="0.1524" layer="91"/>
<label x="76.2" y="53.34" size="1.778" layer="95" xref="yes"/>
</segment>
<segment>
<pinref part="JP4" gate="A" pin="1"/>
<wire x1="58.42" y1="12.7" x2="50.8" y2="12.7" width="0.1524" layer="91"/>
<wire x1="50.8" y1="12.7" x2="50.8" y2="17.78" width="0.1524" layer="91"/>
<wire x1="50.8" y1="17.78" x2="73.66" y2="17.78" width="0.1524" layer="91"/>
<wire x1="73.66" y1="17.78" x2="73.66" y2="12.7" width="0.1524" layer="91"/>
<pinref part="JP4" gate="A" pin="2"/>
<wire x1="73.66" y1="12.7" x2="66.04" y2="12.7" width="0.1524" layer="91"/>
<wire x1="73.66" y1="12.7" x2="83.82" y2="12.7" width="0.1524" layer="91"/>
<wire x1="83.82" y1="12.7" x2="83.82" y2="10.16" width="0.1524" layer="91"/>
<pinref part="GND3" gate="1" pin="GND"/>
</segment>
<segment>
<pinref part="JP3" gate="A" pin="2"/>
<wire x1="22.86" y1="12.7" x2="30.48" y2="12.7" width="0.1524" layer="91"/>
<wire x1="30.48" y1="12.7" x2="30.48" y2="17.78" width="0.1524" layer="91"/>
<wire x1="30.48" y1="17.78" x2="7.62" y2="17.78" width="0.1524" layer="91"/>
<wire x1="7.62" y1="17.78" x2="7.62" y2="12.7" width="0.1524" layer="91"/>
<pinref part="JP3" gate="A" pin="1"/>
<wire x1="7.62" y1="12.7" x2="15.24" y2="12.7" width="0.1524" layer="91"/>
<wire x1="30.48" y1="12.7" x2="40.64" y2="12.7" width="0.1524" layer="91"/>
<wire x1="40.64" y1="12.7" x2="40.64" y2="10.16" width="0.1524" layer="91"/>
<pinref part="GND4" gate="1" pin="GND"/>
</segment>
<segment>
<pinref part="X2" gate="G$1" pin="1"/>
<wire x1="22.86" y1="33.02" x2="27.94" y2="33.02" width="0.1524" layer="91"/>
<label x="27.94" y="33.02" size="1.778" layer="95" xref="yes"/>
</segment>
<segment>
<pinref part="X4" gate="G$1" pin="1"/>
<wire x1="66.04" y1="33.02" x2="71.12" y2="33.02" width="0.1524" layer="91"/>
<label x="71.12" y="33.02" size="1.778" layer="95" xref="yes"/>
</segment>
</net>
<net name="LEFT" class="0">
<segment>
<pinref part="X1" gate="G$1" pin="2"/>
<wire x1="22.86" y1="45.72" x2="33.02" y2="45.72" width="0.1524" layer="91"/>
<label x="33.02" y="45.72" size="1.778" layer="95" xref="yes"/>
</segment>
<segment>
<pinref part="JP1" gate="A" pin="4"/>
<wire x1="25.4" y1="66.04" x2="33.02" y2="66.04" width="0.1524" layer="91"/>
<label x="33.02" y="66.04" size="1.778" layer="95" xref="yes"/>
</segment>
</net>
<net name="RIGHT2" class="0">
<segment>
<pinref part="JP2" gate="A" pin="3"/>
<wire x1="60.96" y1="66.04" x2="53.34" y2="66.04" width="0.1524" layer="91"/>
<label x="53.34" y="66.04" size="1.778" layer="95" rot="R180" xref="yes"/>
</segment>
<segment>
<pinref part="X3" gate="G$1" pin="3"/>
<wire x1="66.04" y1="50.8" x2="83.82" y2="50.8" width="0.1524" layer="91"/>
<label x="83.82" y="50.8" size="1.778" layer="95" xref="yes"/>
</segment>
</net>
<net name="LEFT2" class="0">
<segment>
<pinref part="JP2" gate="A" pin="4"/>
<wire x1="68.58" y1="66.04" x2="76.2" y2="66.04" width="0.1524" layer="91"/>
<label x="76.2" y="66.04" size="1.778" layer="95" xref="yes"/>
</segment>
<segment>
<pinref part="X3" gate="G$1" pin="2"/>
<wire x1="66.04" y1="45.72" x2="83.82" y2="45.72" width="0.1524" layer="91"/>
<label x="83.82" y="45.72" size="1.778" layer="95" xref="yes"/>
</segment>
</net>
<net name="LEFT3" class="0">
<segment>
<pinref part="JP3" gate="A" pin="4"/>
<wire x1="22.86" y1="10.16" x2="30.48" y2="10.16" width="0.1524" layer="91"/>
<label x="30.48" y="10.16" size="1.778" layer="95" xref="yes"/>
</segment>
<segment>
<pinref part="X2" gate="G$1" pin="2"/>
<wire x1="22.86" y1="25.4" x2="35.56" y2="25.4" width="0.1524" layer="91"/>
<label x="35.56" y="25.4" size="1.778" layer="95" xref="yes"/>
</segment>
</net>
<net name="RIGHT3" class="0">
<segment>
<pinref part="JP3" gate="A" pin="3"/>
<wire x1="15.24" y1="10.16" x2="7.62" y2="10.16" width="0.1524" layer="91"/>
<label x="7.62" y="10.16" size="1.778" layer="95" rot="R180" xref="yes"/>
</segment>
<segment>
<pinref part="X2" gate="G$1" pin="3"/>
<wire x1="22.86" y1="30.48" x2="35.56" y2="30.48" width="0.1524" layer="91"/>
<label x="35.56" y="30.48" size="1.778" layer="95" xref="yes"/>
</segment>
</net>
<net name="LEFT4" class="0">
<segment>
<pinref part="JP4" gate="A" pin="4"/>
<wire x1="66.04" y1="10.16" x2="73.66" y2="10.16" width="0.1524" layer="91"/>
<label x="73.66" y="10.16" size="1.778" layer="95" xref="yes"/>
</segment>
<segment>
<pinref part="X4" gate="G$1" pin="2"/>
<wire x1="66.04" y1="25.4" x2="78.74" y2="25.4" width="0.1524" layer="91"/>
<label x="78.74" y="25.4" size="1.778" layer="95" xref="yes"/>
</segment>
</net>
<net name="RIGHT4" class="0">
<segment>
<pinref part="JP4" gate="A" pin="3"/>
<wire x1="58.42" y1="10.16" x2="50.8" y2="10.16" width="0.1524" layer="91"/>
<label x="50.8" y="10.16" size="1.778" layer="95" rot="R270" xref="yes"/>
</segment>
<segment>
<pinref part="X4" gate="G$1" pin="3"/>
<wire x1="66.04" y1="30.48" x2="78.74" y2="30.48" width="0.1524" layer="91"/>
<label x="78.74" y="30.48" size="1.778" layer="95" xref="yes"/>
</segment>
</net>
</nets>
</sheet>
</sheets>
</schematic>
</drawing>
</eagle>
