<?xml version="1.0" encoding="utf-8"?>
<!DOCTYPE eagle SYSTEM "eagle.dtd">
<eagle version="8.6.3">
<drawing>
<settings>
<setting alwaysvectorfont="no"/>
<setting verticaltext="up"/>
</settings>
<grid distance="10" unitdist="mil" unit="mil" style="lines" multiple="1" display="no" altdistance="5" altunitdist="mil" altunit="mil"/>
<layers>
<layer number="1" name="Top" color="4" fill="1" visible="no" active="yes"/>
<layer number="2" name="Route2" color="1" fill="3" visible="no" active="no"/>
<layer number="3" name="Route3" color="4" fill="3" visible="no" active="no"/>
<layer number="4" name="Route4" color="1" fill="4" visible="no" active="no"/>
<layer number="5" name="Route5" color="4" fill="4" visible="no" active="no"/>
<layer number="6" name="Route6" color="1" fill="8" visible="no" active="no"/>
<layer number="7" name="Route7" color="4" fill="8" visible="no" active="no"/>
<layer number="8" name="Route8" color="1" fill="2" visible="no" active="no"/>
<layer number="9" name="Route9" color="4" fill="2" visible="no" active="no"/>
<layer number="10" name="Route10" color="1" fill="7" visible="no" active="no"/>
<layer number="11" name="Route11" color="4" fill="7" visible="no" active="no"/>
<layer number="12" name="Route12" color="1" fill="5" visible="no" active="no"/>
<layer number="13" name="Route13" color="4" fill="5" visible="no" active="no"/>
<layer number="14" name="Route14" color="1" fill="6" visible="no" active="no"/>
<layer number="15" name="Route15" color="4" fill="6" visible="no" active="no"/>
<layer number="16" name="Bottom" color="1" fill="1" visible="yes" active="yes"/>
<layer number="17" name="Pads" color="2" fill="1" visible="yes" active="yes"/>
<layer number="18" name="Vias" color="2" fill="1" visible="yes" active="yes"/>
<layer number="19" name="Unrouted" color="6" fill="1" visible="no" active="yes"/>
<layer number="20" name="Dimension" color="24" fill="1" visible="yes" active="yes"/>
<layer number="21" name="tPlace" color="7" fill="1" visible="no" active="yes"/>
<layer number="22" name="bPlace" color="7" fill="1" visible="no" active="yes"/>
<layer number="23" name="tOrigins" color="15" fill="1" visible="no" active="yes"/>
<layer number="24" name="bOrigins" color="15" fill="1" visible="no" active="yes"/>
<layer number="25" name="tNames" color="7" fill="1" visible="no" active="yes"/>
<layer number="26" name="bNames" color="7" fill="1" visible="no" active="yes"/>
<layer number="27" name="tValues" color="7" fill="1" visible="no" active="yes"/>
<layer number="28" name="bValues" color="7" fill="1" visible="no" active="yes"/>
<layer number="29" name="tStop" color="7" fill="3" visible="no" active="yes"/>
<layer number="30" name="bStop" color="7" fill="6" visible="no" active="yes"/>
<layer number="31" name="tCream" color="7" fill="4" visible="no" active="yes"/>
<layer number="32" name="bCream" color="7" fill="5" visible="no" active="yes"/>
<layer number="33" name="tFinish" color="6" fill="3" visible="no" active="yes"/>
<layer number="34" name="bFinish" color="6" fill="6" visible="no" active="yes"/>
<layer number="35" name="tGlue" color="7" fill="4" visible="no" active="yes"/>
<layer number="36" name="bGlue" color="7" fill="5" visible="no" active="yes"/>
<layer number="37" name="tTest" color="7" fill="1" visible="no" active="yes"/>
<layer number="38" name="bTest" color="7" fill="1" visible="no" active="yes"/>
<layer number="39" name="tKeepout" color="4" fill="11" visible="no" active="yes"/>
<layer number="40" name="bKeepout" color="1" fill="11" visible="no" active="yes"/>
<layer number="41" name="tRestrict" color="4" fill="10" visible="no" active="yes"/>
<layer number="42" name="bRestrict" color="1" fill="10" visible="no" active="yes"/>
<layer number="43" name="vRestrict" color="2" fill="10" visible="no" active="yes"/>
<layer number="44" name="Drills" color="7" fill="1" visible="no" active="yes"/>
<layer number="45" name="Holes" color="7" fill="1" visible="no" active="yes"/>
<layer number="46" name="Milling" color="3" fill="1" visible="no" active="yes"/>
<layer number="47" name="Measures" color="7" fill="1" visible="no" active="yes"/>
<layer number="48" name="Document" color="7" fill="1" visible="no" active="yes"/>
<layer number="49" name="Reference" color="7" fill="1" visible="no" active="yes"/>
<layer number="51" name="tDocu" color="7" fill="1" visible="no" active="yes"/>
<layer number="52" name="bDocu" color="7" fill="1" visible="no" active="yes"/>
<layer number="88" name="SimResults" color="9" fill="1" visible="no" active="no"/>
<layer number="89" name="SimProbes" color="9" fill="1" visible="no" active="no"/>
<layer number="90" name="Modules" color="5" fill="1" visible="no" active="no"/>
<layer number="91" name="Nets" color="2" fill="1" visible="no" active="no"/>
<layer number="92" name="Busses" color="1" fill="1" visible="no" active="no"/>
<layer number="93" name="Pins" color="2" fill="1" visible="no" active="no"/>
<layer number="94" name="Symbols" color="4" fill="1" visible="no" active="no"/>
<layer number="95" name="Names" color="7" fill="1" visible="no" active="no"/>
<layer number="96" name="Values" color="7" fill="1" visible="no" active="no"/>
<layer number="97" name="Info" color="7" fill="1" visible="no" active="no"/>
<layer number="98" name="Guide" color="6" fill="1" visible="no" active="no"/>
<layer number="100" name="5V" color="13" fill="1" visible="yes" active="yes"/>
</layers>
<board>
<plain>
<wire x1="0" y1="0" x2="100.31" y2="0" width="0" layer="20"/>
<wire x1="100.31" y1="0" x2="100.31" y2="100" width="0" layer="20"/>
<wire x1="100.31" y1="100" x2="0" y2="100" width="0" layer="20"/>
<wire x1="0" y1="100" x2="0" y2="0" width="0" layer="20"/>
</plain>
<libraries>
<library name="rcl" urn="urn:adsk.eagle:library:334">
<description>&lt;b&gt;Resistors, Capacitors, Inductors&lt;/b&gt;&lt;p&gt;
Based on the previous libraries:
&lt;ul&gt;
&lt;li&gt;r.lbr
&lt;li&gt;cap.lbr 
&lt;li&gt;cap-fe.lbr
&lt;li&gt;captant.lbr
&lt;li&gt;polcap.lbr
&lt;li&gt;ipc-smd.lbr
&lt;/ul&gt;
All SMD packages are defined according to the IPC specifications and  CECC&lt;p&gt;
&lt;author&gt;Created by librarian@cadsoft.de&lt;/author&gt;&lt;p&gt;
&lt;p&gt;
for Electrolyt Capacitors see also :&lt;p&gt;
www.bccomponents.com &lt;p&gt;
www.panasonic.com&lt;p&gt;
www.kemet.com&lt;p&gt;
http://www.secc.co.jp/pdf/os_e/2004/e_os_all.pdf &lt;b&gt;(SANYO)&lt;/b&gt;
&lt;p&gt;
for trimmer refence see : &lt;u&gt;www.electrospec-inc.com/cross_references/trimpotcrossref.asp&lt;/u&gt;&lt;p&gt;

&lt;table border=0 cellspacing=0 cellpadding=0 width="100%" cellpaddding=0&gt;
&lt;tr valign="top"&gt;

&lt;! &lt;td width="10"&gt;&amp;nbsp;&lt;/td&gt;
&lt;td width="90%"&gt;

&lt;b&gt;&lt;font color="#0000FF" size="4"&gt;TRIM-POT CROSS REFERENCE&lt;/font&gt;&lt;/b&gt;
&lt;P&gt;
&lt;TABLE BORDER=0 CELLSPACING=1 CELLPADDING=2&gt;
  &lt;TR&gt;
    &lt;TD COLSPAN=8&gt;
      &lt;FONT SIZE=3 FACE=ARIAL&gt;&lt;B&gt;RECTANGULAR MULTI-TURN&lt;/B&gt;&lt;/FONT&gt;
    &lt;/TD&gt;
  &lt;/TR&gt;
  &lt;TR&gt;
    &lt;TD ALIGN=CENTER&gt;
      &lt;B&gt;
      &lt;FONT SIZE=3 FACE=ARIAL color="#FF0000"&gt;BOURNS&lt;/FONT&gt;
      &lt;/B&gt;
    &lt;/TD&gt;
    &lt;TD ALIGN=CENTER&gt;
      &lt;B&gt;
      &lt;FONT SIZE=3 FACE=ARIAL color="#FF0000"&gt;BI&amp;nbsp;TECH&lt;/FONT&gt;
      &lt;/B&gt;
    &lt;/TD&gt;
    &lt;TD ALIGN=CENTER&gt;
      &lt;B&gt;
      &lt;FONT SIZE=3 FACE=ARIAL color="#FF0000"&gt;DALE-VISHAY&lt;/FONT&gt;
      &lt;/B&gt;
    &lt;/TD&gt;
    &lt;TD ALIGN=CENTER&gt;
      &lt;B&gt;
      &lt;FONT SIZE=3 FACE=ARIAL color="#FF0000"&gt;PHILIPS/MEPCO&lt;/FONT&gt;
      &lt;/B&gt;
    &lt;/TD&gt;
    &lt;TD ALIGN=CENTER&gt;
      &lt;B&gt;
      &lt;FONT SIZE=3 FACE=ARIAL color="#FF0000"&gt;MURATA&lt;/FONT&gt;
      &lt;/B&gt;
    &lt;/TD&gt;
    &lt;TD ALIGN=CENTER&gt;
      &lt;B&gt;
      &lt;FONT SIZE=3 FACE=ARIAL color="#FF0000"&gt;PANASONIC&lt;/FONT&gt;
      &lt;/B&gt;
    &lt;/TD&gt;
    &lt;TD ALIGN=CENTER&gt;
      &lt;B&gt;
      &lt;FONT SIZE=3 FACE=ARIAL color="#FF0000"&gt;SPECTROL&lt;/FONT&gt;
      &lt;/B&gt;
    &lt;/TD&gt;
    &lt;TD ALIGN=CENTER&gt;
      &lt;B&gt;
      &lt;FONT SIZE=3 FACE=ARIAL color="#FF0000"&gt;MILSPEC&lt;/FONT&gt;
      &lt;/B&gt;
    &lt;/TD&gt;&lt;TD&gt;&amp;nbsp;&lt;/TD&gt;
  &lt;/TR&gt;
  &lt;TR&gt;
    &lt;TD BGCOLOR="#cccccc" ALIGN=CENTER&gt;&lt;FONT FACE=ARIAL SIZE=3 &gt;
      3005P&lt;BR&gt;
      3006P&lt;BR&gt;
      3006W&lt;BR&gt;
      3006Y&lt;BR&gt;
      3009P&lt;BR&gt;
      3009W&lt;BR&gt;
      3009Y&lt;BR&gt;
      3057J&lt;BR&gt;
      3057L&lt;BR&gt;
      3057P&lt;BR&gt;
      3057Y&lt;BR&gt;
      3059J&lt;BR&gt;
      3059L&lt;BR&gt;
      3059P&lt;BR&gt;
      3059Y&lt;BR&gt;&lt;/FONT&gt;
    &lt;/TD&gt;
    &lt;TD BGCOLOR="#cccccc" ALIGN=CENTER&gt;&lt;FONT FACE=ARIAL SIZE=3&gt;
      -&lt;BR&gt;
      89P&lt;BR&gt;
      89W&lt;BR&gt;
      89X&lt;BR&gt;
      89PH&lt;BR&gt;
      76P&lt;BR&gt;
      89XH&lt;BR&gt;
      78SLT&lt;BR&gt;
      78L&amp;nbsp;ALT&lt;BR&gt;
      56P&amp;nbsp;ALT&lt;BR&gt;
      78P&amp;nbsp;ALT&lt;BR&gt;
      T8S&lt;BR&gt;
      78L&lt;BR&gt;
      56P&lt;BR&gt;
      78P&lt;BR&gt;&lt;/FONT&gt;
    &lt;/TD&gt;
    &lt;TD BGCOLOR="#cccccc" ALIGN=CENTER&gt;&lt;FONT FACE=ARIAL SIZE=3&gt;
      -&lt;BR&gt;
      T18/784&lt;BR&gt;
      783&lt;BR&gt;
      781&lt;BR&gt;
      -&lt;BR&gt;
      -&lt;BR&gt;
      -&lt;BR&gt;
      2199&lt;BR&gt;
      1697/1897&lt;BR&gt;
      1680/1880&lt;BR&gt;
      2187&lt;BR&gt;
      -&lt;BR&gt;
      -&lt;BR&gt;
      -&lt;BR&gt;
      -&lt;BR&gt;&lt;/FONT&gt;
    &lt;/TD&gt;
    &lt;TD BGCOLOR="#cccccc" ALIGN=CENTER&gt;&lt;FONT FACE=ARIAL SIZE=3&gt;
      -&lt;BR&gt;
      8035EKP/CT20/RJ-20P&lt;BR&gt;
      -&lt;BR&gt;
      RJ-20X&lt;BR&gt;
      -&lt;BR&gt;
      -&lt;BR&gt;
      -&lt;BR&gt;
      1211L&lt;BR&gt;
      8012EKQ&amp;nbsp;ALT&lt;BR&gt;
      8012EKR&amp;nbsp;ALT&lt;BR&gt;
      1211P&lt;BR&gt;
      8012EKJ&lt;BR&gt;
      8012EKL&lt;BR&gt;
      8012EKQ&lt;BR&gt;
      8012EKR&lt;BR&gt;&lt;/FONT&gt;
    &lt;/TD&gt;
    &lt;TD BGCOLOR="#cccccc" ALIGN=CENTER&gt;&lt;FONT FACE=ARIAL SIZE=3&gt;
      -&lt;BR&gt;
      2101P&lt;BR&gt;
      2101W&lt;BR&gt;
      2101Y&lt;BR&gt;
      -&lt;BR&gt;
      -&lt;BR&gt;
      -&lt;BR&gt;
      -&lt;BR&gt;
      -&lt;BR&gt;
      -&lt;BR&gt;
      -&lt;BR&gt;
      -&lt;BR&gt;
      2102L&lt;BR&gt;
      2102S&lt;BR&gt;
      2102Y&lt;BR&gt;&lt;/FONT&gt;
    &lt;/TD&gt;
    &lt;TD BGCOLOR="#cccccc" ALIGN=CENTER&gt;&lt;FONT FACE=ARIAL SIZE=3&gt;
      -&lt;BR&gt;
      EVMCOG&lt;BR&gt;
      -&lt;BR&gt;
      -&lt;BR&gt;
      -&lt;BR&gt;
      -&lt;BR&gt;
      -&lt;BR&gt;
      -&lt;BR&gt;
      -&lt;BR&gt;
      -&lt;BR&gt;
      -&lt;BR&gt;
      -&lt;BR&gt;
      -&lt;BR&gt;
      -&lt;BR&gt;
      -&lt;BR&gt;&lt;/FONT&gt;
    &lt;/TD&gt;
    &lt;TD BGCOLOR="#cccccc" ALIGN=CENTER&gt;&lt;FONT FACE=ARIAL SIZE=3&gt;
      -&lt;BR&gt;
      43P&lt;BR&gt;
      43W&lt;BR&gt;
      43Y&lt;BR&gt;
      -&lt;BR&gt;
      -&lt;BR&gt;
      -&lt;BR&gt;
      -&lt;BR&gt;
      40L&lt;BR&gt;
      40P&lt;BR&gt;
      40Y&lt;BR&gt;
      70Y-T602&lt;BR&gt;
      70L&lt;BR&gt;
      70P&lt;BR&gt;
      70Y&lt;BR&gt;&lt;/FONT&gt;
    &lt;/TD&gt;
    &lt;TD BGCOLOR="#cccccc" ALIGN=CENTER&gt;&lt;FONT FACE=ARIAL SIZE=3&gt;
      -&lt;BR&gt;
      -&lt;BR&gt;
      -&lt;BR&gt;
      -&lt;BR&gt;
      -&lt;BR&gt;
      -&lt;BR&gt;
      -&lt;BR&gt;
      -&lt;BR&gt;
      RT/RTR12&lt;BR&gt;
      RT/RTR12&lt;BR&gt;
      RT/RTR12&lt;BR&gt;
      -&lt;BR&gt;
      RJ/RJR12&lt;BR&gt;
      RJ/RJR12&lt;BR&gt;
      RJ/RJR12&lt;BR&gt;&lt;/FONT&gt;
    &lt;/TD&gt;
  &lt;/TR&gt;
  &lt;TR&gt;
    &lt;TD COLSPAN=8&gt;&amp;nbsp;
    &lt;/TD&gt;
  &lt;/TR&gt;
  &lt;TR&gt;
    &lt;TD COLSPAN=8&gt;
      &lt;FONT SIZE=4 FACE=ARIAL&gt;&lt;B&gt;SQUARE MULTI-TURN&lt;/B&gt;&lt;/FONT&gt;
    &lt;/TD&gt;
  &lt;/TR&gt;
  &lt;TR&gt;
   &lt;TD ALIGN=CENTER&gt;
      &lt;FONT SIZE=3 FACE=ARIAL&gt;&lt;B&gt;BOURN&lt;/B&gt;&lt;/FONT&gt;
    &lt;/TD&gt;
    &lt;TD ALIGN=CENTER&gt;
      &lt;FONT SIZE=3 FACE=ARIAL&gt;&lt;B&gt;BI&amp;nbsp;TECH&lt;/B&gt;&lt;/FONT&gt;
    &lt;/TD&gt;
    &lt;TD ALIGN=CENTER&gt;
      &lt;FONT SIZE=3 FACE=ARIAL&gt;&lt;B&gt;DALE-VISHAY&lt;/B&gt;&lt;/FONT&gt;
    &lt;/TD&gt;
    &lt;TD ALIGN=CENTER&gt;
      &lt;FONT SIZE=3 FACE=ARIAL&gt;&lt;B&gt;PHILIPS/MEPCO&lt;/B&gt;&lt;/FONT&gt;
    &lt;/TD&gt;
    &lt;TD ALIGN=CENTER&gt;
      &lt;FONT SIZE=3 FACE=ARIAL&gt;&lt;B&gt;MURATA&lt;/B&gt;&lt;/FONT&gt;
    &lt;/TD&gt;
    &lt;TD ALIGN=CENTER&gt;
      &lt;FONT SIZE=3 FACE=ARIAL&gt;&lt;B&gt;PANASONIC&lt;/B&gt;&lt;/FONT&gt;
    &lt;/TD&gt;
    &lt;TD ALIGN=CENTER&gt;
      &lt;FONT SIZE=3 FACE=ARIAL&gt;&lt;B&gt;SPECTROL&lt;/B&gt;&lt;/FONT&gt;
    &lt;/TD&gt;
    &lt;TD ALIGN=CENTER&gt;
      &lt;FONT SIZE=3 FACE=ARIAL&gt;&lt;B&gt;MILSPEC&lt;/B&gt;&lt;/FONT&gt;
    &lt;/TD&gt;
  &lt;/TR&gt;
  &lt;TR&gt;
    &lt;TD BGCOLOR="#cccccc" ALIGN=CENTER&gt;&lt;FONT FACE=ARIAL SIZE=3&gt;
      3250L&lt;BR&gt;
      3250P&lt;BR&gt;
      3250W&lt;BR&gt;
      3250X&lt;BR&gt;
      3252P&lt;BR&gt;
      3252W&lt;BR&gt;
      3252X&lt;BR&gt;
      3260P&lt;BR&gt;
      3260W&lt;BR&gt;
      3260X&lt;BR&gt;
      3262P&lt;BR&gt;
      3262W&lt;BR&gt;
      3262X&lt;BR&gt;
      3266P&lt;BR&gt;
      3266W&lt;BR&gt;
      3266X&lt;BR&gt;
      3290H&lt;BR&gt;
      3290P&lt;BR&gt;
      3290W&lt;BR&gt;
      3292P&lt;BR&gt;
      3292W&lt;BR&gt;
      3292X&lt;BR&gt;
      3296P&lt;BR&gt;
      3296W&lt;BR&gt;
      3296X&lt;BR&gt;
      3296Y&lt;BR&gt;
      3296Z&lt;BR&gt;
      3299P&lt;BR&gt;
      3299W&lt;BR&gt;
      3299X&lt;BR&gt;
      3299Y&lt;BR&gt;
      3299Z&lt;BR&gt;&lt;/FONT&gt;
    &lt;/TD&gt;
    &lt;TD BGCOLOR="#cccccc" ALIGN=CENTER&gt;&lt;FONT FACE=ARIAL SIZE=3&gt;
      -&lt;BR&gt;
      66P&amp;nbsp;ALT&lt;BR&gt;
      66W&amp;nbsp;ALT&lt;BR&gt;
      66X&amp;nbsp;ALT&lt;BR&gt;
      66P&amp;nbsp;ALT&lt;BR&gt;
      66W&amp;nbsp;ALT&lt;BR&gt;
      66X&amp;nbsp;ALT&lt;BR&gt;
      -&lt;BR&gt;
      64W&amp;nbsp;ALT&lt;BR&gt;
      -&lt;BR&gt;
      64P&amp;nbsp;ALT&lt;BR&gt;
      64W&amp;nbsp;ALT&lt;BR&gt;
      64X&amp;nbsp;ALT&lt;BR&gt;
      64P&lt;BR&gt;
      64W&lt;BR&gt;
      64X&lt;BR&gt;
      66X&amp;nbsp;ALT&lt;BR&gt;
      66P&amp;nbsp;ALT&lt;BR&gt;
      66W&amp;nbsp;ALT&lt;BR&gt;
      66P&lt;BR&gt;
      66W&lt;BR&gt;
      66X&lt;BR&gt;
      67P&lt;BR&gt;
      67W&lt;BR&gt;
      67X&lt;BR&gt;
      67Y&lt;BR&gt;
      67Z&lt;BR&gt;
      68P&lt;BR&gt;
      68W&lt;BR&gt;
      68X&lt;BR&gt;
      67Y&amp;nbsp;ALT&lt;BR&gt;
      67Z&amp;nbsp;ALT&lt;BR&gt;&lt;/FONT&gt;
    &lt;/TD&gt;
    &lt;TD BGCOLOR="#cccccc" ALIGN=CENTER&gt;&lt;FONT FACE=ARIAL SIZE=3&gt;
      5050&lt;BR&gt;
      5091&lt;BR&gt;
      5080&lt;BR&gt;
      5087&lt;BR&gt;
      -&lt;BR&gt;
      -&lt;BR&gt;
      -&lt;BR&gt;
      -&lt;BR&gt;
      -&lt;BR&gt;
      -&lt;BR&gt;
      -&lt;BR&gt;
      T63YB&lt;BR&gt;
      T63XB&lt;BR&gt;
      -&lt;BR&gt;
      -&lt;BR&gt;
      -&lt;BR&gt;
      5887&lt;BR&gt;
      5891&lt;BR&gt;
      5880&lt;BR&gt;
      -&lt;BR&gt;
      -&lt;BR&gt;
      -&lt;BR&gt;
      T93Z&lt;BR&gt;
      T93YA&lt;BR&gt;
      T93XA&lt;BR&gt;
      T93YB&lt;BR&gt;
      T93XB&lt;BR&gt;
      -&lt;BR&gt;
      -&lt;BR&gt;
      -&lt;BR&gt;
      -&lt;BR&gt;
      -&lt;BR&gt;&lt;/FONT&gt;
    &lt;/TD&gt;
    &lt;TD BGCOLOR="#cccccc" ALIGN=CENTER&gt;&lt;FONT FACE=ARIAL SIZE=3&gt;
      -&lt;BR&gt;
      -&lt;BR&gt;
      -&lt;BR&gt;
      -&lt;BR&gt;
      -&lt;BR&gt;
      -&lt;BR&gt;
      -&lt;BR&gt;
      -&lt;BR&gt;
      -&lt;BR&gt;
      -&lt;BR&gt;
      8026EKP&lt;BR&gt;
      8026EKW&lt;BR&gt;
      8026EKM&lt;BR&gt;
      8026EKP&lt;BR&gt;
      8026EKB&lt;BR&gt;
      8026EKM&lt;BR&gt;
      1309X&lt;BR&gt;
      1309P&lt;BR&gt;
      1309W&lt;BR&gt;
      8024EKP&lt;BR&gt;
      8024EKW&lt;BR&gt;
      8024EKN&lt;BR&gt;
      RJ-9P/CT9P&lt;BR&gt;
      RJ-9W&lt;BR&gt;
      RJ-9X&lt;BR&gt;
      -&lt;BR&gt;
      -&lt;BR&gt;
      -&lt;BR&gt;
      -&lt;BR&gt;
      -&lt;BR&gt;
      -&lt;BR&gt;
      -&lt;BR&gt;&lt;/FONT&gt;
    &lt;/TD&gt;
    &lt;TD BGCOLOR="#cccccc" ALIGN=CENTER&gt;&lt;FONT FACE=ARIAL SIZE=3&gt;
      -&lt;BR&gt;
      -&lt;BR&gt;
      -&lt;BR&gt;
      -&lt;BR&gt;
      -&lt;BR&gt;
      -&lt;BR&gt;
      -&lt;BR&gt;
      -&lt;BR&gt;
      -&lt;BR&gt;
      -&lt;BR&gt;
      3103P&lt;BR&gt;
      3103Y&lt;BR&gt;
      3103Z&lt;BR&gt;
      3103P&lt;BR&gt;
      3103Y&lt;BR&gt;
      3103Z&lt;BR&gt;
      -&lt;BR&gt;
      -&lt;BR&gt;
      -&lt;BR&gt;
      -&lt;BR&gt;
      -&lt;BR&gt;
      -&lt;BR&gt;
      3105P/3106P&lt;BR&gt;
      3105W/3106W&lt;BR&gt;
      3105X/3106X&lt;BR&gt;
      3105Y/3106Y&lt;BR&gt;
      3105Z/3105Z&lt;BR&gt;
      3102P&lt;BR&gt;
      3102W&lt;BR&gt;
      3102X&lt;BR&gt;
      3102Y&lt;BR&gt;
      3102Z&lt;BR&gt;&lt;/FONT&gt;
    &lt;/TD&gt;
    &lt;TD BGCOLOR="#cccccc" ALIGN=CENTER&gt;&lt;FONT FACE=ARIAL SIZE=3&gt;
      -&lt;BR&gt;
      -&lt;BR&gt;
      -&lt;BR&gt;
      -&lt;BR&gt;
      -&lt;BR&gt;
      -&lt;BR&gt;
      -&lt;BR&gt;
      -&lt;BR&gt;
      -&lt;BR&gt;
      -&lt;BR&gt;
      -&lt;BR&gt;
      -&lt;BR&gt;
      -&lt;BR&gt;
      -&lt;BR&gt;
      -&lt;BR&gt;
      -&lt;BR&gt;
      -&lt;BR&gt;
      -&lt;BR&gt;
      -&lt;BR&gt;
      -&lt;BR&gt;
      -&lt;BR&gt;
      -&lt;BR&gt;
      EVMCBG&lt;BR&gt;
      EVMCCG&lt;BR&gt;
      -&lt;BR&gt;
      -&lt;BR&gt;
      -&lt;BR&gt;
      -&lt;BR&gt;
      -&lt;BR&gt;
      -&lt;BR&gt;
      -&lt;BR&gt;
      -&lt;BR&gt;&lt;/FONT&gt;
    &lt;/TD&gt;
    &lt;TD BGCOLOR="#cccccc" ALIGN=CENTER&gt;&lt;FONT FACE=ARIAL SIZE=3&gt;
      55-1-X&lt;BR&gt;
      55-4-X&lt;BR&gt;
      55-3-X&lt;BR&gt;
      55-2-X&lt;BR&gt;
      -&lt;BR&gt;
      -&lt;BR&gt;
      -&lt;BR&gt;
      -&lt;BR&gt;
      -&lt;BR&gt;
      -&lt;BR&gt;
      -&lt;BR&gt;
      -&lt;BR&gt;
      -&lt;BR&gt;
      -&lt;BR&gt;
      -&lt;BR&gt;
      -&lt;BR&gt;
      50-2-X&lt;BR&gt;
      50-4-X&lt;BR&gt;
      50-3-X&lt;BR&gt;
      -&lt;BR&gt;
      -&lt;BR&gt;
      -&lt;BR&gt;
      64P&lt;BR&gt;
      64W&lt;BR&gt;
      64X&lt;BR&gt;
      64Y&lt;BR&gt;
      64Z&lt;BR&gt;
      -&lt;BR&gt;
      -&lt;BR&gt;
      -&lt;BR&gt;
      -&lt;BR&gt;
      -&lt;BR&gt;&lt;/FONT&gt;
    &lt;/TD&gt;
    &lt;TD BGCOLOR="#cccccc" ALIGN=CENTER&gt;&lt;FONT FACE=ARIAL SIZE=3&gt;
      RT/RTR22&lt;BR&gt;
      RT/RTR22&lt;BR&gt;
      RT/RTR22&lt;BR&gt;
      RT/RTR22&lt;BR&gt;
      RJ/RJR22&lt;BR&gt;
      RJ/RJR22&lt;BR&gt;
      RJ/RJR22&lt;BR&gt;
      RT/RTR26&lt;BR&gt;
      RT/RTR26&lt;BR&gt;
      RT/RTR26&lt;BR&gt;
      RJ/RJR26&lt;BR&gt;
      RJ/RJR26&lt;BR&gt;
      RJ/RJR26&lt;BR&gt;
      RJ/RJR26&lt;BR&gt;
      RJ/RJR26&lt;BR&gt;
      RJ/RJR26&lt;BR&gt;
      RT/RTR24&lt;BR&gt;
      RT/RTR24&lt;BR&gt;
      RT/RTR24&lt;BR&gt;
      RJ/RJR24&lt;BR&gt;
      RJ/RJR24&lt;BR&gt;
      RJ/RJR24&lt;BR&gt;
      RJ/RJR24&lt;BR&gt;
      RJ/RJR24&lt;BR&gt;
      RJ/RJR24&lt;BR&gt;
      -&lt;BR&gt;
      -&lt;BR&gt;
      -&lt;BR&gt;
      -&lt;BR&gt;
      -&lt;BR&gt;
      -&lt;BR&gt;
      -&lt;BR&gt;&lt;/FONT&gt;
    &lt;/TD&gt;
  &lt;/TR&gt;
  &lt;TR&gt;
    &lt;TD COLSPAN=8&gt;&amp;nbsp;
    &lt;/TD&gt;
  &lt;/TR&gt;
  &lt;TR&gt;
    &lt;TD COLSPAN=8&gt;
      &lt;FONT SIZE=4 FACE=ARIAL&gt;&lt;B&gt;SINGLE TURN&lt;/B&gt;&lt;/FONT&gt;
    &lt;/TD&gt;
  &lt;/TR&gt;
  &lt;TR&gt;
    &lt;TD ALIGN=CENTER&gt;
      &lt;FONT SIZE=3 FACE=ARIAL&gt;&lt;B&gt;BOURN&lt;/B&gt;&lt;/FONT&gt;
    &lt;/TD&gt;
    &lt;TD ALIGN=CENTER&gt;
      &lt;FONT SIZE=3 FACE=ARIAL&gt;&lt;B&gt;BI&amp;nbsp;TECH&lt;/B&gt;&lt;/FONT&gt;
    &lt;/TD&gt;
    &lt;TD ALIGN=CENTER&gt;
      &lt;FONT SIZE=3 FACE=ARIAL&gt;&lt;B&gt;DALE-VISHAY&lt;/B&gt;&lt;/FONT&gt;
    &lt;/TD&gt;
    &lt;TD ALIGN=CENTER&gt;
      &lt;FONT SIZE=3 FACE=ARIAL&gt;&lt;B&gt;PHILIPS/MEPCO&lt;/B&gt;&lt;/FONT&gt;
    &lt;/TD&gt;
    &lt;TD ALIGN=CENTER&gt;
      &lt;FONT SIZE=3 FACE=ARIAL&gt;&lt;B&gt;MURATA&lt;/B&gt;&lt;/FONT&gt;
    &lt;/TD&gt;
    &lt;TD ALIGN=CENTER&gt;
      &lt;FONT SIZE=3 FACE=ARIAL&gt;&lt;B&gt;PANASONIC&lt;/B&gt;&lt;/FONT&gt;
    &lt;/TD&gt;
    &lt;TD ALIGN=CENTER&gt;
      &lt;FONT SIZE=3 FACE=ARIAL&gt;&lt;B&gt;SPECTROL&lt;/B&gt;&lt;/FONT&gt;
    &lt;/TD&gt;
    &lt;TD ALIGN=CENTER&gt;
      &lt;FONT SIZE=3 FACE=ARIAL&gt;&lt;B&gt;MILSPEC&lt;/B&gt;&lt;/FONT&gt;
    &lt;/TD&gt;
  &lt;/TR&gt;
  &lt;TR&gt;
    &lt;TD BGCOLOR="#cccccc" ALIGN=CENTER&gt;&lt;FONT FACE=ARIAL SIZE=3&gt;
      3323P&lt;BR&gt;
      3323S&lt;BR&gt;
      3323W&lt;BR&gt;
      3329H&lt;BR&gt;
      3329P&lt;BR&gt;
      3329W&lt;BR&gt;
      3339H&lt;BR&gt;
      3339P&lt;BR&gt;
      3339W&lt;BR&gt;
      3352E&lt;BR&gt;
      3352H&lt;BR&gt;
      3352K&lt;BR&gt;
      3352P&lt;BR&gt;
      3352T&lt;BR&gt;
      3352V&lt;BR&gt;
      3352W&lt;BR&gt;
      3362H&lt;BR&gt;
      3362M&lt;BR&gt;
      3362P&lt;BR&gt;
      3362R&lt;BR&gt;
      3362S&lt;BR&gt;
      3362U&lt;BR&gt;
      3362W&lt;BR&gt;
      3362X&lt;BR&gt;
      3386B&lt;BR&gt;
      3386C&lt;BR&gt;
      3386F&lt;BR&gt;
      3386H&lt;BR&gt;
      3386K&lt;BR&gt;
      3386M&lt;BR&gt;
      3386P&lt;BR&gt;
      3386S&lt;BR&gt;
      3386W&lt;BR&gt;
      3386X&lt;BR&gt;&lt;/FONT&gt;
    &lt;/TD&gt;
    &lt;TD BGCOLOR="#cccccc" ALIGN=CENTER&gt;&lt;FONT FACE=ARIAL SIZE=3&gt;
      25P&lt;BR&gt;
      25S&lt;BR&gt;
      25RX&lt;BR&gt;
      82P&lt;BR&gt;
      82M&lt;BR&gt;
      82PA&lt;BR&gt;
      -&lt;BR&gt;
      -&lt;BR&gt;
      -&lt;BR&gt;
      91E&lt;BR&gt;
      91X&lt;BR&gt;
      91T&lt;BR&gt;
      91B&lt;BR&gt;
      91A&lt;BR&gt;
      91V&lt;BR&gt;
      91W&lt;BR&gt;
      25W&lt;BR&gt;
      25V&lt;BR&gt;
      25P&lt;BR&gt;
      -&lt;BR&gt;
      25S&lt;BR&gt;
      25U&lt;BR&gt;
      25RX&lt;BR&gt;
      25X&lt;BR&gt;
      72XW&lt;BR&gt;
      72XL&lt;BR&gt;
      72PM&lt;BR&gt;
      72RX&lt;BR&gt;
      -&lt;BR&gt;
      72PX&lt;BR&gt;
      72P&lt;BR&gt;
      72RXW&lt;BR&gt;
      72RXL&lt;BR&gt;
      72X&lt;BR&gt;&lt;/FONT&gt;
    &lt;/TD&gt;
    &lt;TD BGCOLOR="#cccccc" ALIGN=CENTER&gt;&lt;FONT FACE=ARIAL SIZE=3&gt;
      -&lt;BR&gt;
      -&lt;BR&gt;
      -&lt;BR&gt;
      T7YB&lt;BR&gt;
      T7YA&lt;BR&gt;
      -&lt;BR&gt;
      -&lt;BR&gt;
      -&lt;BR&gt;
      -&lt;BR&gt;
      -&lt;BR&gt;
      -&lt;BR&gt;
      -&lt;BR&gt;
      -&lt;BR&gt;
      -&lt;BR&gt;
      -&lt;BR&gt;
      -&lt;BR&gt;
      -&lt;BR&gt;
      TXD&lt;BR&gt;
      TYA&lt;BR&gt;
      TYP&lt;BR&gt;
      -&lt;BR&gt;
      TYD&lt;BR&gt;
      TX&lt;BR&gt;
      -&lt;BR&gt;
      150SX&lt;BR&gt;
      100SX&lt;BR&gt;
      102T&lt;BR&gt;
      101S&lt;BR&gt;
      190T&lt;BR&gt;
      150TX&lt;BR&gt;
      101&lt;BR&gt;
      -&lt;BR&gt;
      -&lt;BR&gt;
      101SX&lt;BR&gt;&lt;/FONT&gt;
    &lt;/TD&gt;
    &lt;TD BGCOLOR="#cccccc" ALIGN=CENTER&gt;&lt;FONT FACE=ARIAL SIZE=3&gt;
      ET6P&lt;BR&gt;
      ET6S&lt;BR&gt;
      ET6X&lt;BR&gt;
      RJ-6W/8014EMW&lt;BR&gt;
      RJ-6P/8014EMP&lt;BR&gt;
      RJ-6X/8014EMX&lt;BR&gt;
      TM7W&lt;BR&gt;
      TM7P&lt;BR&gt;
      TM7X&lt;BR&gt;
      -&lt;BR&gt;
      8017SMS&lt;BR&gt;
      -&lt;BR&gt;
      8017SMB&lt;BR&gt;
      8017SMA&lt;BR&gt;
      -&lt;BR&gt;
      -&lt;BR&gt;
      CT-6W&lt;BR&gt;
      CT-6H&lt;BR&gt;
      CT-6P&lt;BR&gt;
      CT-6R&lt;BR&gt;
      -&lt;BR&gt;
      CT-6V&lt;BR&gt;
      CT-6X&lt;BR&gt;
      -&lt;BR&gt;
      -&lt;BR&gt;
      8038EKV&lt;BR&gt;
      -&lt;BR&gt;
      8038EKX&lt;BR&gt;
      -&lt;BR&gt;
      -&lt;BR&gt;
      8038EKP&lt;BR&gt;
      8038EKZ&lt;BR&gt;
      8038EKW&lt;BR&gt;
      -&lt;BR&gt;&lt;/FONT&gt;
    &lt;/TD&gt;
    &lt;TD BGCOLOR="#cccccc" ALIGN=CENTER&gt;&lt;FONT FACE=ARIAL SIZE=3&gt;
      -&lt;BR&gt;
      -&lt;BR&gt;
      -&lt;BR&gt;
      3321H&lt;BR&gt;
      3321P&lt;BR&gt;
      3321N&lt;BR&gt;
      1102H&lt;BR&gt;
      1102P&lt;BR&gt;
      1102T&lt;BR&gt;
      RVA0911V304A&lt;BR&gt;
      -&lt;BR&gt;
      RVA0911H413A&lt;BR&gt;
      RVG0707V100A&lt;BR&gt;
      RVA0607V(H)306A&lt;BR&gt;
      RVA1214H213A&lt;BR&gt;
      -&lt;BR&gt;
      -&lt;BR&gt;
      -&lt;BR&gt;
      -&lt;BR&gt;
      -&lt;BR&gt;
      -&lt;BR&gt;
      -&lt;BR&gt;
      -&lt;BR&gt;
      -&lt;BR&gt;
      3104B&lt;BR&gt;
      3104C&lt;BR&gt;
      3104F&lt;BR&gt;
      3104H&lt;BR&gt;
      -&lt;BR&gt;
      3104M&lt;BR&gt;
      3104P&lt;BR&gt;
      3104S&lt;BR&gt;
      3104W&lt;BR&gt;
      3104X&lt;BR&gt;&lt;/FONT&gt;
    &lt;/TD&gt;
    &lt;TD BGCOLOR="#cccccc" ALIGN=CENTER&gt;&lt;FONT FACE=ARIAL SIZE=3&gt;
      EVMQ0G&lt;BR&gt;
      EVMQIG&lt;BR&gt;
      EVMQ3G&lt;BR&gt;
      EVMS0G&lt;BR&gt;
      EVMQ0G&lt;BR&gt;
      EVMG0G&lt;BR&gt;
      -&lt;BR&gt;
      -&lt;BR&gt;
      -&lt;BR&gt;
      EVMK4GA00B&lt;BR&gt;
      EVM30GA00B&lt;BR&gt;
      EVMK0GA00B&lt;BR&gt;
      EVM38GA00B&lt;BR&gt;
      EVMB6&lt;BR&gt;
      EVLQ0&lt;BR&gt;
      -&lt;BR&gt;
      EVMMSG&lt;BR&gt;
      EVMMBG&lt;BR&gt;
      EVMMAG&lt;BR&gt;
      -&lt;BR&gt;
      -&lt;BR&gt;
      EVMMCS&lt;BR&gt;
      -&lt;BR&gt;
      -&lt;BR&gt;
      -&lt;BR&gt;
      -&lt;BR&gt;
      -&lt;BR&gt;
      EVMM1&lt;BR&gt;
      -&lt;BR&gt;
      -&lt;BR&gt;
      EVMM0&lt;BR&gt;
      -&lt;BR&gt;
      -&lt;BR&gt;
      EVMM3&lt;BR&gt;&lt;/FONT&gt;
    &lt;/TD&gt;
    &lt;TD BGCOLOR="#cccccc" ALIGN=CENTER&gt;&lt;FONT FACE=ARIAL SIZE=3&gt;
      -&lt;BR&gt;
      -&lt;BR&gt;
      -&lt;BR&gt;
      62-3-1&lt;BR&gt;
      62-1-2&lt;BR&gt;
      -&lt;BR&gt;
      -&lt;BR&gt;
      -&lt;BR&gt;
      -&lt;BR&gt;
      -&lt;BR&gt;
      -&lt;BR&gt;
      -&lt;BR&gt;
      -&lt;BR&gt;
      -&lt;BR&gt;
      -&lt;BR&gt;
      -&lt;BR&gt;
      67R&lt;BR&gt;
      -&lt;BR&gt;
      67P&lt;BR&gt;
      -&lt;BR&gt;
      -&lt;BR&gt;
      -&lt;BR&gt;
      -&lt;BR&gt;
      67X&lt;BR&gt;
      63V&lt;BR&gt;
      63S&lt;BR&gt;
      63M&lt;BR&gt;
      -&lt;BR&gt;
      -&lt;BR&gt;
      63H&lt;BR&gt;
      63P&lt;BR&gt;
      -&lt;BR&gt;
      -&lt;BR&gt;
      63X&lt;BR&gt;&lt;/FONT&gt;
    &lt;/TD&gt;
    &lt;TD BGCOLOR="#cccccc" ALIGN=CENTER&gt;&lt;FONT FACE=ARIAL SIZE=3&gt;
      -&lt;BR&gt;
      -&lt;BR&gt;
      -&lt;BR&gt;
      RJ/RJR50&lt;BR&gt;
      RJ/RJR50&lt;BR&gt;
      RJ/RJR50&lt;BR&gt;
      -&lt;BR&gt;
      -&lt;BR&gt;
      -&lt;BR&gt;
      -&lt;BR&gt;
      -&lt;BR&gt;
      -&lt;BR&gt;
      -&lt;BR&gt;
      -&lt;BR&gt;
      -&lt;BR&gt;
      -&lt;BR&gt;
      -&lt;BR&gt;
      -&lt;BR&gt;
      -&lt;BR&gt;
      -&lt;BR&gt;
      -&lt;BR&gt;
      -&lt;BR&gt;
      -&lt;BR&gt;
      -&lt;BR&gt;
      -&lt;BR&gt;
      -&lt;BR&gt;
      -&lt;BR&gt;
      -&lt;BR&gt;
      -&lt;BR&gt;
      -&lt;BR&gt;
      -&lt;BR&gt;
      -&lt;BR&gt;
      -&lt;BR&gt;
      -&lt;BR&gt;&lt;/FONT&gt;
    &lt;/TD&gt;
  &lt;/TR&gt;
&lt;/TABLE&gt;
&lt;P&gt;&amp;nbsp;&lt;P&gt;
&lt;TABLE BORDER=0 CELLSPACING=1 CELLPADDING=3&gt;
  &lt;TR&gt;
    &lt;TD COLSPAN=7&gt;
      &lt;FONT color="#0000FF" SIZE=4 FACE=ARIAL&gt;&lt;B&gt;SMD TRIM-POT CROSS REFERENCE&lt;/B&gt;&lt;/FONT&gt;
      &lt;P&gt;
      &lt;FONT SIZE=4 FACE=ARIAL&gt;&lt;B&gt;MULTI-TURN&lt;/B&gt;&lt;/FONT&gt;
    &lt;/TD&gt;
  &lt;/TR&gt;
  &lt;TR&gt;
    &lt;TD&gt;
      &lt;FONT SIZE=3 FACE=ARIAL&gt;&lt;B&gt;BOURNS&lt;/B&gt;&lt;/FONT&gt;
    &lt;/TD&gt;
    &lt;TD&gt;
      &lt;FONT SIZE=3 FACE=ARIAL&gt;&lt;B&gt;BI&amp;nbsp;TECH&lt;/B&gt;&lt;/FONT&gt;
    &lt;/TD&gt;
    &lt;TD&gt;
      &lt;FONT SIZE=3 FACE=ARIAL&gt;&lt;B&gt;DALE-VISHAY&lt;/B&gt;&lt;/FONT&gt;
    &lt;/TD&gt;
    &lt;TD&gt;
      &lt;FONT SIZE=3 FACE=ARIAL&gt;&lt;B&gt;PHILIPS/MEPCO&lt;/B&gt;&lt;/FONT&gt;
    &lt;/TD&gt;
    &lt;TD&gt;
      &lt;FONT SIZE=3 FACE=ARIAL&gt;&lt;B&gt;PANASONIC&lt;/B&gt;&lt;/FONT&gt;
    &lt;/TD&gt;
    &lt;TD&gt;
      &lt;FONT SIZE=3 FACE=ARIAL&gt;&lt;B&gt;TOCOS&lt;/B&gt;&lt;/FONT&gt;
    &lt;/TD&gt;
    &lt;TD&gt;
      &lt;FONT SIZE=3 FACE=ARIAL&gt;&lt;B&gt;AUX/KYOCERA&lt;/B&gt;&lt;/FONT&gt;
    &lt;/TD&gt;
  &lt;/TR&gt;
  &lt;TR&gt;
    &lt;TD BGCOLOR="#cccccc" ALIGN=CENTER&gt;&lt;FONT FACE=ARIAL SIZE=3&gt;
      3224G&lt;BR&gt;
      3224J&lt;BR&gt;
      3224W&lt;BR&gt;
      3269P&lt;BR&gt;
      3269W&lt;BR&gt;
      3269X&lt;BR&gt;&lt;/FONT&gt;
    &lt;/TD&gt;
    &lt;TD BGCOLOR="#cccccc" ALIGN=CENTER&gt;&lt;FONT FACE=ARIAL SIZE=3&gt;
      44G&lt;BR&gt;
      44J&lt;BR&gt;
      44W&lt;BR&gt;
      84P&lt;BR&gt;
      84W&lt;BR&gt;
      84X&lt;BR&gt;&lt;/FONT&gt;
    &lt;/TD&gt;
    &lt;TD BGCOLOR="#cccccc" ALIGN=CENTER&gt;&lt;FONT FACE=ARIAL SIZE=3&gt;
      -&lt;BR&gt;
      -&lt;BR&gt;
      -&lt;BR&gt;
      ST63Z&lt;BR&gt;
      ST63Y&lt;BR&gt;
      -&lt;BR&gt;&lt;/FONT&gt;
    &lt;/TD&gt;
    &lt;TD BGCOLOR="#cccccc" ALIGN=CENTER&gt;&lt;FONT FACE=ARIAL SIZE=3&gt;
      -&lt;BR&gt;
      -&lt;BR&gt;
      -&lt;BR&gt;
      ST5P&lt;BR&gt;
      ST5W&lt;BR&gt;
      ST5X&lt;BR&gt;&lt;/FONT&gt;
    &lt;/TD&gt;
    &lt;TD BGCOLOR="#cccccc" ALIGN=CENTER&gt;&lt;FONT FACE=ARIAL SIZE=3&gt;
      -&lt;BR&gt;
      -&lt;BR&gt;
      -&lt;BR&gt;
      -&lt;BR&gt;
      -&lt;BR&gt;
      -&lt;BR&gt;&lt;/FONT&gt;
    &lt;/TD&gt;
    &lt;TD BGCOLOR="#cccccc" ALIGN=CENTER&gt;&lt;FONT FACE=ARIAL SIZE=3&gt;
      -&lt;BR&gt;
      -&lt;BR&gt;
      -&lt;BR&gt;
      -&lt;BR&gt;
      -&lt;BR&gt;
      -&lt;BR&gt;&lt;/FONT&gt;
    &lt;/TD&gt;
    &lt;TD BGCOLOR="#cccccc" ALIGN=CENTER&gt;&lt;FONT FACE=ARIAL SIZE=3&gt;
      -&lt;BR&gt;
      -&lt;BR&gt;
      -&lt;BR&gt;
      -&lt;BR&gt;
      -&lt;BR&gt;
      -&lt;BR&gt;&lt;/FONT&gt;
    &lt;/TD&gt;
  &lt;/TR&gt;
  &lt;TR&gt;
    &lt;TD COLSPAN=7&gt;&amp;nbsp;
    &lt;/TD&gt;
  &lt;/TR&gt;
  &lt;TR&gt;
    &lt;TD COLSPAN=7&gt;
      &lt;FONT SIZE=4 FACE=ARIAL&gt;&lt;B&gt;SINGLE TURN&lt;/B&gt;&lt;/FONT&gt;
    &lt;/TD&gt;
  &lt;/TR&gt;
  &lt;TR&gt;
    &lt;TD&gt;
      &lt;FONT SIZE=3 FACE=ARIAL&gt;&lt;B&gt;BOURNS&lt;/B&gt;&lt;/FONT&gt;
    &lt;/TD&gt;
    &lt;TD&gt;
      &lt;FONT SIZE=3 FACE=ARIAL&gt;&lt;B&gt;BI&amp;nbsp;TECH&lt;/B&gt;&lt;/FONT&gt;
    &lt;/TD&gt;
    &lt;TD&gt;
      &lt;FONT SIZE=3 FACE=ARIAL&gt;&lt;B&gt;DALE-VISHAY&lt;/B&gt;&lt;/FONT&gt;
    &lt;/TD&gt;
    &lt;TD&gt;
      &lt;FONT SIZE=3 FACE=ARIAL&gt;&lt;B&gt;PHILIPS/MEPCO&lt;/B&gt;&lt;/FONT&gt;
    &lt;/TD&gt;
    &lt;TD&gt;
      &lt;FONT SIZE=3 FACE=ARIAL&gt;&lt;B&gt;PANASONIC&lt;/B&gt;&lt;/FONT&gt;
    &lt;/TD&gt;
    &lt;TD&gt;
      &lt;FONT SIZE=3 FACE=ARIAL&gt;&lt;B&gt;TOCOS&lt;/B&gt;&lt;/FONT&gt;
    &lt;/TD&gt;
    &lt;TD&gt;
      &lt;FONT SIZE=3 FACE=ARIAL&gt;&lt;B&gt;AUX/KYOCERA&lt;/B&gt;&lt;/FONT&gt;
    &lt;/TD&gt;
  &lt;/TR&gt;
  &lt;TR&gt;
    &lt;TD BGCOLOR="#cccccc" ALIGN=CENTER&gt;&lt;FONT FACE=ARIAL SIZE=3&gt;
      3314G&lt;BR&gt;
      3314J&lt;BR&gt;
      3364A/B&lt;BR&gt;
      3364C/D&lt;BR&gt;
      3364W/X&lt;BR&gt;
      3313G&lt;BR&gt;
      3313J&lt;BR&gt;&lt;/FONT&gt;
    &lt;/TD&gt;
    &lt;TD BGCOLOR="#cccccc" ALIGN=CENTER&gt;&lt;FONT FACE=ARIAL SIZE=3&gt;
      23B&lt;BR&gt;
      23A&lt;BR&gt;
      21X&lt;BR&gt;
      21W&lt;BR&gt;
      -&lt;BR&gt;
      22B&lt;BR&gt;
      22A&lt;BR&gt;&lt;/FONT&gt;
    &lt;/TD&gt;
    &lt;TD BGCOLOR="#cccccc" ALIGN=CENTER&gt;&lt;FONT FACE=ARIAL SIZE=3&gt;
      ST5YL/ST53YL&lt;BR&gt;
      ST5YJ/5T53YJ&lt;BR&gt;
      ST-23A&lt;BR&gt;
      ST-22B&lt;BR&gt;
      ST-22&lt;BR&gt;
      -&lt;BR&gt;
      -&lt;BR&gt;&lt;/FONT&gt;
    &lt;/TD&gt;
    &lt;TD BGCOLOR="#cccccc" ALIGN=CENTER&gt;&lt;FONT FACE=ARIAL SIZE=3&gt;
      ST-4B&lt;BR&gt;
      ST-4A&lt;BR&gt;
      -&lt;BR&gt;
      -&lt;BR&gt;
      -&lt;BR&gt;
      ST-3B&lt;BR&gt;
      ST-3A&lt;BR&gt;&lt;/FONT&gt;
    &lt;/TD&gt;
    &lt;TD BGCOLOR="#cccccc" ALIGN=CENTER&gt;&lt;FONT FACE=ARIAL SIZE=3&gt;
      -&lt;BR&gt;
      EVM-6YS&lt;BR&gt;
      EVM-1E&lt;BR&gt;
      EVM-1G&lt;BR&gt;
      EVM-1D&lt;BR&gt;
      -&lt;BR&gt;
      -&lt;BR&gt;&lt;/FONT&gt;
    &lt;/TD&gt;
    &lt;TD BGCOLOR="#cccccc" ALIGN=CENTER&gt;&lt;FONT FACE=ARIAL SIZE=3&gt;
      G4B&lt;BR&gt;
      G4A&lt;BR&gt;
      TR04-3S1&lt;BR&gt;
      TRG04-2S1&lt;BR&gt;
      -&lt;BR&gt;
      -&lt;BR&gt;
      -&lt;BR&gt;&lt;/FONT&gt;
    &lt;/TD&gt;
    &lt;TD BGCOLOR="#cccccc" ALIGN=CENTER&gt;&lt;FONT FACE=ARIAL SIZE=3&gt;
      -&lt;BR&gt;
      -&lt;BR&gt;
      DVR-43A&lt;BR&gt;
      CVR-42C&lt;BR&gt;
      CVR-42A/C&lt;BR&gt;
      -&lt;BR&gt;
      -&lt;BR&gt;&lt;/FONT&gt;
    &lt;/TD&gt;
  &lt;/TR&gt;
&lt;/TABLE&gt;
&lt;P&gt;
&lt;FONT SIZE=4 FACE=ARIAL&gt;&lt;B&gt;ALT =&amp;nbsp;ALTERNATE&lt;/B&gt;&lt;/FONT&gt;
&lt;P&gt;

&amp;nbsp;
&lt;P&gt;
&lt;/td&gt;
&lt;/tr&gt;
&lt;/table&gt;</description>
<packages>
<package name="C050-024X044" urn="urn:adsk.eagle:footprint:23147/1" library_version="3">
<description>&lt;b&gt;CAPACITOR&lt;/b&gt;&lt;p&gt;
grid 5 mm, outline 2.4 x 4.4 mm</description>
<wire x1="-2.159" y1="-0.635" x2="-2.159" y2="0.635" width="0.1524" layer="51"/>
<wire x1="-2.159" y1="0.635" x2="-1.651" y2="1.143" width="0.1524" layer="21" curve="-90"/>
<wire x1="-2.159" y1="-0.635" x2="-1.651" y2="-1.143" width="0.1524" layer="21" curve="90"/>
<wire x1="1.651" y1="1.143" x2="-1.651" y2="1.143" width="0.1524" layer="21"/>
<wire x1="2.159" y1="-0.635" x2="2.159" y2="0.635" width="0.1524" layer="51"/>
<wire x1="1.651" y1="-1.143" x2="-1.651" y2="-1.143" width="0.1524" layer="21"/>
<wire x1="1.651" y1="1.143" x2="2.159" y2="0.635" width="0.1524" layer="21" curve="-90"/>
<wire x1="1.651" y1="-1.143" x2="2.159" y2="-0.635" width="0.1524" layer="21" curve="90"/>
<wire x1="-0.3048" y1="0.762" x2="-0.3048" y2="0" width="0.3048" layer="21"/>
<wire x1="-0.3048" y1="0" x2="-0.3048" y2="-0.762" width="0.3048" layer="21"/>
<wire x1="0.3302" y1="0.762" x2="0.3302" y2="0" width="0.3048" layer="21"/>
<wire x1="0.3302" y1="0" x2="0.3302" y2="-0.762" width="0.3048" layer="21"/>
<wire x1="1.27" y1="0" x2="0.3302" y2="0" width="0.1524" layer="21"/>
<wire x1="-1.27" y1="0" x2="-0.3048" y2="0" width="0.1524" layer="21"/>
<pad name="1" x="-2.54" y="0" drill="0.8128" shape="octagon"/>
<pad name="2" x="2.54" y="0" drill="0.8128" shape="octagon"/>
<text x="-2.159" y="1.397" size="1.27" layer="25" ratio="10">&gt;NAME</text>
<text x="-2.159" y="-2.667" size="1.27" layer="27" ratio="10">&gt;VALUE</text>
<rectangle x1="2.159" y1="-0.381" x2="2.54" y2="0.381" layer="51"/>
<rectangle x1="-2.54" y1="-0.381" x2="-2.159" y2="0.381" layer="51"/>
</package>
<package name="0207/7" urn="urn:adsk.eagle:footprint:22996/1" library_version="3">
<description>&lt;b&gt;RESISTOR&lt;/b&gt;&lt;p&gt;
type 0207, grid 7.5 mm</description>
<wire x1="-3.81" y1="0" x2="-3.429" y2="0" width="0.6096" layer="51"/>
<wire x1="-3.175" y1="0.889" x2="-2.921" y2="1.143" width="0.1524" layer="21" curve="-90"/>
<wire x1="-3.175" y1="-0.889" x2="-2.921" y2="-1.143" width="0.1524" layer="21" curve="90"/>
<wire x1="2.921" y1="-1.143" x2="3.175" y2="-0.889" width="0.1524" layer="21" curve="90"/>
<wire x1="2.921" y1="1.143" x2="3.175" y2="0.889" width="0.1524" layer="21" curve="-90"/>
<wire x1="-3.175" y1="-0.889" x2="-3.175" y2="0.889" width="0.1524" layer="51"/>
<wire x1="-2.921" y1="1.143" x2="-2.54" y2="1.143" width="0.1524" layer="21"/>
<wire x1="-2.413" y1="1.016" x2="-2.54" y2="1.143" width="0.1524" layer="21"/>
<wire x1="-2.921" y1="-1.143" x2="-2.54" y2="-1.143" width="0.1524" layer="21"/>
<wire x1="-2.413" y1="-1.016" x2="-2.54" y2="-1.143" width="0.1524" layer="21"/>
<wire x1="2.413" y1="1.016" x2="2.54" y2="1.143" width="0.1524" layer="21"/>
<wire x1="2.413" y1="1.016" x2="-2.413" y2="1.016" width="0.1524" layer="21"/>
<wire x1="2.413" y1="-1.016" x2="2.54" y2="-1.143" width="0.1524" layer="21"/>
<wire x1="2.413" y1="-1.016" x2="-2.413" y2="-1.016" width="0.1524" layer="21"/>
<wire x1="2.921" y1="1.143" x2="2.54" y2="1.143" width="0.1524" layer="21"/>
<wire x1="2.921" y1="-1.143" x2="2.54" y2="-1.143" width="0.1524" layer="21"/>
<wire x1="3.175" y1="-0.889" x2="3.175" y2="0.889" width="0.1524" layer="51"/>
<wire x1="3.429" y1="0" x2="3.81" y2="0" width="0.6096" layer="51"/>
<pad name="1" x="-3.81" y="0" drill="0.8128" shape="octagon"/>
<pad name="2" x="3.81" y="0" drill="0.8128" shape="octagon"/>
<text x="-2.54" y="1.397" size="1.27" layer="25" ratio="10">&gt;NAME</text>
<text x="-2.286" y="-0.5588" size="1.27" layer="27" ratio="10">&gt;VALUE</text>
<rectangle x1="-3.429" y1="-0.3048" x2="-3.175" y2="0.3048" layer="51"/>
<rectangle x1="3.175" y1="-0.3048" x2="3.429" y2="0.3048" layer="51"/>
</package>
</packages>
<packages3d>
<package3d name="C050-024X044" urn="urn:adsk.eagle:package:23643/1" type="box" library_version="3">
<description>CAPACITOR
grid 5 mm, outline 2.4 x 4.4 mm</description>
</package3d>
<package3d name="0207/7" urn="urn:adsk.eagle:package:23493/1" type="box" library_version="3">
<description>RESISTOR
type 0207, grid 7.5 mm</description>
</package3d>
</packages3d>
</library>
<library name="led" urn="urn:adsk.eagle:library:259">
<description>&lt;b&gt;LEDs&lt;/b&gt;&lt;p&gt;
&lt;author&gt;Created by librarian@cadsoft.de&lt;/author&gt;&lt;br&gt;
Extended by Federico Battaglin &lt;author&gt;&amp;lt;federico.rd@fdpinternational.com&amp;gt;&lt;/author&gt; with DUOLED</description>
<packages>
<package name="LED3MM" urn="urn:adsk.eagle:footprint:15654/1" library_version="2">
<description>&lt;B&gt;LED&lt;/B&gt;&lt;p&gt;
3 mm, round</description>
<wire x1="1.5748" y1="-1.27" x2="1.5748" y2="1.27" width="0.254" layer="51"/>
<wire x1="-1.524" y1="0" x2="-1.1708" y2="0.9756" width="0.1524" layer="51" curve="-39.80361"/>
<wire x1="-1.524" y1="0" x2="-1.1391" y2="-1.0125" width="0.1524" layer="51" curve="41.633208"/>
<wire x1="1.1571" y1="0.9918" x2="1.524" y2="0" width="0.1524" layer="51" curve="-40.601165"/>
<wire x1="1.1708" y1="-0.9756" x2="1.524" y2="0" width="0.1524" layer="51" curve="39.80361"/>
<wire x1="0" y1="1.524" x2="1.2401" y2="0.8858" width="0.1524" layer="21" curve="-54.461337"/>
<wire x1="-1.2192" y1="0.9144" x2="0" y2="1.524" width="0.1524" layer="21" curve="-53.130102"/>
<wire x1="0" y1="-1.524" x2="1.203" y2="-0.9356" width="0.1524" layer="21" curve="52.126876"/>
<wire x1="-1.203" y1="-0.9356" x2="0" y2="-1.524" width="0.1524" layer="21" curve="52.126876"/>
<wire x1="-0.635" y1="0" x2="0" y2="0.635" width="0.1524" layer="51" curve="-90"/>
<wire x1="-1.016" y1="0" x2="0" y2="1.016" width="0.1524" layer="51" curve="-90"/>
<wire x1="0" y1="-0.635" x2="0.635" y2="0" width="0.1524" layer="51" curve="90"/>
<wire x1="0" y1="-1.016" x2="1.016" y2="0" width="0.1524" layer="51" curve="90"/>
<wire x1="0" y1="2.032" x2="1.561" y2="1.3009" width="0.254" layer="21" curve="-50.193108"/>
<wire x1="-1.7929" y1="0.9562" x2="0" y2="2.032" width="0.254" layer="21" curve="-61.926949"/>
<wire x1="0" y1="-2.032" x2="1.5512" y2="-1.3126" width="0.254" layer="21" curve="49.763022"/>
<wire x1="-1.7643" y1="-1.0082" x2="0" y2="-2.032" width="0.254" layer="21" curve="60.255215"/>
<wire x1="-2.032" y1="0" x2="-1.7891" y2="0.9634" width="0.254" layer="51" curve="-28.301701"/>
<wire x1="-2.032" y1="0" x2="-1.7306" y2="-1.065" width="0.254" layer="51" curve="31.60822"/>
<pad name="A" x="-1.27" y="0" drill="0.8128" shape="octagon"/>
<pad name="K" x="1.27" y="0" drill="0.8128" shape="octagon"/>
<text x="1.905" y="0.381" size="1.27" layer="25" ratio="10">&gt;NAME</text>
<text x="1.905" y="-1.651" size="1.27" layer="27" ratio="10">&gt;VALUE</text>
</package>
</packages>
<packages3d>
<package3d name="LED3MM" urn="urn:adsk.eagle:package:15797/1" type="box" library_version="2">
<description>LED
3 mm, round</description>
</package3d>
</packages3d>
</library>
<library name="piher">
<description>&lt;b&gt;Piher Potentiometers&lt;/b&gt;&lt;p&gt;
PC-16/16 mm carbon types&lt;p&gt;
&lt;author&gt;Created by librarian@cadsoft.de&lt;/author&gt;</description>
<packages>
<package name="PC16S">
<description>&lt;b&gt;POTENTIOMETER&lt;/b&gt;&lt;p&gt;
single carbon potentiometer, 16 mm</description>
<wire x1="-7.9" y1="0.1" x2="-4.9" y2="0.1" width="0.2032" layer="21"/>
<wire x1="-4.9" y1="0.1" x2="4.9" y2="0.1" width="0.2032" layer="21"/>
<wire x1="4.9" y1="0.1" x2="7.9" y2="0.1" width="0.2032" layer="21"/>
<wire x1="-7.9" y1="8" x2="7.9" y2="8" width="0.2032" layer="21"/>
<wire x1="-4.5" y1="-8.8" x2="4.5" y2="-8.8" width="0.2032" layer="21"/>
<wire x1="-4.9" y1="0.1" x2="-4.9" y2="-1.9" width="0.2032" layer="21"/>
<wire x1="-4.9" y1="-3.7" x2="-4.9" y2="-8.4" width="0.2032" layer="21"/>
<wire x1="4.9" y1="0.1" x2="4.9" y2="-1.9" width="0.2032" layer="21"/>
<wire x1="4.9" y1="-3.7" x2="4.9" y2="-8.4" width="0.2032" layer="21"/>
<wire x1="-7.9" y1="8" x2="-7.9" y2="0.1" width="0.2032" layer="21"/>
<wire x1="7.9" y1="0.1" x2="7.9" y2="8" width="0.2032" layer="21"/>
<wire x1="-2.9" y1="-44.9" x2="2.9" y2="-44.9" width="0.2032" layer="21"/>
<wire x1="-2.9" y1="-8.9" x2="-2.9" y2="-44.9" width="0.2032" layer="21"/>
<wire x1="2.9" y1="-8.9" x2="2.9" y2="-44.9" width="0.2032" layer="21"/>
<wire x1="-4.9" y1="-8.4" x2="-4.5" y2="-8.8" width="0.2032" layer="21"/>
<wire x1="4.5" y1="-8.8" x2="4.9" y2="-8.4" width="0.2032" layer="21"/>
<wire x1="-5.7" y1="-1.9" x2="-4.9" y2="-1.9" width="0.2032" layer="21"/>
<wire x1="-4.9" y1="-1.9" x2="4.9" y2="-1.9" width="0.2032" layer="21"/>
<wire x1="4.9" y1="-1.9" x2="5.7" y2="-1.9" width="0.2032" layer="21"/>
<wire x1="5.7" y1="-1.9" x2="6.4" y2="-2" width="0.2032" layer="21"/>
<wire x1="6.4" y1="-2" x2="6.7" y2="-2.1" width="0.2032" layer="21"/>
<wire x1="6.7" y1="-2.1" x2="6.7" y2="-3.5" width="0.2032" layer="21"/>
<wire x1="6.7" y1="-3.5" x2="6.4" y2="-3.6" width="0.2032" layer="21"/>
<wire x1="6.4" y1="-3.6" x2="5.7" y2="-3.7" width="0.2032" layer="21"/>
<wire x1="5.7" y1="-3.7" x2="4.9" y2="-3.7" width="0.2032" layer="21"/>
<wire x1="4.9" y1="-3.7" x2="-4.9" y2="-3.7" width="0.2032" layer="21"/>
<wire x1="-4.9" y1="-3.7" x2="-5.7" y2="-3.7" width="0.2032" layer="21"/>
<wire x1="-5.7" y1="-3.7" x2="-6.4" y2="-3.6" width="0.2032" layer="21"/>
<wire x1="-6.4" y1="-3.6" x2="-6.7" y2="-3.5" width="0.2032" layer="21"/>
<wire x1="-6.7" y1="-3.5" x2="-6.7" y2="-2.1" width="0.2032" layer="21"/>
<wire x1="-6.7" y1="-2.1" x2="-6.4" y2="-2" width="0.2032" layer="21"/>
<wire x1="-6.4" y1="-2" x2="-5.7" y2="-1.9" width="0.2032" layer="21"/>
<wire x1="3.4" y1="-2.4" x2="3" y2="-2.2" width="0.2032" layer="21"/>
<wire x1="3" y1="-2.2" x2="2.2" y2="-2" width="0.2032" layer="21"/>
<wire x1="2.2" y1="-2" x2="1.4" y2="-1.9" width="0.2032" layer="21"/>
<wire x1="-3.4" y1="-2.4" x2="-3" y2="-2.2" width="0.2032" layer="21"/>
<wire x1="-3" y1="-2.2" x2="-2.2" y2="-2" width="0.2032" layer="21"/>
<wire x1="-2.2" y1="-2" x2="-1.4" y2="-1.9" width="0.2032" layer="21"/>
<wire x1="-3" y1="-3.4" x2="-2.2" y2="-3.6" width="0.2032" layer="21"/>
<wire x1="-2.2" y1="-3.6" x2="-1.4" y2="-3.7" width="0.2032" layer="21"/>
<wire x1="3.4" y1="-3.2" x2="3" y2="-3.4" width="0.2032" layer="21"/>
<wire x1="3" y1="-3.4" x2="2.2" y2="-3.6" width="0.2032" layer="21"/>
<wire x1="2.2" y1="-3.6" x2="1.4" y2="-3.7" width="0.2032" layer="21"/>
<wire x1="-3.4" y1="-3.2" x2="-3.8" y2="-3.4" width="0.2032" layer="21"/>
<wire x1="-3.8" y1="-3.4" x2="-4.6" y2="-3.6" width="0.2032" layer="21"/>
<wire x1="-4.6" y1="-3.6" x2="-5.4" y2="-3.7" width="0.2032" layer="21"/>
<wire x1="-3.4" y1="-2.4" x2="-3.8" y2="-2.2" width="0.2032" layer="21"/>
<wire x1="-3.8" y1="-2.2" x2="-4.6" y2="-2" width="0.2032" layer="21"/>
<wire x1="-4.6" y1="-2" x2="-5.4" y2="-1.9" width="0.2032" layer="21"/>
<wire x1="3.4" y1="-2.4" x2="3.8" y2="-2.2" width="0.2032" layer="21"/>
<wire x1="3.8" y1="-2.2" x2="4.6" y2="-2" width="0.2032" layer="21"/>
<wire x1="4.6" y1="-2" x2="5.4" y2="-1.9" width="0.2032" layer="21"/>
<wire x1="3.4" y1="-3.2" x2="3.8" y2="-3.4" width="0.2032" layer="21"/>
<wire x1="3.8" y1="-3.4" x2="4.6" y2="-3.6" width="0.2032" layer="21"/>
<wire x1="4.6" y1="-3.6" x2="5.4" y2="-3.7" width="0.2032" layer="21"/>
<wire x1="-3.4" y1="-2.4" x2="-3.4" y2="-3.2" width="0.2032" layer="21"/>
<wire x1="3.4" y1="-2.4" x2="3.4" y2="-3.2" width="0.2032" layer="21"/>
<wire x1="-3.4072" y1="-3.2" x2="-3.0072" y2="-3.4" width="0.2032" layer="21"/>
<pad name="1A" x="-5" y="6.5" drill="1.2" shape="long" rot="R90"/>
<pad name="1S" x="0" y="6.5" drill="1.2" shape="long" rot="R90"/>
<pad name="1E" x="5" y="6.5" drill="1.2" shape="long" rot="R90"/>
<text x="-8.32" y="0.52" size="1.27" layer="25" rot="R90">&gt;NAME</text>
<text x="9.9" y="0.52" size="1.27" layer="27" rot="R90">&gt;VALUE</text>
</package>
<package name="DESLISABLE">
<wire x1="0" y1="0" x2="70" y2="0" width="0.127" layer="21"/>
<wire x1="70" y1="0" x2="70" y2="10" width="0.127" layer="21"/>
<wire x1="70" y1="10" x2="0" y2="10" width="0.127" layer="21"/>
<wire x1="0" y1="10" x2="0" y2="0" width="0.127" layer="21"/>
<pad name="P$3" x="14" y="0" drill="1" diameter="1.9304" shape="long"/>
<pad name="P$2" x="51" y="0" drill="1" diameter="2.54" shape="square"/>
<pad name="P$1" x="56" y="0" drill="1" diameter="2.54" shape="square"/>
<wire x1="3" y1="5" x2="67" y2="5" width="0.127" layer="21"/>
<rectangle x1="55" y1="3" x2="56" y2="7" layer="21"/>
<rectangle x1="56" y1="3" x2="57" y2="7" layer="21"/>
<text x="3" y="-2" size="1.27" layer="25">&gt;NAME</text>
<text x="17" y="-2" size="1.27" layer="27">&gt;VALUE</text>
</package>
</packages>
</library>
<library name="switch-omron" urn="urn:adsk.eagle:library:377">
<description>&lt;b&gt;Omron Switches&lt;/b&gt;&lt;p&gt;
&lt;author&gt;Created by librarian@cadsoft.de&lt;/author&gt;</description>
<packages>
<package name="B3F-10XX" urn="urn:adsk.eagle:footprint:27476/1" library_version="1">
<description>&lt;b&gt;OMRON SWITCH&lt;/b&gt;</description>
<wire x1="3.302" y1="-0.762" x2="3.048" y2="-0.762" width="0.1524" layer="21"/>
<wire x1="3.302" y1="-0.762" x2="3.302" y2="0.762" width="0.1524" layer="21"/>
<wire x1="3.048" y1="0.762" x2="3.302" y2="0.762" width="0.1524" layer="21"/>
<wire x1="3.048" y1="1.016" x2="3.048" y2="2.54" width="0.1524" layer="51"/>
<wire x1="-3.302" y1="0.762" x2="-3.048" y2="0.762" width="0.1524" layer="21"/>
<wire x1="-3.302" y1="0.762" x2="-3.302" y2="-0.762" width="0.1524" layer="21"/>
<wire x1="-3.048" y1="-0.762" x2="-3.302" y2="-0.762" width="0.1524" layer="21"/>
<wire x1="3.048" y1="2.54" x2="2.54" y2="3.048" width="0.1524" layer="51"/>
<wire x1="2.54" y1="-3.048" x2="3.048" y2="-2.54" width="0.1524" layer="51"/>
<wire x1="3.048" y1="-2.54" x2="3.048" y2="-1.016" width="0.1524" layer="51"/>
<wire x1="-2.54" y1="3.048" x2="-3.048" y2="2.54" width="0.1524" layer="51"/>
<wire x1="-3.048" y1="2.54" x2="-3.048" y2="1.016" width="0.1524" layer="51"/>
<wire x1="-2.54" y1="-3.048" x2="-3.048" y2="-2.54" width="0.1524" layer="51"/>
<wire x1="-3.048" y1="-2.54" x2="-3.048" y2="-1.016" width="0.1524" layer="51"/>
<wire x1="-1.27" y1="1.27" x2="-1.27" y2="-1.27" width="0.0508" layer="51"/>
<wire x1="1.27" y1="-1.27" x2="-1.27" y2="-1.27" width="0.0508" layer="51"/>
<wire x1="1.27" y1="-1.27" x2="1.27" y2="1.27" width="0.0508" layer="51"/>
<wire x1="-1.27" y1="1.27" x2="1.27" y2="1.27" width="0.0508" layer="51"/>
<wire x1="-1.27" y1="3.048" x2="-1.27" y2="2.794" width="0.0508" layer="21"/>
<wire x1="1.27" y1="2.794" x2="-1.27" y2="2.794" width="0.0508" layer="21"/>
<wire x1="1.27" y1="2.794" x2="1.27" y2="3.048" width="0.0508" layer="21"/>
<wire x1="1.143" y1="-2.794" x2="-1.27" y2="-2.794" width="0.0508" layer="21"/>
<wire x1="1.143" y1="-2.794" x2="1.143" y2="-3.048" width="0.0508" layer="21"/>
<wire x1="-1.27" y1="-2.794" x2="-1.27" y2="-3.048" width="0.0508" layer="21"/>
<wire x1="2.54" y1="-3.048" x2="2.159" y2="-3.048" width="0.1524" layer="51"/>
<wire x1="-2.54" y1="-3.048" x2="-2.159" y2="-3.048" width="0.1524" layer="51"/>
<wire x1="-2.159" y1="-3.048" x2="-1.27" y2="-3.048" width="0.1524" layer="21"/>
<wire x1="-2.54" y1="3.048" x2="-2.159" y2="3.048" width="0.1524" layer="51"/>
<wire x1="2.54" y1="3.048" x2="2.159" y2="3.048" width="0.1524" layer="51"/>
<wire x1="2.159" y1="3.048" x2="1.27" y2="3.048" width="0.1524" layer="21"/>
<wire x1="1.27" y1="3.048" x2="-1.27" y2="3.048" width="0.1524" layer="21"/>
<wire x1="-1.27" y1="3.048" x2="-2.159" y2="3.048" width="0.1524" layer="21"/>
<wire x1="-1.27" y1="-3.048" x2="1.143" y2="-3.048" width="0.1524" layer="21"/>
<wire x1="1.143" y1="-3.048" x2="2.159" y2="-3.048" width="0.1524" layer="21"/>
<wire x1="3.048" y1="-0.762" x2="3.048" y2="-1.016" width="0.1524" layer="21"/>
<wire x1="3.048" y1="0.762" x2="3.048" y2="1.016" width="0.1524" layer="21"/>
<wire x1="-3.048" y1="-0.762" x2="-3.048" y2="-1.016" width="0.1524" layer="21"/>
<wire x1="-3.048" y1="0.762" x2="-3.048" y2="1.016" width="0.1524" layer="21"/>
<wire x1="-1.27" y1="-2.159" x2="1.27" y2="-2.159" width="0.1524" layer="51"/>
<wire x1="1.27" y1="2.286" x2="-1.27" y2="2.286" width="0.1524" layer="51"/>
<wire x1="-2.413" y1="1.27" x2="-2.413" y2="0.508" width="0.1524" layer="51"/>
<wire x1="-2.413" y1="-0.508" x2="-2.413" y2="-1.27" width="0.1524" layer="51"/>
<wire x1="-2.413" y1="0.508" x2="-2.159" y2="-0.381" width="0.1524" layer="51"/>
<circle x="0" y="0" radius="1.778" width="0.1524" layer="21"/>
<circle x="-2.159" y="-2.159" radius="0.508" width="0.1524" layer="51"/>
<circle x="2.159" y="-2.032" radius="0.508" width="0.1524" layer="51"/>
<circle x="2.159" y="2.159" radius="0.508" width="0.1524" layer="51"/>
<circle x="-2.159" y="2.159" radius="0.508" width="0.1524" layer="51"/>
<circle x="0" y="0" radius="0.635" width="0.0508" layer="51"/>
<circle x="0" y="0" radius="0.254" width="0.1524" layer="21"/>
<pad name="1" x="-3.2512" y="2.2606" drill="1.016" shape="long"/>
<pad name="3" x="-3.2512" y="-2.2606" drill="1.016" shape="long"/>
<pad name="2" x="3.2512" y="2.2606" drill="1.016" shape="long"/>
<pad name="4" x="3.2512" y="-2.2606" drill="1.016" shape="long"/>
<text x="-3.048" y="3.683" size="1.27" layer="25" ratio="10">&gt;NAME</text>
<text x="-3.048" y="-5.08" size="1.27" layer="27" ratio="10">&gt;VALUE</text>
<text x="-4.318" y="1.651" size="1.27" layer="51" ratio="10">1</text>
<text x="3.556" y="1.524" size="1.27" layer="51" ratio="10">2</text>
<text x="-4.572" y="-2.794" size="1.27" layer="51" ratio="10">3</text>
<text x="3.556" y="-2.794" size="1.27" layer="51" ratio="10">4</text>
</package>
</packages>
<packages3d>
<package3d name="B3F-10XX" urn="urn:adsk.eagle:package:27496/1" type="box" library_version="1">
<description>OMRON SWITCH</description>
</package3d>
</packages3d>
</library>
<library name="arduinoSTM32">
<packages>
<package name="BLUE_PILL">
<pad name="P$1" x="-7.62" y="15.24" drill="0.8" shape="long"/>
<pad name="P$2" x="-7.62" y="12.7" drill="0.8" shape="long"/>
<pad name="P$3" x="-7.62" y="10.16" drill="0.8" shape="long"/>
<pad name="P$4" x="-7.62" y="7.62" drill="0.8" shape="long"/>
<pad name="P$5" x="-7.62" y="5.08" drill="0.8" shape="long"/>
<pad name="P$6" x="-7.62" y="2.54" drill="0.8" shape="long"/>
<pad name="P$7" x="-7.62" y="0" drill="0.8" shape="long"/>
<pad name="P$8" x="-7.62" y="-2.54" drill="0.8" shape="long"/>
<pad name="P$9" x="-7.62" y="-5.08" drill="0.8" shape="long"/>
<pad name="P$10" x="-7.62" y="-7.62" drill="0.8" shape="long"/>
<pad name="P$11" x="-7.62" y="-10.16" drill="0.8" shape="long"/>
<pad name="P$12" x="-7.62" y="-12.7" drill="0.8" shape="long"/>
<pad name="P$13" x="-7.62" y="-15.24" drill="0.8" shape="long"/>
<pad name="P$14" x="-7.62" y="-17.78" drill="0.8" shape="long"/>
<pad name="P$15" x="-7.62" y="-20.32" drill="0.8" shape="long"/>
<pad name="P$16" x="-7.62" y="-22.86" drill="0.8" shape="long"/>
<pad name="P$17" x="-7.62" y="-25.4" drill="0.8" shape="long"/>
<pad name="P$18" x="-7.62" y="-27.94" drill="0.8" shape="long"/>
<pad name="P$19" x="-7.62" y="-30.48" drill="0.8" shape="long"/>
<pad name="P$20" x="-7.62" y="-33.02" drill="0.8" shape="long"/>
<pad name="P$21" x="7.62" y="15.24" drill="0.8" shape="long"/>
<pad name="P$22" x="7.62" y="12.7" drill="0.8" shape="long"/>
<pad name="P$23" x="7.62" y="10.16" drill="0.8" shape="long"/>
<pad name="P$24" x="7.62" y="7.62" drill="0.8" shape="long"/>
<pad name="P$25" x="7.62" y="5.08" drill="0.8" shape="long"/>
<pad name="P$26" x="7.62" y="2.54" drill="0.8" shape="long"/>
<pad name="P$27" x="7.62" y="0" drill="0.8" shape="long"/>
<pad name="P$28" x="7.62" y="-2.54" drill="0.8" shape="long"/>
<pad name="P$29" x="7.62" y="-5.08" drill="0.8" shape="long"/>
<pad name="P$30" x="7.62" y="-7.62" drill="0.8" shape="long"/>
<pad name="P$31" x="7.62" y="-10.16" drill="0.8" shape="long"/>
<pad name="P$32" x="7.62" y="-12.7" drill="0.8" shape="long"/>
<pad name="P$33" x="7.62" y="-15.24" drill="0.8" shape="long"/>
<pad name="P$34" x="7.62" y="-17.78" drill="0.8" shape="long"/>
<pad name="P$35" x="7.62" y="-20.32" drill="0.8" shape="long"/>
<pad name="P$36" x="7.62" y="-22.86" drill="0.8" shape="long"/>
<pad name="P$37" x="7.62" y="-25.4" drill="0.8" shape="long"/>
<pad name="P$38" x="7.62" y="-27.94" drill="0.8" shape="long"/>
<pad name="P$39" x="7.62" y="-30.48" drill="0.8" shape="long"/>
<pad name="P$40" x="7.62" y="-33.02" drill="0.8" shape="long"/>
<wire x1="-3.81" y1="17.78" x2="-2.54" y2="17.78" width="0.127" layer="21"/>
<wire x1="2.54" y1="17.78" x2="3.81" y2="17.78" width="0.127" layer="21"/>
<wire x1="-3.81" y1="17.78" x2="-3.81" y2="13.335" width="0.127" layer="21"/>
<wire x1="-3.81" y1="13.335" x2="-3.175" y2="13.335" width="0.127" layer="21"/>
<wire x1="-3.175" y1="13.335" x2="-2.54" y2="12.7" width="0.127" layer="21"/>
<wire x1="-2.54" y1="12.7" x2="2.54" y2="12.7" width="0.127" layer="21"/>
<wire x1="2.54" y1="12.7" x2="3.175" y2="13.335" width="0.127" layer="21"/>
<wire x1="3.175" y1="13.335" x2="3.81" y2="13.335" width="0.127" layer="21"/>
<wire x1="3.81" y1="13.335" x2="3.81" y2="17.78" width="0.127" layer="21"/>
<wire x1="-5.08" y1="-8.89" x2="-4.445" y2="-8.255" width="0.127" layer="21"/>
<wire x1="-4.445" y1="-8.255" x2="-3.81" y2="-7.62" width="0.127" layer="21"/>
<wire x1="-3.81" y1="-7.62" x2="-3.175" y2="-6.985" width="0.127" layer="21"/>
<wire x1="-3.175" y1="-6.985" x2="-2.54" y2="-6.35" width="0.127" layer="21"/>
<wire x1="-2.54" y1="-6.35" x2="-1.905" y2="-5.715" width="0.127" layer="21"/>
<wire x1="-1.905" y1="-5.715" x2="-1.27" y2="-5.08" width="0.127" layer="21"/>
<wire x1="-1.27" y1="-5.08" x2="-0.635" y2="-4.445" width="0.127" layer="21"/>
<wire x1="-0.635" y1="-4.445" x2="0" y2="-3.81" width="0.127" layer="21"/>
<wire x1="0" y1="-3.81" x2="0.635" y2="-4.445" width="0.127" layer="21"/>
<wire x1="0.635" y1="-4.445" x2="1.27" y2="-5.08" width="0.127" layer="21"/>
<wire x1="1.27" y1="-5.08" x2="1.905" y2="-5.715" width="0.127" layer="21"/>
<wire x1="1.905" y1="-5.715" x2="2.54" y2="-6.35" width="0.127" layer="21"/>
<wire x1="2.54" y1="-6.35" x2="3.175" y2="-6.985" width="0.127" layer="21"/>
<wire x1="3.175" y1="-6.985" x2="3.81" y2="-7.62" width="0.127" layer="21"/>
<wire x1="3.81" y1="-7.62" x2="4.445" y2="-8.255" width="0.127" layer="21"/>
<wire x1="4.445" y1="-8.255" x2="5.08" y2="-8.89" width="0.127" layer="21"/>
<wire x1="5.08" y1="-8.89" x2="4.445" y2="-9.525" width="0.127" layer="21"/>
<wire x1="4.445" y1="-9.525" x2="3.81" y2="-10.16" width="0.127" layer="21"/>
<wire x1="3.81" y1="-10.16" x2="3.175" y2="-10.795" width="0.127" layer="21"/>
<wire x1="3.175" y1="-10.795" x2="2.54" y2="-11.43" width="0.127" layer="21"/>
<wire x1="2.54" y1="-11.43" x2="1.905" y2="-12.065" width="0.127" layer="21"/>
<wire x1="1.905" y1="-12.065" x2="1.27" y2="-12.7" width="0.127" layer="21"/>
<wire x1="1.27" y1="-12.7" x2="0.635" y2="-13.335" width="0.127" layer="21"/>
<wire x1="0.635" y1="-13.335" x2="0" y2="-13.97" width="0.127" layer="21"/>
<wire x1="0" y1="-13.97" x2="-0.635" y2="-13.335" width="0.127" layer="21"/>
<wire x1="-0.635" y1="-13.335" x2="-1.27" y2="-12.7" width="0.127" layer="21"/>
<wire x1="-1.27" y1="-12.7" x2="-1.905" y2="-12.065" width="0.127" layer="21"/>
<wire x1="-1.905" y1="-12.065" x2="-2.54" y2="-11.43" width="0.127" layer="21"/>
<wire x1="-2.54" y1="-11.43" x2="-3.175" y2="-10.795" width="0.127" layer="21"/>
<wire x1="-3.175" y1="-10.795" x2="-3.81" y2="-10.16" width="0.127" layer="21"/>
<wire x1="-3.81" y1="-10.16" x2="-4.445" y2="-9.525" width="0.127" layer="21"/>
<wire x1="-4.445" y1="-9.525" x2="-5.08" y2="-8.89" width="0.127" layer="21"/>
<text x="-1.905" y="-11.43" size="1.27" layer="21" rot="R46.6">STM32</text>
<wire x1="4.445" y1="-9.525" x2="5.08" y2="-10.16" width="0.127" layer="21"/>
<wire x1="3.81" y1="-10.16" x2="4.445" y2="-10.795" width="0.127" layer="21"/>
<wire x1="3.175" y1="-10.795" x2="3.81" y2="-11.43" width="0.127" layer="21"/>
<wire x1="2.54" y1="-11.43" x2="3.175" y2="-12.065" width="0.127" layer="21"/>
<wire x1="1.905" y1="-12.065" x2="2.54" y2="-12.7" width="0.127" layer="21"/>
<wire x1="1.27" y1="-12.7" x2="1.905" y2="-13.335" width="0.127" layer="21"/>
<wire x1="0.635" y1="-13.335" x2="1.27" y2="-13.97" width="0.127" layer="21"/>
<wire x1="-0.635" y1="-13.335" x2="-1.27" y2="-13.97" width="0.127" layer="21"/>
<wire x1="-1.27" y1="-12.7" x2="-1.905" y2="-13.335" width="0.127" layer="21"/>
<wire x1="-1.905" y1="-12.065" x2="-2.54" y2="-12.7" width="0.127" layer="21"/>
<wire x1="-2.54" y1="-11.43" x2="-3.175" y2="-12.065" width="0.127" layer="21"/>
<wire x1="-3.175" y1="-10.795" x2="-3.81" y2="-11.43" width="0.127" layer="21"/>
<wire x1="-3.81" y1="-10.16" x2="-4.445" y2="-10.795" width="0.127" layer="21"/>
<wire x1="-4.445" y1="-6.985" x2="-3.81" y2="-7.62" width="0.127" layer="21"/>
<wire x1="-3.81" y1="-6.35" x2="-3.175" y2="-6.985" width="0.127" layer="21"/>
<wire x1="-3.175" y1="-5.715" x2="-2.54" y2="-6.35" width="0.127" layer="21"/>
<wire x1="-2.54" y1="-5.08" x2="-1.905" y2="-5.715" width="0.127" layer="21"/>
<wire x1="-1.905" y1="-4.445" x2="-1.27" y2="-5.08" width="0.127" layer="21"/>
<wire x1="-1.27" y1="-3.81" x2="-0.635" y2="-4.445" width="0.127" layer="21"/>
<wire x1="0.635" y1="-4.445" x2="1.27" y2="-3.81" width="0.127" layer="21"/>
<wire x1="1.27" y1="-5.08" x2="1.905" y2="-4.445" width="0.127" layer="21"/>
<wire x1="1.905" y1="-5.715" x2="2.54" y2="-5.08" width="0.127" layer="21"/>
<wire x1="2.54" y1="-6.35" x2="3.175" y2="-5.715" width="0.127" layer="21"/>
<wire x1="3.175" y1="-6.985" x2="3.81" y2="-6.35" width="0.127" layer="21"/>
<wire x1="3.81" y1="-7.62" x2="4.445" y2="-6.985" width="0.127" layer="21"/>
<wire x1="3.81" y1="17.78" x2="8.89" y2="17.78" width="0.127" layer="21"/>
<wire x1="8.89" y1="17.78" x2="10.16" y2="16.51" width="0.127" layer="21" curve="-90"/>
<wire x1="10.16" y1="16.51" x2="10.16" y2="-33.02" width="0.127" layer="21"/>
<wire x1="10.16" y1="-33.02" x2="8.89" y2="-34.29" width="0.127" layer="21" curve="-90"/>
<wire x1="8.89" y1="-34.29" x2="-8.89" y2="-34.29" width="0.127" layer="21"/>
<wire x1="-8.89" y1="-34.29" x2="-10.16" y2="-33.02" width="0.127" layer="21" curve="-90"/>
<wire x1="-10.16" y1="-33.02" x2="-10.16" y2="16.51" width="0.127" layer="21"/>
<wire x1="-10.16" y1="16.51" x2="-8.89" y2="17.78" width="0.127" layer="21" curve="-90"/>
<wire x1="-8.89" y1="17.78" x2="-3.81" y2="17.78" width="0.127" layer="21"/>
<wire x1="-3.81" y1="17.78" x2="-2.54" y2="17.78" width="0.127" layer="21" curve="90"/>
<wire x1="-2.54" y1="17.78" x2="2.54" y2="17.78" width="0.127" layer="21"/>
<wire x1="2.54" y1="17.78" x2="3.81" y2="17.78" width="0.127" layer="21" curve="90"/>
<wire x1="-2.54" y1="15.24" x2="-2.54" y2="13.97" width="0.127" layer="21"/>
<wire x1="-2.54" y1="13.97" x2="-1.27" y2="13.97" width="0.127" layer="21"/>
<wire x1="-1.27" y1="13.97" x2="-1.27" y2="15.24" width="0.127" layer="21"/>
<wire x1="1.27" y1="15.24" x2="1.27" y2="13.97" width="0.127" layer="21"/>
<wire x1="1.27" y1="13.97" x2="2.54" y2="13.97" width="0.127" layer="21"/>
<wire x1="2.54" y1="13.97" x2="2.54" y2="15.24" width="0.127" layer="21"/>
<wire x1="-2.54" y1="15.24" x2="-1.27" y2="15.24" width="0.127" layer="21"/>
<wire x1="1.27" y1="15.24" x2="2.54" y2="15.24" width="0.127" layer="21"/>
<wire x1="-4.445" y1="-9.525" x2="-5.08" y2="-10.16" width="0.127" layer="21"/>
<wire x1="-5.08" y1="-7.62" x2="-4.445" y2="-8.255" width="0.127" layer="21"/>
<wire x1="5.08" y1="-7.62" x2="4.445" y2="-8.255" width="0.127" layer="21"/>
<circle x="-3.81" y="-8.89" radius="0.635" width="0.127" layer="21"/>
<wire x1="-4.445" y1="-21.59" x2="-2.54" y2="-23.495" width="0.127" layer="21" curve="90"/>
<wire x1="-2.54" y1="-23.495" x2="2.54" y2="-23.495" width="0.127" layer="21"/>
<wire x1="2.54" y1="-23.495" x2="4.445" y2="-21.59" width="0.127" layer="21" curve="90"/>
<wire x1="4.445" y1="-21.59" x2="2.54" y2="-19.685" width="0.127" layer="21" curve="90"/>
<wire x1="2.54" y1="-19.685" x2="-2.54" y2="-19.685" width="0.127" layer="21"/>
<wire x1="-2.54" y1="-19.685" x2="-4.445" y2="-21.59" width="0.127" layer="21" curve="90"/>
<wire x1="1.27" y1="8.89" x2="2.54" y2="8.89" width="0.127" layer="21"/>
<wire x1="2.54" y1="8.89" x2="2.54" y2="5.08" width="0.127" layer="21"/>
<wire x1="2.54" y1="5.08" x2="1.27" y2="5.08" width="0.127" layer="21"/>
<wire x1="1.27" y1="5.08" x2="1.27" y2="6.35" width="0.127" layer="21"/>
<wire x1="1.27" y1="6.35" x2="1.27" y2="7.62" width="0.127" layer="21"/>
<wire x1="1.27" y1="7.62" x2="1.27" y2="8.89" width="0.127" layer="21"/>
<wire x1="2.54" y1="8.89" x2="3.81" y2="8.89" width="0.127" layer="21"/>
<wire x1="3.81" y1="8.89" x2="3.81" y2="7.62" width="0.127" layer="21"/>
<wire x1="3.81" y1="7.62" x2="3.81" y2="6.35" width="0.127" layer="21"/>
<wire x1="3.81" y1="6.35" x2="3.81" y2="5.08" width="0.127" layer="21"/>
<wire x1="3.81" y1="5.08" x2="2.54" y2="5.08" width="0.127" layer="21"/>
<circle x="-2.54" y="6.35" radius="0.635" width="0.127" layer="21"/>
<wire x1="-3.81" y1="7.62" x2="-3.175" y2="7.62" width="0.127" layer="21"/>
<wire x1="-3.175" y1="7.62" x2="-1.905" y2="7.62" width="0.127" layer="21"/>
<wire x1="-1.905" y1="7.62" x2="-1.27" y2="7.62" width="0.127" layer="21"/>
<wire x1="-1.27" y1="7.62" x2="-1.27" y2="5.08" width="0.127" layer="21"/>
<wire x1="-1.27" y1="5.08" x2="-1.905" y2="5.08" width="0.127" layer="21"/>
<wire x1="-1.905" y1="5.08" x2="-3.175" y2="5.08" width="0.127" layer="21"/>
<wire x1="-3.175" y1="5.08" x2="-3.81" y2="5.08" width="0.127" layer="21"/>
<wire x1="-3.81" y1="5.08" x2="-3.81" y2="7.62" width="0.127" layer="21"/>
<wire x1="-1.905" y1="5.08" x2="-1.905" y2="4.445" width="0.127" layer="21"/>
<wire x1="-3.175" y1="5.08" x2="-3.175" y2="4.445" width="0.127" layer="21"/>
<wire x1="-3.175" y1="7.62" x2="-3.175" y2="8.255" width="0.127" layer="21"/>
<wire x1="-1.905" y1="7.62" x2="-1.905" y2="8.255" width="0.127" layer="21"/>
<wire x1="1.27" y1="7.62" x2="3.81" y2="7.62" width="0.127" layer="21"/>
<wire x1="3.81" y1="6.35" x2="1.27" y2="6.35" width="0.127" layer="21"/>
</package>
</packages>
</library>
</libraries>
<attributes>
</attributes>
<variantdefs>
</variantdefs>
<classes>
<class number="0" name="default" width="0" drill="0">
</class>
</classes>
<designrules name="default *">
<description language="de">&lt;b&gt;EAGLE Design Rules&lt;/b&gt;
&lt;p&gt;
Die Standard-Design-Rules sind so gewählt, dass sie für 
die meisten Anwendungen passen. Sollte ihre Platine 
besondere Anforderungen haben, treffen Sie die erforderlichen
Einstellungen hier und speichern die Design Rules unter 
einem neuen Namen ab.</description>
<description language="en">&lt;b&gt;EAGLE Design Rules&lt;/b&gt;
&lt;p&gt;
The default Design Rules have been set to cover
a wide range of applications. Your particular design
may have different requirements, so please make the
necessary adjustments and save your customized
design rules under a new name.</description>
<param name="layerSetup" value="(1*16)"/>
<param name="mtCopper" value="0.035mm 0.035mm 0.035mm 0.035mm 0.035mm 0.035mm 0.035mm 0.035mm 0.035mm 0.035mm 0.035mm 0.035mm 0.035mm 0.035mm 0.035mm 0.035mm"/>
<param name="mtIsolate" value="1.5mm 0.15mm 0.2mm 0.15mm 0.2mm 0.15mm 0.2mm 0.15mm 0.2mm 0.15mm 0.2mm 0.15mm 0.2mm 0.15mm 0.2mm"/>
<param name="mdWireWire" value="12mil"/>
<param name="mdWirePad" value="6mil"/>
<param name="mdWireVia" value="6mil"/>
<param name="mdPadPad" value="6mil"/>
<param name="mdPadVia" value="6mil"/>
<param name="mdViaVia" value="6mil"/>
<param name="mdSmdPad" value="6mil"/>
<param name="mdSmdVia" value="6mil"/>
<param name="mdSmdSmd" value="6mil"/>
<param name="mdViaViaSameLayer" value="6mil"/>
<param name="mnLayersViaInSmd" value="2"/>
<param name="mdCopperDimension" value="40mil"/>
<param name="mdDrill" value="6mil"/>
<param name="mdSmdStop" value="0mil"/>
<param name="msWidth" value="6mil"/>
<param name="msDrill" value="0.35mm"/>
<param name="msMicroVia" value="9.99mm"/>
<param name="msBlindViaRatio" value="0.5"/>
<param name="rvPadTop" value="0.25"/>
<param name="rvPadInner" value="0.25"/>
<param name="rvPadBottom" value="0.25"/>
<param name="rvViaOuter" value="0.25"/>
<param name="rvViaInner" value="0.25"/>
<param name="rvMicroViaOuter" value="0.25"/>
<param name="rvMicroViaInner" value="0.25"/>
<param name="rlMinPadTop" value="10mil"/>
<param name="rlMaxPadTop" value="20mil"/>
<param name="rlMinPadInner" value="10mil"/>
<param name="rlMaxPadInner" value="20mil"/>
<param name="rlMinPadBottom" value="10mil"/>
<param name="rlMaxPadBottom" value="20mil"/>
<param name="rlMinViaOuter" value="8mil"/>
<param name="rlMaxViaOuter" value="20mil"/>
<param name="rlMinViaInner" value="8mil"/>
<param name="rlMaxViaInner" value="20mil"/>
<param name="rlMinMicroViaOuter" value="4mil"/>
<param name="rlMaxMicroViaOuter" value="20mil"/>
<param name="rlMinMicroViaInner" value="4mil"/>
<param name="rlMaxMicroViaInner" value="20mil"/>
<param name="psTop" value="-1"/>
<param name="psBottom" value="-1"/>
<param name="psFirst" value="-1"/>
<param name="psElongationLong" value="100"/>
<param name="psElongationOffset" value="100"/>
<param name="mvStopFrame" value="1"/>
<param name="mvCreamFrame" value="0"/>
<param name="mlMinStopFrame" value="4mil"/>
<param name="mlMaxStopFrame" value="4mil"/>
<param name="mlMinCreamFrame" value="0mil"/>
<param name="mlMaxCreamFrame" value="0mil"/>
<param name="mlViaStopLimit" value="0mil"/>
<param name="srRoundness" value="0"/>
<param name="srMinRoundness" value="0mil"/>
<param name="srMaxRoundness" value="0mil"/>
<param name="slThermalIsolate" value="10mil"/>
<param name="slThermalsForVias" value="0"/>
<param name="dpMaxLengthDifference" value="10mm"/>
<param name="dpGapFactor" value="2.5"/>
<param name="checkAngle" value="0"/>
<param name="checkFont" value="1"/>
<param name="checkRestrict" value="1"/>
<param name="checkStop" value="0"/>
<param name="checkValues" value="0"/>
<param name="useDiameter" value="13"/>
<param name="maxErrors" value="50"/>
</designrules>
<autorouter>
<pass name="Default">
<param name="RoutingGrid" value="50mil"/>
<param name="AutoGrid" value="1"/>
<param name="Efforts" value="0"/>
<param name="TopRouterVariant" value="1"/>
<param name="tpViaShape" value="round"/>
<param name="PrefDir.1" value="a"/>
<param name="PrefDir.2" value="0"/>
<param name="PrefDir.3" value="0"/>
<param name="PrefDir.4" value="0"/>
<param name="PrefDir.5" value="0"/>
<param name="PrefDir.6" value="0"/>
<param name="PrefDir.7" value="0"/>
<param name="PrefDir.8" value="0"/>
<param name="PrefDir.9" value="0"/>
<param name="PrefDir.10" value="0"/>
<param name="PrefDir.11" value="0"/>
<param name="PrefDir.12" value="0"/>
<param name="PrefDir.13" value="0"/>
<param name="PrefDir.14" value="0"/>
<param name="PrefDir.15" value="0"/>
<param name="PrefDir.16" value="a"/>
<param name="cfVia" value="8"/>
<param name="cfNonPref" value="5"/>
<param name="cfChangeDir" value="2"/>
<param name="cfOrthStep" value="2"/>
<param name="cfDiagStep" value="3"/>
<param name="cfExtdStep" value="0"/>
<param name="cfBonusStep" value="1"/>
<param name="cfMalusStep" value="1"/>
<param name="cfPadImpact" value="4"/>
<param name="cfSmdImpact" value="4"/>
<param name="cfBusImpact" value="0"/>
<param name="cfHugging" value="3"/>
<param name="cfAvoid" value="4"/>
<param name="cfPolygon" value="10"/>
<param name="cfBase.1" value="0"/>
<param name="cfBase.2" value="1"/>
<param name="cfBase.3" value="1"/>
<param name="cfBase.4" value="1"/>
<param name="cfBase.5" value="1"/>
<param name="cfBase.6" value="1"/>
<param name="cfBase.7" value="1"/>
<param name="cfBase.8" value="1"/>
<param name="cfBase.9" value="1"/>
<param name="cfBase.10" value="1"/>
<param name="cfBase.11" value="1"/>
<param name="cfBase.12" value="1"/>
<param name="cfBase.13" value="1"/>
<param name="cfBase.14" value="1"/>
<param name="cfBase.15" value="1"/>
<param name="cfBase.16" value="0"/>
<param name="mnVias" value="20"/>
<param name="mnSegments" value="9999"/>
<param name="mnExtdSteps" value="9999"/>
<param name="mnRipupLevel" value="10"/>
<param name="mnRipupSteps" value="100"/>
<param name="mnRipupTotal" value="100"/>
</pass>
<pass name="Follow-me" refer="Default" active="yes">
</pass>
<pass name="Busses" refer="Default" active="yes">
<param name="cfNonPref" value="4"/>
<param name="cfBusImpact" value="4"/>
<param name="cfHugging" value="0"/>
<param name="mnVias" value="0"/>
</pass>
<pass name="Route" refer="Default" active="yes">
</pass>
<pass name="Optimize1" refer="Default" active="yes">
<param name="cfVia" value="99"/>
<param name="cfExtdStep" value="10"/>
<param name="cfHugging" value="1"/>
<param name="mnExtdSteps" value="1"/>
<param name="mnRipupLevel" value="0"/>
</pass>
<pass name="Optimize2" refer="Optimize1" active="yes">
<param name="cfNonPref" value="0"/>
<param name="cfChangeDir" value="6"/>
<param name="cfExtdStep" value="0"/>
<param name="cfBonusStep" value="2"/>
<param name="cfMalusStep" value="2"/>
<param name="cfPadImpact" value="2"/>
<param name="cfSmdImpact" value="2"/>
<param name="cfHugging" value="0"/>
</pass>
<pass name="Optimize3" refer="Optimize2" active="yes">
<param name="cfChangeDir" value="8"/>
<param name="cfPadImpact" value="0"/>
<param name="cfSmdImpact" value="0"/>
</pass>
<pass name="Optimize4" refer="Optimize3" active="yes">
<param name="cfChangeDir" value="25"/>
</pass>
</autorouter>
<elements>
<element name="C1" library="rcl" library_urn="urn:adsk.eagle:library:334" package="C050-024X044" package3d_urn="urn:adsk.eagle:package:23643/1" value="100nF" x="11.938" y="45.212" rot="R270">
<attribute name="SPICEPREFIX" value="C" x="11.938" y="45.212" size="1.778" layer="27" rot="R270" display="off"/>
</element>
<element name="C2" library="rcl" library_urn="urn:adsk.eagle:library:334" package="C050-024X044" package3d_urn="urn:adsk.eagle:package:23643/1" value="100nF" x="68.58" y="67.31" rot="R270">
<attribute name="SPICEPREFIX" value="C" x="68.58" y="67.31" size="1.778" layer="27" rot="R270" display="off"/>
</element>
<element name="C3" library="rcl" library_urn="urn:adsk.eagle:library:334" package="C050-024X044" package3d_urn="urn:adsk.eagle:package:23643/1" value="100nF" x="34.798" y="8.636" rot="R270">
<attribute name="SPICEPREFIX" value="C" x="34.798" y="8.636" size="1.778" layer="27" rot="R270" display="off"/>
</element>
<element name="C4" library="rcl" library_urn="urn:adsk.eagle:library:334" package="C050-024X044" package3d_urn="urn:adsk.eagle:package:23643/1" value="100nF" x="25.146" y="45.212" rot="R270">
<attribute name="SPICEPREFIX" value="C" x="25.146" y="45.212" size="1.778" layer="27" rot="R270" display="off"/>
</element>
<element name="C5" library="rcl" library_urn="urn:adsk.eagle:library:334" package="C050-024X044" package3d_urn="urn:adsk.eagle:package:23643/1" value="100nF" x="11.43" y="27.686" rot="R90">
<attribute name="SPICEPREFIX" value="C" x="11.43" y="27.686" size="1.778" layer="27" rot="R90" display="off"/>
</element>
<element name="C6" library="rcl" library_urn="urn:adsk.eagle:library:334" package="C050-024X044" package3d_urn="urn:adsk.eagle:package:23643/1" value="100nF" x="24.892" y="27.686" rot="R90">
<attribute name="SPICEPREFIX" value="C" x="24.892" y="27.686" size="1.778" layer="27" rot="R90" display="off"/>
</element>
<element name="C7" library="rcl" library_urn="urn:adsk.eagle:library:334" package="C050-024X044" package3d_urn="urn:adsk.eagle:package:23643/1" value="100nF" x="86.106" y="67.31" rot="R270">
<attribute name="SPICEPREFIX" value="C" x="86.106" y="67.31" size="1.778" layer="27" rot="R270" display="off"/>
</element>
<element name="C8" library="rcl" library_urn="urn:adsk.eagle:library:334" package="C050-024X044" package3d_urn="urn:adsk.eagle:package:23643/1" value="100nF" x="52.578" y="7.874" rot="R270">
<attribute name="SPICEPREFIX" value="C" x="52.578" y="7.874" size="1.778" layer="27" rot="R270" display="off"/>
</element>
<element name="C9" library="rcl" library_urn="urn:adsk.eagle:library:334" package="C050-024X044" package3d_urn="urn:adsk.eagle:package:23643/1" value="100nF" x="69.85" y="7.874" rot="R270">
<attribute name="SPICEPREFIX" value="C" x="69.85" y="7.874" size="1.778" layer="27" rot="R270" display="off"/>
</element>
<element name="LED1" library="led" library_urn="urn:adsk.eagle:library:259" package="LED3MM" package3d_urn="urn:adsk.eagle:package:15797/1" value="" x="10.922" y="89.916" rot="R270"/>
<element name="LED2" library="led" library_urn="urn:adsk.eagle:library:259" package="LED3MM" package3d_urn="urn:adsk.eagle:package:15797/1" value="" x="24.511" y="89.916" rot="R270"/>
<element name="LED3" library="led" library_urn="urn:adsk.eagle:library:259" package="LED3MM" package3d_urn="urn:adsk.eagle:package:15797/1" value="" x="10.668" y="82.55" rot="R270"/>
<element name="LED4" library="led" library_urn="urn:adsk.eagle:library:259" package="LED3MM" package3d_urn="urn:adsk.eagle:package:15797/1" value="" x="24.511" y="82.55" rot="R270"/>
<element name="R1" library="rcl" library_urn="urn:adsk.eagle:library:334" package="0207/7" package3d_urn="urn:adsk.eagle:package:23493/1" value="" x="33.7185" y="94.23399375">
<attribute name="SPICEPREFIX" value="R" x="33.7185" y="94.23399375" size="1.778" layer="27" display="off"/>
</element>
<element name="R10" library="rcl" library_urn="urn:adsk.eagle:library:334" package="0207/7" package3d_urn="urn:adsk.eagle:package:23493/1" value="" x="33.7185" y="91.2706625">
<attribute name="SPICEPREFIX" value="R" x="33.7185" y="91.2706625" size="1.778" layer="27" display="off"/>
</element>
<element name="R11" library="rcl" library_urn="urn:adsk.eagle:library:334" package="0207/7" package3d_urn="urn:adsk.eagle:package:23493/1" value="" x="33.7185" y="88.30733125">
<attribute name="SPICEPREFIX" value="R" x="33.7185" y="88.30733125" size="1.778" layer="27" display="off"/>
</element>
<element name="R12" library="rcl" library_urn="urn:adsk.eagle:library:334" package="0207/7" package3d_urn="urn:adsk.eagle:package:23493/1" value="" x="33.7185" y="85.344">
<attribute name="SPICEPREFIX" value="R" x="33.7185" y="85.344" size="1.778" layer="27" display="off"/>
</element>
<element name="R13" library="rcl" library_urn="urn:adsk.eagle:library:334" package="0207/7" package3d_urn="urn:adsk.eagle:package:23493/1" value="10k" x="89.408" y="67.31" rot="R270">
<attribute name="SPICEPREFIX" value="R" x="89.408" y="67.31" size="1.778" layer="27" rot="R270" display="off"/>
</element>
<element name="R14" library="piher" package="PC16S" value="50K" x="100.33" y="62.23" rot="R90">
<attribute name="MF" value="" x="100.33" y="62.23" size="1.778" layer="27" rot="R90" display="off"/>
<attribute name="MPN" value="" x="100.33" y="62.23" size="1.778" layer="27" rot="R90" display="off"/>
<attribute name="OC_FARNELL" value="4452940" x="100.33" y="62.23" size="1.778" layer="27" rot="R90" display="off"/>
<attribute name="OC_NEWARK" value="unknown" x="100.33" y="62.23" size="1.778" layer="27" rot="R90" display="off"/>
</element>
<element name="R15" library="rcl" library_urn="urn:adsk.eagle:library:334" package="0207/7" package3d_urn="urn:adsk.eagle:package:23493/1" value="10k" x="52.578" y="17.526" rot="R90">
<attribute name="SPICEPREFIX" value="R" x="52.578" y="17.526" size="1.778" layer="27" rot="R90" display="off"/>
</element>
<element name="R16" library="piher" package="DESLISABLE" value="100K" x="56.642" y="72.39" rot="R270"/>
<element name="R17" library="rcl" library_urn="urn:adsk.eagle:library:334" package="0207/7" package3d_urn="urn:adsk.eagle:package:23493/1" value="10k" x="69.85" y="17.526" rot="R90">
<attribute name="SPICEPREFIX" value="R" x="69.85" y="17.526" size="1.778" layer="27" rot="R90" display="off"/>
</element>
<element name="R18" library="piher" package="DESLISABLE" value="100K" x="73.914" y="72.39" rot="R270"/>
<element name="R2" library="rcl" library_urn="urn:adsk.eagle:library:334" package="0207/7" package3d_urn="urn:adsk.eagle:package:23493/1" value="10k" x="8.128" y="45.212" rot="R270">
<attribute name="SPICEPREFIX" value="R" x="8.128" y="45.212" size="1.778" layer="27" rot="R270" display="off"/>
</element>
<element name="R3" library="rcl" library_urn="urn:adsk.eagle:library:334" package="0207/7" package3d_urn="urn:adsk.eagle:package:23493/1" value="10k" x="34.798" y="17.526" rot="R90">
<attribute name="SPICEPREFIX" value="R" x="34.798" y="17.526" size="1.778" layer="27" rot="R90" display="off"/>
</element>
<element name="R4" library="rcl" library_urn="urn:adsk.eagle:library:334" package="0207/7" package3d_urn="urn:adsk.eagle:package:23493/1" value="10k" x="71.374" y="67.31" rot="R270">
<attribute name="SPICEPREFIX" value="R" x="71.374" y="67.31" size="1.778" layer="27" rot="R270" display="off"/>
</element>
<element name="R5" library="piher" package="PC16S" value="50K" x="100.838" y="25.4" rot="R90">
<attribute name="MF" value="" x="100.838" y="25.4" size="1.778" layer="27" rot="R90" display="off"/>
<attribute name="MPN" value="" x="100.838" y="25.4" size="1.778" layer="27" rot="R90" display="off"/>
<attribute name="OC_FARNELL" value="4452940" x="100.838" y="25.4" size="1.778" layer="27" rot="R90" display="off"/>
<attribute name="OC_NEWARK" value="unknown" x="100.838" y="25.4" size="1.778" layer="27" rot="R90" display="off"/>
</element>
<element name="R6" library="piher" package="DESLISABLE" value="100K" x="39.37" y="72.39" rot="R270"/>
<element name="R7" library="rcl" library_urn="urn:adsk.eagle:library:334" package="0207/7" package3d_urn="urn:adsk.eagle:package:23493/1" value="10k" x="21.59" y="45.212" rot="R270">
<attribute name="SPICEPREFIX" value="R" x="21.59" y="45.212" size="1.778" layer="27" rot="R270" display="off"/>
</element>
<element name="R8" library="rcl" library_urn="urn:adsk.eagle:library:334" package="0207/7" package3d_urn="urn:adsk.eagle:package:23493/1" value="10k" x="8.128" y="27.686" rot="R90">
<attribute name="SPICEPREFIX" value="R" x="8.128" y="27.686" size="1.778" layer="27" rot="R90" display="off"/>
</element>
<element name="R9" library="rcl" library_urn="urn:adsk.eagle:library:334" package="0207/7" package3d_urn="urn:adsk.eagle:package:23493/1" value="10k" x="21.336" y="27.686" rot="R90">
<attribute name="SPICEPREFIX" value="R" x="21.336" y="27.686" size="1.778" layer="27" rot="R90" display="off"/>
</element>
<element name="S1" library="switch-omron" library_urn="urn:adsk.eagle:library:377" package="B3F-10XX" package3d_urn="urn:adsk.eagle:package:27496/1" value="" x="10.287" y="62.23" rot="R90">
<attribute name="MF" value="" x="10.287" y="62.23" size="1.778" layer="27" rot="R90" display="off"/>
<attribute name="MPN" value="B3F-1000" x="10.287" y="62.23" size="1.778" layer="27" rot="R90" display="off"/>
<attribute name="OC_FARNELL" value="176432" x="10.287" y="62.23" size="1.778" layer="27" rot="R90" display="off"/>
<attribute name="OC_NEWARK" value="36M3542" x="10.287" y="62.23" size="1.778" layer="27" rot="R90" display="off"/>
</element>
<element name="S2" library="switch-omron" library_urn="urn:adsk.eagle:library:377" package="B3F-10XX" package3d_urn="urn:adsk.eagle:package:27496/1" value="" x="23.749" y="62.23" rot="R90">
<attribute name="MF" value="" x="23.749" y="62.23" size="1.778" layer="27" rot="R90" display="off"/>
<attribute name="MPN" value="B3F-1000" x="23.749" y="62.23" size="1.778" layer="27" rot="R90" display="off"/>
<attribute name="OC_FARNELL" value="176432" x="23.749" y="62.23" size="1.778" layer="27" rot="R90" display="off"/>
<attribute name="OC_NEWARK" value="36M3542" x="23.749" y="62.23" size="1.778" layer="27" rot="R90" display="off"/>
</element>
<element name="S3" library="switch-omron" library_urn="urn:adsk.eagle:library:377" package="B3F-10XX" package3d_urn="urn:adsk.eagle:package:27496/1" value="" x="10.287" y="12.446" rot="R90">
<attribute name="MF" value="" x="10.287" y="12.446" size="1.778" layer="27" rot="R90" display="off"/>
<attribute name="MPN" value="B3F-1000" x="10.287" y="12.446" size="1.778" layer="27" rot="R90" display="off"/>
<attribute name="OC_FARNELL" value="176432" x="10.287" y="12.446" size="1.778" layer="27" rot="R90" display="off"/>
<attribute name="OC_NEWARK" value="36M3542" x="10.287" y="12.446" size="1.778" layer="27" rot="R90" display="off"/>
</element>
<element name="S4" library="switch-omron" library_urn="urn:adsk.eagle:library:377" package="B3F-10XX" package3d_urn="urn:adsk.eagle:package:27496/1" value="" x="23.749" y="12.192" rot="R90">
<attribute name="MF" value="" x="23.749" y="12.192" size="1.778" layer="27" rot="R90" display="off"/>
<attribute name="MPN" value="B3F-1000" x="23.749" y="12.192" size="1.778" layer="27" rot="R90" display="off"/>
<attribute name="OC_FARNELL" value="176432" x="23.749" y="12.192" size="1.778" layer="27" rot="R90" display="off"/>
<attribute name="OC_NEWARK" value="36M3542" x="23.749" y="12.192" size="1.778" layer="27" rot="R90" display="off"/>
</element>
<element name="U$1" library="arduinoSTM32" package="BLUE_PILL" value="" x="83.82" y="87.63" rot="R270"/>
</elements>
<signals>
<signal name="GND">
<contactref element="C1" pad="2"/>
<contactref element="S1" pad="4"/>
<contactref element="LED1" pad="K"/>
<contactref element="R5" pad="1A"/>
<contactref element="C2" pad="2"/>
<contactref element="R6" pad="P$1"/>
<contactref element="C3" pad="2"/>
<contactref element="C4" pad="2"/>
<contactref element="S2" pad="4"/>
<contactref element="C5" pad="2"/>
<contactref element="S3" pad="4"/>
<contactref element="C6" pad="2"/>
<contactref element="S4" pad="4"/>
<contactref element="LED2" pad="K"/>
<contactref element="LED3" pad="K"/>
<contactref element="LED4" pad="K"/>
<contactref element="R14" pad="1A"/>
<contactref element="C7" pad="2"/>
<contactref element="R16" pad="P$1"/>
<contactref element="C8" pad="2"/>
<contactref element="R18" pad="P$1"/>
<contactref element="C9" pad="2"/>
<contactref element="U$1" pad="P$21"/>
<contactref element="U$1" pad="P$22"/>
<contactref element="U$1" pad="P$19"/>
<polygon width="0.1524" layer="16" isolate="0.8128" orphans="yes">
<vertex x="1.27" y="99.06"/>
<vertex x="99.06" y="99.06"/>
<vertex x="99.06" y="1.27"/>
<vertex x="1.27" y="1.27"/>
</polygon>
<contactref element="U$1" pad="P$1"/>
</signal>
<signal name="BOT1">
<contactref element="C1" pad="1"/>
<contactref element="R2" pad="1"/>
<wire x1="8.128" y1="58.8772" x2="8.128" y2="49.022" width="0.8128" layer="16"/>
<wire x1="11.938" y1="47.752" x2="9.398" y2="47.752" width="0.8128" layer="16"/>
<wire x1="9.398" y1="47.752" x2="8.128" y2="49.022" width="0.8128" layer="16"/>
<contactref element="U$1" pad="P$13"/>
<wire x1="68.58" y1="95.25" x2="68.58" y2="92.964" width="0.3048" layer="16"/>
<wire x1="68.58" y1="92.964" x2="63.5" y2="87.884" width="0.3048" layer="16"/>
<wire x1="26.924" y1="71.374" x2="8.128" y2="71.374" width="0.3048" layer="16"/>
<wire x1="8.128" y1="71.374" x2="8.128" y2="65.5828" width="0.3048" layer="16"/>
<wire x1="63.5" y1="87.884" x2="43.434" y2="87.884" width="0.3048" layer="16"/>
<wire x1="43.434" y1="87.884" x2="26.924" y2="71.374" width="0.3048" layer="16"/>
<contactref element="S1" pad="1"/>
<contactref element="S1" pad="2"/>
<wire x1="8.0264" y1="65.4812" x2="8.0264" y2="58.9788" width="0.3048" layer="1"/>
<wire x1="8.0264" y1="65.4812" x2="8.128" y2="65.5828" width="0" layer="19" extent="16-16"/>
<wire x1="8.128" y1="58.8772" x2="8.0264" y2="58.9788" width="0" layer="19" extent="16-16"/>
</signal>
<signal name="+3V3">
<contactref element="R5" pad="1E"/>
<contactref element="R6" pad="P$3"/>
<contactref element="R14" pad="1E"/>
<contactref element="R16" pad="P$3"/>
<contactref element="R18" pad="P$3"/>
<contactref element="U$1" pad="P$23"/>
<wire x1="73.914" y1="58.39" x2="73.914" y2="67.23" width="0.8128" layer="16"/>
<wire x1="73.914" y1="67.23" x2="93.83" y2="67.23" width="0.8128" layer="16"/>
<wire x1="56.642" y1="58.39" x2="56.642" y2="67.23" width="0.8128" layer="16"/>
<wire x1="56.642" y1="67.23" x2="73.914" y2="67.23" width="0.8128" layer="16"/>
<wire x1="93.98" y1="80.01" x2="93.98" y2="67.23" width="0.8128" layer="16"/>
<wire x1="93.98" y1="67.23" x2="93.83" y2="67.23" width="0.8128" layer="16"/>
<wire x1="94.338" y1="30.4" x2="97.536" y2="30.4" width="0.8128" layer="16"/>
<wire x1="97.536" y1="30.4" x2="97.536" y2="67.23" width="0.8128" layer="16"/>
<wire x1="97.536" y1="67.23" x2="93.83" y2="67.23" width="0.8128" layer="16"/>
<wire x1="39.37" y1="58.39" x2="39.37" y2="62.484" width="0.8128" layer="16"/>
<wire x1="44.116" y1="67.23" x2="56.642" y2="67.23" width="0.8128" layer="16"/>
<wire x1="39.37" y1="62.484" x2="44.116" y2="67.23" width="0.8128" layer="16"/>
</signal>
<signal name="N$3">
<contactref element="LED1" pad="A"/>
<contactref element="R1" pad="1"/>
<wire x1="10.922" y1="91.186" x2="13.96999375" y2="94.23399375" width="0.8128" layer="16"/>
<wire x1="13.96999375" y1="94.23399375" x2="29.9085" y2="94.23399375" width="0.8128" layer="16"/>
</signal>
<signal name="LED1">
<contactref element="R1" pad="2"/>
<contactref element="U$1" pad="P$17"/>
<wire x1="37.5285" y1="94.23399375" x2="39.37000625" y2="94.23399375" width="0.3048" layer="16"/>
<wire x1="39.37000625" y1="94.23399375" x2="40.894" y2="92.71" width="0.3048" layer="16"/>
<wire x1="40.894" y1="92.71" x2="57.658" y2="92.71" width="0.3048" layer="16"/>
<wire x1="57.658" y1="92.71" x2="58.42" y2="93.472" width="0.3048" layer="16"/>
<wire x1="58.42" y1="93.472" x2="58.42" y2="95.25" width="0.3048" layer="16"/>
</signal>
<signal name="N$5">
<contactref element="R4" pad="2"/>
<contactref element="R5" pad="1S"/>
<wire x1="71.374" y1="63.5" x2="71.374" y2="25.4" width="0.8128" layer="16"/>
<wire x1="71.374" y1="25.4" x2="94.338" y2="25.4" width="0.8128" layer="16"/>
</signal>
<signal name="POT1">
<contactref element="R4" pad="1"/>
<contactref element="C2" pad="1"/>
<contactref element="U$1" pad="P$32"/>
<wire x1="71.12" y1="80.01" x2="71.12" y2="71.12" width="0.8128" layer="16"/>
<wire x1="71.12" y1="71.12" x2="71.374" y2="71.12" width="0.8128" layer="16"/>
<wire x1="68.58" y1="69.85" x2="71.374" y2="69.85" width="0.8128" layer="16"/>
<wire x1="71.374" y1="69.85" x2="71.374" y2="71.12" width="0.8128" layer="16"/>
</signal>
<signal name="N$1">
<contactref element="R3" pad="2"/>
<contactref element="R6" pad="P$2"/>
<wire x1="39.37" y1="21.39" x2="34.798" y2="21.39" width="0.8128" layer="16"/>
<wire x1="34.798" y1="21.39" x2="34.798" y2="21.336" width="0.8128" layer="16"/>
</signal>
<signal name="POTL1">
<contactref element="R3" pad="1"/>
<contactref element="C3" pad="1"/>
<contactref element="U$1" pad="P$35"/>
<wire x1="34.798" y1="11.176" x2="34.798" y2="13.716" width="0.8128" layer="16"/>
<wire x1="34.798" y1="11.176" x2="42.672" y2="11.176" width="0.3048" layer="16"/>
<wire x1="42.672" y1="11.176" x2="42.672" y2="52.07" width="0.3048" layer="16"/>
<wire x1="34.29" y1="52.07" x2="34.29" y2="65.278" width="0.3048" layer="16"/>
<wire x1="44.196" y1="75.184" x2="63.5" y2="75.184" width="0.3048" layer="16"/>
<wire x1="63.5" y1="75.184" x2="63.5" y2="80.01" width="0.3048" layer="16"/>
<wire x1="42.672" y1="52.07" x2="34.29" y2="52.07" width="0.3048" layer="16"/>
<wire x1="34.29" y1="65.278" x2="44.196" y2="75.184" width="0.3048" layer="16"/>
</signal>
<signal name="BOT2">
<contactref element="C4" pad="1"/>
<contactref element="R7" pad="1"/>
<wire x1="25.146" y1="47.752" x2="22.86" y2="47.752" width="0.8128" layer="16"/>
<wire x1="22.86" y1="47.752" x2="21.59" y2="49.022" width="0.8128" layer="16"/>
<wire x1="21.59" y1="49.022" x2="21.59" y2="58.8772" width="0.8128" layer="16"/>
<contactref element="U$1" pad="P$12"/>
<wire x1="71.12" y1="95.25" x2="71.12" y2="93.472" width="0.3048" layer="16"/>
<wire x1="64.262" y1="86.614" x2="43.942" y2="86.614" width="0.3048" layer="16"/>
<wire x1="71.12" y1="93.472" x2="64.262" y2="86.614" width="0.3048" layer="16"/>
<wire x1="43.942" y1="86.614" x2="26.416" y2="69.088" width="0.3048" layer="16"/>
<wire x1="26.416" y1="69.088" x2="21.336" y2="69.088" width="0.3048" layer="16"/>
<wire x1="21.336" y1="69.088" x2="21.336" y2="65.6336" width="0.3048" layer="16"/>
<contactref element="S2" pad="1"/>
<contactref element="S2" pad="2"/>
<wire x1="21.4884" y1="65.4812" x2="21.4884" y2="58.9788" width="0.3048" layer="1"/>
<wire x1="21.4884" y1="65.4812" x2="21.336" y2="65.6336" width="0" layer="19" extent="16-16"/>
<wire x1="21.59" y1="58.8772" x2="21.4884" y2="58.9788" width="0" layer="19" extent="16-16"/>
</signal>
<signal name="BOT3">
<contactref element="C5" pad="1"/>
<contactref element="R8" pad="1"/>
<contactref element="S3" pad="2"/>
<wire x1="8.0264" y1="15.6972" x2="8.0264" y2="23.7744" width="0.8128" layer="16"/>
<wire x1="8.0264" y1="23.7744" x2="8.128" y2="23.876" width="0.8128" layer="16"/>
<wire x1="11.43" y1="25.146" x2="9.398" y2="25.146" width="0.8128" layer="16"/>
<wire x1="9.398" y1="25.146" x2="8.128" y2="23.876" width="0.8128" layer="16"/>
<contactref element="U$1" pad="P$11"/>
<wire x1="73.66" y1="95.25" x2="73.66" y2="93.472" width="0.3048" layer="16"/>
<wire x1="65.786" y1="85.344" x2="44.704" y2="85.344" width="0.3048" layer="16"/>
<wire x1="73.66" y1="93.472" x2="65.786" y2="85.344" width="0.3048" layer="16"/>
<contactref element="S3" pad="1"/>
<wire x1="8.0264" y1="15.6972" x2="8.0264" y2="9.1948" width="0.3048" layer="1"/>
<wire x1="44.704" y1="85.344" x2="28.194" y2="68.834" width="0.3048" layer="16"/>
<wire x1="28.194" y1="68.834" x2="28.194" y2="40.64" width="0.3048" layer="16"/>
<wire x1="28.194" y1="40.64" x2="28.194" y2="28.448" width="0.3048" layer="16"/>
<wire x1="28.194" y1="28.448" x2="27.432" y2="27.686" width="0.3048" layer="16"/>
<wire x1="27.432" y1="27.686" x2="13.97" y2="27.686" width="0.3048" layer="16"/>
<wire x1="13.97" y1="27.686" x2="11.43" y2="25.146" width="0.3048" layer="16"/>
</signal>
<signal name="BOT4">
<contactref element="C6" pad="1"/>
<contactref element="R9" pad="1"/>
<contactref element="S4" pad="2"/>
<wire x1="24.892" y1="25.146" x2="22.606" y2="25.146" width="0.8128" layer="16"/>
<wire x1="22.606" y1="25.146" x2="21.336" y2="23.876" width="0.8128" layer="16"/>
<wire x1="21.4884" y1="15.4432" x2="21.4884" y2="23.7236" width="0.8128" layer="16"/>
<wire x1="21.4884" y1="23.7236" x2="21.336" y2="23.876" width="0.8128" layer="16"/>
<contactref element="U$1" pad="P$10"/>
<wire x1="76.2" y1="95.25" x2="76.2" y2="92.964" width="0.3048" layer="16"/>
<wire x1="67.31" y1="84.074" x2="45.974" y2="84.074" width="0.3048" layer="16"/>
<wire x1="76.2" y1="92.964" x2="67.31" y2="84.074" width="0.3048" layer="16"/>
<contactref element="S4" pad="1"/>
<wire x1="21.4884" y1="15.4432" x2="21.4884" y2="8.9408" width="0.3048" layer="1"/>
<wire x1="45.974" y1="84.074" x2="45.212" y2="84.074" width="0.3048" layer="16"/>
<wire x1="45.212" y1="84.074" x2="29.718" y2="68.58" width="0.3048" layer="16"/>
<wire x1="29.718" y1="26.67" x2="28.194" y2="25.146" width="0.3048" layer="16"/>
<wire x1="28.194" y1="25.146" x2="24.892" y2="25.146" width="0.3048" layer="16"/>
<wire x1="29.718" y1="68.58" x2="29.718" y2="26.67" width="0.3048" layer="16"/>
</signal>
<signal name="N$2">
<contactref element="LED2" pad="A"/>
<contactref element="R10" pad="1"/>
<wire x1="24.511" y1="91.186" x2="24.765" y2="91.44" width="0.8128" layer="16"/>
<wire x1="24.765" y1="91.44" x2="24.892" y2="91.44" width="0.8128" layer="16"/>
<wire x1="29.9085" y1="91.2706625" x2="24.5956625" y2="91.2706625" width="0.8128" layer="16"/>
<wire x1="24.5956625" y1="91.2706625" x2="24.511" y2="91.186" width="0.8128" layer="16"/>
</signal>
<signal name="LED2">
<contactref element="R10" pad="2"/>
<contactref element="U$1" pad="P$16"/>
<wire x1="37.5285" y1="91.2706625" x2="59.0126625" y2="91.2706625" width="0.3048" layer="16"/>
<wire x1="59.0126625" y1="91.2706625" x2="60.96" y2="93.218" width="0.3048" layer="16"/>
<wire x1="60.96" y1="93.218" x2="60.96" y2="95.25" width="0.3048" layer="16"/>
</signal>
<signal name="N$4">
<contactref element="LED3" pad="A"/>
<contactref element="R11" pad="1"/>
<wire x1="10.668" y1="83.82" x2="13.716" y2="86.868" width="0.8128" layer="16"/>
<wire x1="28.46916875" y1="86.868" x2="29.9085" y2="88.30733125" width="0.8128" layer="16"/>
<wire x1="13.716" y1="86.868" x2="28.46916875" y2="86.868" width="0.8128" layer="16"/>
</signal>
<signal name="LED3">
<contactref element="R11" pad="2"/>
<contactref element="U$1" pad="P$15"/>
<wire x1="37.5285" y1="88.30733125" x2="39.03133125" y2="88.30733125" width="0.3048" layer="16"/>
<wire x1="39.03133125" y1="88.30733125" x2="40.894" y2="90.17" width="0.3048" layer="16"/>
<wire x1="40.894" y1="90.17" x2="60.706" y2="90.17" width="0.3048" layer="16"/>
<wire x1="60.706" y1="90.17" x2="63.5" y2="92.964" width="0.3048" layer="16"/>
<wire x1="63.5" y1="92.964" x2="63.5" y2="95.25" width="0.3048" layer="16"/>
</signal>
<signal name="N$6">
<contactref element="LED4" pad="A"/>
<contactref element="R12" pad="1"/>
<wire x1="24.511" y1="83.82" x2="28.3845" y2="83.82" width="0.8128" layer="16"/>
<wire x1="28.3845" y1="83.82" x2="29.9085" y2="85.344" width="0.8128" layer="16"/>
</signal>
<signal name="LED4">
<contactref element="R12" pad="2"/>
<contactref element="U$1" pad="P$14"/>
<wire x1="37.5285" y1="85.344" x2="38.862" y2="85.344" width="0.3048" layer="16"/>
<wire x1="38.862" y1="85.344" x2="42.672" y2="89.154" width="0.3048" layer="16"/>
<wire x1="62.23" y1="89.154" x2="66.04" y2="92.964" width="0.3048" layer="16"/>
<wire x1="66.04" y1="92.964" x2="66.04" y2="95.25" width="0.3048" layer="16"/>
<wire x1="42.672" y1="89.154" x2="62.23" y2="89.154" width="0.3048" layer="16"/>
</signal>
<signal name="N$7">
<contactref element="R13" pad="2"/>
<contactref element="R14" pad="1S"/>
<wire x1="93.83" y1="62.23" x2="89.408" y2="62.23" width="0.8128" layer="16"/>
<wire x1="89.408" y1="62.23" x2="89.408" y2="63.5" width="0.8128" layer="16"/>
</signal>
<signal name="POT2">
<contactref element="R13" pad="1"/>
<contactref element="C7" pad="1"/>
<contactref element="U$1" pad="P$31"/>
<wire x1="89.408" y1="71.12" x2="86.106" y2="71.12" width="0.8128" layer="16"/>
<wire x1="86.106" y1="71.12" x2="86.106" y2="69.85" width="0.8128" layer="16"/>
<wire x1="86.106" y1="71.12" x2="86.106" y2="75.438" width="0.8128" layer="16"/>
<wire x1="73.66" y1="75.438" x2="86.106" y2="75.438" width="0.8128" layer="16"/>
<wire x1="73.66" y1="80.01" x2="73.66" y2="75.438" width="0.8128" layer="16"/>
</signal>
<signal name="N$8">
<contactref element="R15" pad="2"/>
<contactref element="R16" pad="P$2"/>
<wire x1="56.642" y1="21.39" x2="52.578" y2="21.39" width="0.8128" layer="16"/>
<wire x1="52.578" y1="21.39" x2="52.578" y2="21.336" width="0.8128" layer="16"/>
</signal>
<signal name="POTL2">
<contactref element="R15" pad="1"/>
<contactref element="C8" pad="1"/>
<contactref element="U$1" pad="P$34"/>
<wire x1="52.578" y1="13.716" x2="52.578" y2="10.414" width="0.8128" layer="16"/>
<wire x1="52.578" y1="10.414" x2="47.752" y2="10.414" width="0.3048" layer="16"/>
<wire x1="47.752" y1="53.34" x2="35.306" y2="53.34" width="0.3048" layer="16"/>
<wire x1="66.04" y1="73.66" x2="66.04" y2="80.01" width="0.3048" layer="16"/>
<wire x1="47.752" y1="10.414" x2="47.752" y2="53.34" width="0.3048" layer="16"/>
<wire x1="35.306" y1="53.34" x2="35.306" y2="64.008" width="0.3048" layer="16"/>
<wire x1="35.306" y1="64.008" x2="44.958" y2="73.66" width="0.3048" layer="16"/>
<wire x1="44.958" y1="73.66" x2="66.04" y2="73.66" width="0.3048" layer="16"/>
</signal>
<signal name="N$9">
<contactref element="R17" pad="2"/>
<contactref element="R18" pad="P$2"/>
<wire x1="73.914" y1="21.39" x2="69.85" y2="21.39" width="0.8128" layer="16"/>
<wire x1="69.85" y1="21.39" x2="69.85" y2="21.336" width="0.8128" layer="16"/>
</signal>
<signal name="POTL3">
<contactref element="R17" pad="1"/>
<contactref element="C9" pad="1"/>
<contactref element="U$1" pad="P$33"/>
<wire x1="69.85" y1="10.414" x2="69.85" y2="13.716" width="0.8128" layer="16"/>
<wire x1="69.85" y1="10.414" x2="65.024" y2="10.414" width="0.3048" layer="16"/>
<wire x1="36.576" y1="62.992" x2="45.466" y2="71.882" width="0.3048" layer="16"/>
<wire x1="36.576" y1="54.356" x2="36.576" y2="62.992" width="0.3048" layer="16"/>
<wire x1="45.466" y1="71.882" x2="68.58" y2="71.882" width="0.3048" layer="16"/>
<wire x1="68.58" y1="71.882" x2="68.58" y2="80.01" width="0.3048" layer="16"/>
<wire x1="65.024" y1="10.414" x2="65.024" y2="54.356" width="0.3048" layer="16"/>
<wire x1="65.024" y1="54.356" x2="36.576" y2="54.356" width="0.3048" layer="16"/>
</signal>
<signal name="VDD">
<contactref element="U$1" pad="P$20"/>
<contactref element="R7" pad="2"/>
<contactref element="R8" pad="2"/>
<contactref element="R9" pad="2"/>
<contactref element="R2" pad="2"/>
<wire x1="50.8" y1="95.25" x2="50.8" y2="98.298" width="0.8128" layer="16"/>
<wire x1="50.8" y1="98.298" x2="1.778" y2="98.298" width="0.8128" layer="16"/>
<wire x1="1.778" y1="98.298" x2="1.778" y2="41.402" width="0.8128" layer="16"/>
<wire x1="1.778" y1="41.402" x2="1.778" y2="31.496" width="0.8128" layer="16"/>
<wire x1="8.128" y1="31.496" x2="1.778" y2="31.496" width="0.8128" layer="16"/>
<wire x1="8.128" y1="41.402" x2="1.778" y2="41.402" width="0.8128" layer="16"/>
<wire x1="21.59" y1="41.402" x2="17.78" y2="45.212" width="0.8128" layer="16"/>
<wire x1="17.78" y1="45.212" x2="8.128" y2="45.212" width="0.8128" layer="16"/>
<wire x1="8.128" y1="45.212" x2="8.128" y2="41.402" width="0.8128" layer="16"/>
<wire x1="8.128" y1="31.496" x2="21.336" y2="31.496" width="0.3048" layer="16"/>
</signal>
</signals>
</board>
</drawing>
<compatibility>
<note version="8.2" severity="warning">
Since Version 8.2, EAGLE supports online libraries. The ids
of those online libraries will not be understood (or retained)
with this version.
</note>
<note version="8.3" severity="warning">
Since Version 8.3, EAGLE supports URNs for individual library
assets (packages, symbols, and devices). The URNs of those assets
will not be understood (or retained) with this version.
</note>
<note version="8.3" severity="warning">
Since Version 8.3, EAGLE supports the association of 3D packages
with devices in libraries, schematics, and board files. Those 3D
packages will not be understood (or retained) with this version.
</note>
</compatibility>
</eagle>
