<?xml version="1.0" encoding="utf-8"?>
<!DOCTYPE eagle SYSTEM "eagle.dtd">
<eagle version="7.5.0">
<drawing>
<settings>
<setting alwaysvectorfont="no"/>
<setting verticaltext="up"/>
</settings>
<grid distance="0.05" unitdist="inch" unit="inch" style="lines" multiple="1" display="no" altdistance="0.025" altunitdist="inch" altunit="inch"/>
<layers>
<layer number="1" name="Top" color="4" fill="1" visible="yes" active="yes"/>
<layer number="2" name="Route2" color="1" fill="3" visible="no" active="no"/>
<layer number="3" name="Route3" color="4" fill="3" visible="no" active="no"/>
<layer number="4" name="Route4" color="1" fill="4" visible="no" active="no"/>
<layer number="5" name="Route5" color="4" fill="4" visible="no" active="no"/>
<layer number="6" name="Route6" color="1" fill="8" visible="no" active="no"/>
<layer number="7" name="Route7" color="4" fill="8" visible="no" active="no"/>
<layer number="8" name="Route8" color="1" fill="2" visible="no" active="no"/>
<layer number="9" name="Route9" color="4" fill="2" visible="no" active="no"/>
<layer number="10" name="Route10" color="1" fill="7" visible="no" active="no"/>
<layer number="11" name="Route11" color="4" fill="7" visible="no" active="no"/>
<layer number="12" name="Route12" color="1" fill="5" visible="no" active="no"/>
<layer number="13" name="Route13" color="4" fill="5" visible="no" active="no"/>
<layer number="14" name="Route14" color="1" fill="6" visible="no" active="no"/>
<layer number="15" name="Route15" color="4" fill="6" visible="no" active="no"/>
<layer number="16" name="Bottom" color="1" fill="1" visible="yes" active="yes"/>
<layer number="17" name="Pads" color="2" fill="1" visible="yes" active="yes"/>
<layer number="18" name="Vias" color="2" fill="1" visible="yes" active="yes"/>
<layer number="19" name="Unrouted" color="6" fill="1" visible="yes" active="yes"/>
<layer number="20" name="Dimension" color="15" fill="1" visible="yes" active="yes"/>
<layer number="21" name="tPlace" color="7" fill="1" visible="yes" active="yes"/>
<layer number="22" name="bPlace" color="7" fill="1" visible="yes" active="yes"/>
<layer number="23" name="tOrigins" color="15" fill="1" visible="yes" active="yes"/>
<layer number="24" name="bOrigins" color="15" fill="1" visible="yes" active="yes"/>
<layer number="25" name="tNames" color="7" fill="1" visible="yes" active="yes"/>
<layer number="26" name="bNames" color="7" fill="1" visible="yes" active="yes"/>
<layer number="27" name="tValues" color="7" fill="1" visible="yes" active="yes"/>
<layer number="28" name="bValues" color="7" fill="1" visible="yes" active="yes"/>
<layer number="29" name="tStop" color="7" fill="3" visible="no" active="yes"/>
<layer number="30" name="bStop" color="7" fill="6" visible="no" active="yes"/>
<layer number="31" name="tCream" color="7" fill="4" visible="no" active="yes"/>
<layer number="32" name="bCream" color="7" fill="5" visible="no" active="yes"/>
<layer number="33" name="tFinish" color="6" fill="3" visible="no" active="yes"/>
<layer number="34" name="bFinish" color="6" fill="6" visible="no" active="yes"/>
<layer number="35" name="tGlue" color="7" fill="4" visible="no" active="yes"/>
<layer number="36" name="bGlue" color="7" fill="5" visible="no" active="yes"/>
<layer number="37" name="tTest" color="7" fill="1" visible="no" active="yes"/>
<layer number="38" name="bTest" color="7" fill="1" visible="no" active="yes"/>
<layer number="39" name="tKeepout" color="4" fill="11" visible="yes" active="yes"/>
<layer number="40" name="bKeepout" color="1" fill="11" visible="yes" active="yes"/>
<layer number="41" name="tRestrict" color="4" fill="10" visible="yes" active="yes"/>
<layer number="42" name="bRestrict" color="1" fill="10" visible="yes" active="yes"/>
<layer number="43" name="vRestrict" color="2" fill="10" visible="yes" active="yes"/>
<layer number="44" name="Drills" color="7" fill="1" visible="no" active="yes"/>
<layer number="45" name="Holes" color="7" fill="1" visible="no" active="yes"/>
<layer number="46" name="Milling" color="3" fill="1" visible="no" active="yes"/>
<layer number="47" name="Measures" color="7" fill="1" visible="no" active="yes"/>
<layer number="48" name="Document" color="7" fill="1" visible="yes" active="yes"/>
<layer number="49" name="Reference" color="7" fill="1" visible="yes" active="yes"/>
<layer number="51" name="tDocu" color="7" fill="1" visible="yes" active="yes"/>
<layer number="52" name="bDocu" color="7" fill="1" visible="yes" active="yes"/>
<layer number="90" name="Modules" color="5" fill="1" visible="no" active="no"/>
<layer number="91" name="Nets" color="2" fill="1" visible="no" active="no"/>
<layer number="92" name="Busses" color="1" fill="1" visible="no" active="no"/>
<layer number="93" name="Pins" color="2" fill="1" visible="no" active="no"/>
<layer number="94" name="Symbols" color="4" fill="1" visible="no" active="no"/>
<layer number="95" name="Names" color="7" fill="1" visible="no" active="no"/>
<layer number="96" name="Values" color="7" fill="1" visible="no" active="no"/>
<layer number="97" name="Info" color="7" fill="1" visible="no" active="no"/>
<layer number="98" name="Guide" color="6" fill="1" visible="no" active="no"/>
<layer number="200" name="200bmp" color="1" fill="10" visible="yes" active="yes"/>
<layer number="201" name="201bmp" color="2" fill="10" visible="yes" active="yes"/>
</layers>
<board>
<plain>
<wire x1="0" y1="0" x2="160" y2="0" width="0" layer="20"/>
<wire x1="160" y1="0" x2="160" y2="100" width="0" layer="20"/>
<wire x1="160" y1="100" x2="0" y2="100" width="0" layer="20"/>
<wire x1="0" y1="100" x2="0" y2="0" width="0" layer="20"/>
</plain>
<libraries>
<library name="rcl">
<description>&lt;b&gt;Resistors, Capacitors, Inductors&lt;/b&gt;&lt;p&gt;
Based on the previous libraries:
&lt;ul&gt;
&lt;li&gt;r.lbr
&lt;li&gt;cap.lbr 
&lt;li&gt;cap-fe.lbr
&lt;li&gt;captant.lbr
&lt;li&gt;polcap.lbr
&lt;li&gt;ipc-smd.lbr
&lt;/ul&gt;
All SMD packages are defined according to the IPC specifications and  CECC&lt;p&gt;
&lt;author&gt;Created by librarian@cadsoft.de&lt;/author&gt;&lt;p&gt;
&lt;p&gt;
for Electrolyt Capacitors see also :&lt;p&gt;
www.bccomponents.com &lt;p&gt;
www.panasonic.com&lt;p&gt;
www.kemet.com&lt;p&gt;
http://www.secc.co.jp/pdf/os_e/2004/e_os_all.pdf &lt;b&gt;(SANYO)&lt;/b&gt;
&lt;p&gt;
for trimmer refence see : &lt;u&gt;www.electrospec-inc.com/cross_references/trimpotcrossref.asp&lt;/u&gt;&lt;p&gt;

&lt;table border=0 cellspacing=0 cellpadding=0 width="100%" cellpaddding=0&gt;
&lt;tr valign="top"&gt;

&lt;! &lt;td width="10"&gt;&amp;nbsp;&lt;/td&gt;
&lt;td width="90%"&gt;

&lt;b&gt;&lt;font color="#0000FF" size="4"&gt;TRIM-POT CROSS REFERENCE&lt;/font&gt;&lt;/b&gt;
&lt;P&gt;
&lt;TABLE BORDER=0 CELLSPACING=1 CELLPADDING=2&gt;
  &lt;TR&gt;
    &lt;TD COLSPAN=8&gt;
      &lt;FONT SIZE=3 FACE=ARIAL&gt;&lt;B&gt;RECTANGULAR MULTI-TURN&lt;/B&gt;&lt;/FONT&gt;
    &lt;/TD&gt;
  &lt;/TR&gt;
  &lt;TR&gt;
    &lt;TD ALIGN=CENTER&gt;
      &lt;B&gt;
      &lt;FONT SIZE=3 FACE=ARIAL color="#FF0000"&gt;BOURNS&lt;/FONT&gt;
      &lt;/B&gt;
    &lt;/TD&gt;
    &lt;TD ALIGN=CENTER&gt;
      &lt;B&gt;
      &lt;FONT SIZE=3 FACE=ARIAL color="#FF0000"&gt;BI&amp;nbsp;TECH&lt;/FONT&gt;
      &lt;/B&gt;
    &lt;/TD&gt;
    &lt;TD ALIGN=CENTER&gt;
      &lt;B&gt;
      &lt;FONT SIZE=3 FACE=ARIAL color="#FF0000"&gt;DALE-VISHAY&lt;/FONT&gt;
      &lt;/B&gt;
    &lt;/TD&gt;
    &lt;TD ALIGN=CENTER&gt;
      &lt;B&gt;
      &lt;FONT SIZE=3 FACE=ARIAL color="#FF0000"&gt;PHILIPS/MEPCO&lt;/FONT&gt;
      &lt;/B&gt;
    &lt;/TD&gt;
    &lt;TD ALIGN=CENTER&gt;
      &lt;B&gt;
      &lt;FONT SIZE=3 FACE=ARIAL color="#FF0000"&gt;MURATA&lt;/FONT&gt;
      &lt;/B&gt;
    &lt;/TD&gt;
    &lt;TD ALIGN=CENTER&gt;
      &lt;B&gt;
      &lt;FONT SIZE=3 FACE=ARIAL color="#FF0000"&gt;PANASONIC&lt;/FONT&gt;
      &lt;/B&gt;
    &lt;/TD&gt;
    &lt;TD ALIGN=CENTER&gt;
      &lt;B&gt;
      &lt;FONT SIZE=3 FACE=ARIAL color="#FF0000"&gt;SPECTROL&lt;/FONT&gt;
      &lt;/B&gt;
    &lt;/TD&gt;
    &lt;TD ALIGN=CENTER&gt;
      &lt;B&gt;
      &lt;FONT SIZE=3 FACE=ARIAL color="#FF0000"&gt;MILSPEC&lt;/FONT&gt;
      &lt;/B&gt;
    &lt;/TD&gt;&lt;TD&gt;&amp;nbsp;&lt;/TD&gt;
  &lt;/TR&gt;
  &lt;TR&gt;
    &lt;TD BGCOLOR="#cccccc" ALIGN=CENTER&gt;&lt;FONT FACE=ARIAL SIZE=3 &gt;
      3005P&lt;BR&gt;
      3006P&lt;BR&gt;
      3006W&lt;BR&gt;
      3006Y&lt;BR&gt;
      3009P&lt;BR&gt;
      3009W&lt;BR&gt;
      3009Y&lt;BR&gt;
      3057J&lt;BR&gt;
      3057L&lt;BR&gt;
      3057P&lt;BR&gt;
      3057Y&lt;BR&gt;
      3059J&lt;BR&gt;
      3059L&lt;BR&gt;
      3059P&lt;BR&gt;
      3059Y&lt;BR&gt;&lt;/FONT&gt;
    &lt;/TD&gt;
    &lt;TD BGCOLOR="#cccccc" ALIGN=CENTER&gt;&lt;FONT FACE=ARIAL SIZE=3&gt;
      -&lt;BR&gt;
      89P&lt;BR&gt;
      89W&lt;BR&gt;
      89X&lt;BR&gt;
      89PH&lt;BR&gt;
      76P&lt;BR&gt;
      89XH&lt;BR&gt;
      78SLT&lt;BR&gt;
      78L&amp;nbsp;ALT&lt;BR&gt;
      56P&amp;nbsp;ALT&lt;BR&gt;
      78P&amp;nbsp;ALT&lt;BR&gt;
      T8S&lt;BR&gt;
      78L&lt;BR&gt;
      56P&lt;BR&gt;
      78P&lt;BR&gt;&lt;/FONT&gt;
    &lt;/TD&gt;
    &lt;TD BGCOLOR="#cccccc" ALIGN=CENTER&gt;&lt;FONT FACE=ARIAL SIZE=3&gt;
      -&lt;BR&gt;
      T18/784&lt;BR&gt;
      783&lt;BR&gt;
      781&lt;BR&gt;
      -&lt;BR&gt;
      -&lt;BR&gt;
      -&lt;BR&gt;
      2199&lt;BR&gt;
      1697/1897&lt;BR&gt;
      1680/1880&lt;BR&gt;
      2187&lt;BR&gt;
      -&lt;BR&gt;
      -&lt;BR&gt;
      -&lt;BR&gt;
      -&lt;BR&gt;&lt;/FONT&gt;
    &lt;/TD&gt;
    &lt;TD BGCOLOR="#cccccc" ALIGN=CENTER&gt;&lt;FONT FACE=ARIAL SIZE=3&gt;
      -&lt;BR&gt;
      8035EKP/CT20/RJ-20P&lt;BR&gt;
      -&lt;BR&gt;
      RJ-20X&lt;BR&gt;
      -&lt;BR&gt;
      -&lt;BR&gt;
      -&lt;BR&gt;
      1211L&lt;BR&gt;
      8012EKQ&amp;nbsp;ALT&lt;BR&gt;
      8012EKR&amp;nbsp;ALT&lt;BR&gt;
      1211P&lt;BR&gt;
      8012EKJ&lt;BR&gt;
      8012EKL&lt;BR&gt;
      8012EKQ&lt;BR&gt;
      8012EKR&lt;BR&gt;&lt;/FONT&gt;
    &lt;/TD&gt;
    &lt;TD BGCOLOR="#cccccc" ALIGN=CENTER&gt;&lt;FONT FACE=ARIAL SIZE=3&gt;
      -&lt;BR&gt;
      2101P&lt;BR&gt;
      2101W&lt;BR&gt;
      2101Y&lt;BR&gt;
      -&lt;BR&gt;
      -&lt;BR&gt;
      -&lt;BR&gt;
      -&lt;BR&gt;
      -&lt;BR&gt;
      -&lt;BR&gt;
      -&lt;BR&gt;
      -&lt;BR&gt;
      2102L&lt;BR&gt;
      2102S&lt;BR&gt;
      2102Y&lt;BR&gt;&lt;/FONT&gt;
    &lt;/TD&gt;
    &lt;TD BGCOLOR="#cccccc" ALIGN=CENTER&gt;&lt;FONT FACE=ARIAL SIZE=3&gt;
      -&lt;BR&gt;
      EVMCOG&lt;BR&gt;
      -&lt;BR&gt;
      -&lt;BR&gt;
      -&lt;BR&gt;
      -&lt;BR&gt;
      -&lt;BR&gt;
      -&lt;BR&gt;
      -&lt;BR&gt;
      -&lt;BR&gt;
      -&lt;BR&gt;
      -&lt;BR&gt;
      -&lt;BR&gt;
      -&lt;BR&gt;
      -&lt;BR&gt;&lt;/FONT&gt;
    &lt;/TD&gt;
    &lt;TD BGCOLOR="#cccccc" ALIGN=CENTER&gt;&lt;FONT FACE=ARIAL SIZE=3&gt;
      -&lt;BR&gt;
      43P&lt;BR&gt;
      43W&lt;BR&gt;
      43Y&lt;BR&gt;
      -&lt;BR&gt;
      -&lt;BR&gt;
      -&lt;BR&gt;
      -&lt;BR&gt;
      40L&lt;BR&gt;
      40P&lt;BR&gt;
      40Y&lt;BR&gt;
      70Y-T602&lt;BR&gt;
      70L&lt;BR&gt;
      70P&lt;BR&gt;
      70Y&lt;BR&gt;&lt;/FONT&gt;
    &lt;/TD&gt;
    &lt;TD BGCOLOR="#cccccc" ALIGN=CENTER&gt;&lt;FONT FACE=ARIAL SIZE=3&gt;
      -&lt;BR&gt;
      -&lt;BR&gt;
      -&lt;BR&gt;
      -&lt;BR&gt;
      -&lt;BR&gt;
      -&lt;BR&gt;
      -&lt;BR&gt;
      -&lt;BR&gt;
      RT/RTR12&lt;BR&gt;
      RT/RTR12&lt;BR&gt;
      RT/RTR12&lt;BR&gt;
      -&lt;BR&gt;
      RJ/RJR12&lt;BR&gt;
      RJ/RJR12&lt;BR&gt;
      RJ/RJR12&lt;BR&gt;&lt;/FONT&gt;
    &lt;/TD&gt;
  &lt;/TR&gt;
  &lt;TR&gt;
    &lt;TD COLSPAN=8&gt;&amp;nbsp;
    &lt;/TD&gt;
  &lt;/TR&gt;
  &lt;TR&gt;
    &lt;TD COLSPAN=8&gt;
      &lt;FONT SIZE=4 FACE=ARIAL&gt;&lt;B&gt;SQUARE MULTI-TURN&lt;/B&gt;&lt;/FONT&gt;
    &lt;/TD&gt;
  &lt;/TR&gt;
  &lt;TR&gt;
   &lt;TD ALIGN=CENTER&gt;
      &lt;FONT SIZE=3 FACE=ARIAL&gt;&lt;B&gt;BOURN&lt;/B&gt;&lt;/FONT&gt;
    &lt;/TD&gt;
    &lt;TD ALIGN=CENTER&gt;
      &lt;FONT SIZE=3 FACE=ARIAL&gt;&lt;B&gt;BI&amp;nbsp;TECH&lt;/B&gt;&lt;/FONT&gt;
    &lt;/TD&gt;
    &lt;TD ALIGN=CENTER&gt;
      &lt;FONT SIZE=3 FACE=ARIAL&gt;&lt;B&gt;DALE-VISHAY&lt;/B&gt;&lt;/FONT&gt;
    &lt;/TD&gt;
    &lt;TD ALIGN=CENTER&gt;
      &lt;FONT SIZE=3 FACE=ARIAL&gt;&lt;B&gt;PHILIPS/MEPCO&lt;/B&gt;&lt;/FONT&gt;
    &lt;/TD&gt;
    &lt;TD ALIGN=CENTER&gt;
      &lt;FONT SIZE=3 FACE=ARIAL&gt;&lt;B&gt;MURATA&lt;/B&gt;&lt;/FONT&gt;
    &lt;/TD&gt;
    &lt;TD ALIGN=CENTER&gt;
      &lt;FONT SIZE=3 FACE=ARIAL&gt;&lt;B&gt;PANASONIC&lt;/B&gt;&lt;/FONT&gt;
    &lt;/TD&gt;
    &lt;TD ALIGN=CENTER&gt;
      &lt;FONT SIZE=3 FACE=ARIAL&gt;&lt;B&gt;SPECTROL&lt;/B&gt;&lt;/FONT&gt;
    &lt;/TD&gt;
    &lt;TD ALIGN=CENTER&gt;
      &lt;FONT SIZE=3 FACE=ARIAL&gt;&lt;B&gt;MILSPEC&lt;/B&gt;&lt;/FONT&gt;
    &lt;/TD&gt;
  &lt;/TR&gt;
  &lt;TR&gt;
    &lt;TD BGCOLOR="#cccccc" ALIGN=CENTER&gt;&lt;FONT FACE=ARIAL SIZE=3&gt;
      3250L&lt;BR&gt;
      3250P&lt;BR&gt;
      3250W&lt;BR&gt;
      3250X&lt;BR&gt;
      3252P&lt;BR&gt;
      3252W&lt;BR&gt;
      3252X&lt;BR&gt;
      3260P&lt;BR&gt;
      3260W&lt;BR&gt;
      3260X&lt;BR&gt;
      3262P&lt;BR&gt;
      3262W&lt;BR&gt;
      3262X&lt;BR&gt;
      3266P&lt;BR&gt;
      3266W&lt;BR&gt;
      3266X&lt;BR&gt;
      3290H&lt;BR&gt;
      3290P&lt;BR&gt;
      3290W&lt;BR&gt;
      3292P&lt;BR&gt;
      3292W&lt;BR&gt;
      3292X&lt;BR&gt;
      3296P&lt;BR&gt;
      3296W&lt;BR&gt;
      3296X&lt;BR&gt;
      3296Y&lt;BR&gt;
      3296Z&lt;BR&gt;
      3299P&lt;BR&gt;
      3299W&lt;BR&gt;
      3299X&lt;BR&gt;
      3299Y&lt;BR&gt;
      3299Z&lt;BR&gt;&lt;/FONT&gt;
    &lt;/TD&gt;
    &lt;TD BGCOLOR="#cccccc" ALIGN=CENTER&gt;&lt;FONT FACE=ARIAL SIZE=3&gt;
      -&lt;BR&gt;
      66P&amp;nbsp;ALT&lt;BR&gt;
      66W&amp;nbsp;ALT&lt;BR&gt;
      66X&amp;nbsp;ALT&lt;BR&gt;
      66P&amp;nbsp;ALT&lt;BR&gt;
      66W&amp;nbsp;ALT&lt;BR&gt;
      66X&amp;nbsp;ALT&lt;BR&gt;
      -&lt;BR&gt;
      64W&amp;nbsp;ALT&lt;BR&gt;
      -&lt;BR&gt;
      64P&amp;nbsp;ALT&lt;BR&gt;
      64W&amp;nbsp;ALT&lt;BR&gt;
      64X&amp;nbsp;ALT&lt;BR&gt;
      64P&lt;BR&gt;
      64W&lt;BR&gt;
      64X&lt;BR&gt;
      66X&amp;nbsp;ALT&lt;BR&gt;
      66P&amp;nbsp;ALT&lt;BR&gt;
      66W&amp;nbsp;ALT&lt;BR&gt;
      66P&lt;BR&gt;
      66W&lt;BR&gt;
      66X&lt;BR&gt;
      67P&lt;BR&gt;
      67W&lt;BR&gt;
      67X&lt;BR&gt;
      67Y&lt;BR&gt;
      67Z&lt;BR&gt;
      68P&lt;BR&gt;
      68W&lt;BR&gt;
      68X&lt;BR&gt;
      67Y&amp;nbsp;ALT&lt;BR&gt;
      67Z&amp;nbsp;ALT&lt;BR&gt;&lt;/FONT&gt;
    &lt;/TD&gt;
    &lt;TD BGCOLOR="#cccccc" ALIGN=CENTER&gt;&lt;FONT FACE=ARIAL SIZE=3&gt;
      5050&lt;BR&gt;
      5091&lt;BR&gt;
      5080&lt;BR&gt;
      5087&lt;BR&gt;
      -&lt;BR&gt;
      -&lt;BR&gt;
      -&lt;BR&gt;
      -&lt;BR&gt;
      -&lt;BR&gt;
      -&lt;BR&gt;
      -&lt;BR&gt;
      T63YB&lt;BR&gt;
      T63XB&lt;BR&gt;
      -&lt;BR&gt;
      -&lt;BR&gt;
      -&lt;BR&gt;
      5887&lt;BR&gt;
      5891&lt;BR&gt;
      5880&lt;BR&gt;
      -&lt;BR&gt;
      -&lt;BR&gt;
      -&lt;BR&gt;
      T93Z&lt;BR&gt;
      T93YA&lt;BR&gt;
      T93XA&lt;BR&gt;
      T93YB&lt;BR&gt;
      T93XB&lt;BR&gt;
      -&lt;BR&gt;
      -&lt;BR&gt;
      -&lt;BR&gt;
      -&lt;BR&gt;
      -&lt;BR&gt;&lt;/FONT&gt;
    &lt;/TD&gt;
    &lt;TD BGCOLOR="#cccccc" ALIGN=CENTER&gt;&lt;FONT FACE=ARIAL SIZE=3&gt;
      -&lt;BR&gt;
      -&lt;BR&gt;
      -&lt;BR&gt;
      -&lt;BR&gt;
      -&lt;BR&gt;
      -&lt;BR&gt;
      -&lt;BR&gt;
      -&lt;BR&gt;
      -&lt;BR&gt;
      -&lt;BR&gt;
      8026EKP&lt;BR&gt;
      8026EKW&lt;BR&gt;
      8026EKM&lt;BR&gt;
      8026EKP&lt;BR&gt;
      8026EKB&lt;BR&gt;
      8026EKM&lt;BR&gt;
      1309X&lt;BR&gt;
      1309P&lt;BR&gt;
      1309W&lt;BR&gt;
      8024EKP&lt;BR&gt;
      8024EKW&lt;BR&gt;
      8024EKN&lt;BR&gt;
      RJ-9P/CT9P&lt;BR&gt;
      RJ-9W&lt;BR&gt;
      RJ-9X&lt;BR&gt;
      -&lt;BR&gt;
      -&lt;BR&gt;
      -&lt;BR&gt;
      -&lt;BR&gt;
      -&lt;BR&gt;
      -&lt;BR&gt;
      -&lt;BR&gt;&lt;/FONT&gt;
    &lt;/TD&gt;
    &lt;TD BGCOLOR="#cccccc" ALIGN=CENTER&gt;&lt;FONT FACE=ARIAL SIZE=3&gt;
      -&lt;BR&gt;
      -&lt;BR&gt;
      -&lt;BR&gt;
      -&lt;BR&gt;
      -&lt;BR&gt;
      -&lt;BR&gt;
      -&lt;BR&gt;
      -&lt;BR&gt;
      -&lt;BR&gt;
      -&lt;BR&gt;
      3103P&lt;BR&gt;
      3103Y&lt;BR&gt;
      3103Z&lt;BR&gt;
      3103P&lt;BR&gt;
      3103Y&lt;BR&gt;
      3103Z&lt;BR&gt;
      -&lt;BR&gt;
      -&lt;BR&gt;
      -&lt;BR&gt;
      -&lt;BR&gt;
      -&lt;BR&gt;
      -&lt;BR&gt;
      3105P/3106P&lt;BR&gt;
      3105W/3106W&lt;BR&gt;
      3105X/3106X&lt;BR&gt;
      3105Y/3106Y&lt;BR&gt;
      3105Z/3105Z&lt;BR&gt;
      3102P&lt;BR&gt;
      3102W&lt;BR&gt;
      3102X&lt;BR&gt;
      3102Y&lt;BR&gt;
      3102Z&lt;BR&gt;&lt;/FONT&gt;
    &lt;/TD&gt;
    &lt;TD BGCOLOR="#cccccc" ALIGN=CENTER&gt;&lt;FONT FACE=ARIAL SIZE=3&gt;
      -&lt;BR&gt;
      -&lt;BR&gt;
      -&lt;BR&gt;
      -&lt;BR&gt;
      -&lt;BR&gt;
      -&lt;BR&gt;
      -&lt;BR&gt;
      -&lt;BR&gt;
      -&lt;BR&gt;
      -&lt;BR&gt;
      -&lt;BR&gt;
      -&lt;BR&gt;
      -&lt;BR&gt;
      -&lt;BR&gt;
      -&lt;BR&gt;
      -&lt;BR&gt;
      -&lt;BR&gt;
      -&lt;BR&gt;
      -&lt;BR&gt;
      -&lt;BR&gt;
      -&lt;BR&gt;
      -&lt;BR&gt;
      EVMCBG&lt;BR&gt;
      EVMCCG&lt;BR&gt;
      -&lt;BR&gt;
      -&lt;BR&gt;
      -&lt;BR&gt;
      -&lt;BR&gt;
      -&lt;BR&gt;
      -&lt;BR&gt;
      -&lt;BR&gt;
      -&lt;BR&gt;&lt;/FONT&gt;
    &lt;/TD&gt;
    &lt;TD BGCOLOR="#cccccc" ALIGN=CENTER&gt;&lt;FONT FACE=ARIAL SIZE=3&gt;
      55-1-X&lt;BR&gt;
      55-4-X&lt;BR&gt;
      55-3-X&lt;BR&gt;
      55-2-X&lt;BR&gt;
      -&lt;BR&gt;
      -&lt;BR&gt;
      -&lt;BR&gt;
      -&lt;BR&gt;
      -&lt;BR&gt;
      -&lt;BR&gt;
      -&lt;BR&gt;
      -&lt;BR&gt;
      -&lt;BR&gt;
      -&lt;BR&gt;
      -&lt;BR&gt;
      -&lt;BR&gt;
      50-2-X&lt;BR&gt;
      50-4-X&lt;BR&gt;
      50-3-X&lt;BR&gt;
      -&lt;BR&gt;
      -&lt;BR&gt;
      -&lt;BR&gt;
      64P&lt;BR&gt;
      64W&lt;BR&gt;
      64X&lt;BR&gt;
      64Y&lt;BR&gt;
      64Z&lt;BR&gt;
      -&lt;BR&gt;
      -&lt;BR&gt;
      -&lt;BR&gt;
      -&lt;BR&gt;
      -&lt;BR&gt;&lt;/FONT&gt;
    &lt;/TD&gt;
    &lt;TD BGCOLOR="#cccccc" ALIGN=CENTER&gt;&lt;FONT FACE=ARIAL SIZE=3&gt;
      RT/RTR22&lt;BR&gt;
      RT/RTR22&lt;BR&gt;
      RT/RTR22&lt;BR&gt;
      RT/RTR22&lt;BR&gt;
      RJ/RJR22&lt;BR&gt;
      RJ/RJR22&lt;BR&gt;
      RJ/RJR22&lt;BR&gt;
      RT/RTR26&lt;BR&gt;
      RT/RTR26&lt;BR&gt;
      RT/RTR26&lt;BR&gt;
      RJ/RJR26&lt;BR&gt;
      RJ/RJR26&lt;BR&gt;
      RJ/RJR26&lt;BR&gt;
      RJ/RJR26&lt;BR&gt;
      RJ/RJR26&lt;BR&gt;
      RJ/RJR26&lt;BR&gt;
      RT/RTR24&lt;BR&gt;
      RT/RTR24&lt;BR&gt;
      RT/RTR24&lt;BR&gt;
      RJ/RJR24&lt;BR&gt;
      RJ/RJR24&lt;BR&gt;
      RJ/RJR24&lt;BR&gt;
      RJ/RJR24&lt;BR&gt;
      RJ/RJR24&lt;BR&gt;
      RJ/RJR24&lt;BR&gt;
      -&lt;BR&gt;
      -&lt;BR&gt;
      -&lt;BR&gt;
      -&lt;BR&gt;
      -&lt;BR&gt;
      -&lt;BR&gt;
      -&lt;BR&gt;&lt;/FONT&gt;
    &lt;/TD&gt;
  &lt;/TR&gt;
  &lt;TR&gt;
    &lt;TD COLSPAN=8&gt;&amp;nbsp;
    &lt;/TD&gt;
  &lt;/TR&gt;
  &lt;TR&gt;
    &lt;TD COLSPAN=8&gt;
      &lt;FONT SIZE=4 FACE=ARIAL&gt;&lt;B&gt;SINGLE TURN&lt;/B&gt;&lt;/FONT&gt;
    &lt;/TD&gt;
  &lt;/TR&gt;
  &lt;TR&gt;
    &lt;TD ALIGN=CENTER&gt;
      &lt;FONT SIZE=3 FACE=ARIAL&gt;&lt;B&gt;BOURN&lt;/B&gt;&lt;/FONT&gt;
    &lt;/TD&gt;
    &lt;TD ALIGN=CENTER&gt;
      &lt;FONT SIZE=3 FACE=ARIAL&gt;&lt;B&gt;BI&amp;nbsp;TECH&lt;/B&gt;&lt;/FONT&gt;
    &lt;/TD&gt;
    &lt;TD ALIGN=CENTER&gt;
      &lt;FONT SIZE=3 FACE=ARIAL&gt;&lt;B&gt;DALE-VISHAY&lt;/B&gt;&lt;/FONT&gt;
    &lt;/TD&gt;
    &lt;TD ALIGN=CENTER&gt;
      &lt;FONT SIZE=3 FACE=ARIAL&gt;&lt;B&gt;PHILIPS/MEPCO&lt;/B&gt;&lt;/FONT&gt;
    &lt;/TD&gt;
    &lt;TD ALIGN=CENTER&gt;
      &lt;FONT SIZE=3 FACE=ARIAL&gt;&lt;B&gt;MURATA&lt;/B&gt;&lt;/FONT&gt;
    &lt;/TD&gt;
    &lt;TD ALIGN=CENTER&gt;
      &lt;FONT SIZE=3 FACE=ARIAL&gt;&lt;B&gt;PANASONIC&lt;/B&gt;&lt;/FONT&gt;
    &lt;/TD&gt;
    &lt;TD ALIGN=CENTER&gt;
      &lt;FONT SIZE=3 FACE=ARIAL&gt;&lt;B&gt;SPECTROL&lt;/B&gt;&lt;/FONT&gt;
    &lt;/TD&gt;
    &lt;TD ALIGN=CENTER&gt;
      &lt;FONT SIZE=3 FACE=ARIAL&gt;&lt;B&gt;MILSPEC&lt;/B&gt;&lt;/FONT&gt;
    &lt;/TD&gt;
  &lt;/TR&gt;
  &lt;TR&gt;
    &lt;TD BGCOLOR="#cccccc" ALIGN=CENTER&gt;&lt;FONT FACE=ARIAL SIZE=3&gt;
      3323P&lt;BR&gt;
      3323S&lt;BR&gt;
      3323W&lt;BR&gt;
      3329H&lt;BR&gt;
      3329P&lt;BR&gt;
      3329W&lt;BR&gt;
      3339H&lt;BR&gt;
      3339P&lt;BR&gt;
      3339W&lt;BR&gt;
      3352E&lt;BR&gt;
      3352H&lt;BR&gt;
      3352K&lt;BR&gt;
      3352P&lt;BR&gt;
      3352T&lt;BR&gt;
      3352V&lt;BR&gt;
      3352W&lt;BR&gt;
      3362H&lt;BR&gt;
      3362M&lt;BR&gt;
      3362P&lt;BR&gt;
      3362R&lt;BR&gt;
      3362S&lt;BR&gt;
      3362U&lt;BR&gt;
      3362W&lt;BR&gt;
      3362X&lt;BR&gt;
      3386B&lt;BR&gt;
      3386C&lt;BR&gt;
      3386F&lt;BR&gt;
      3386H&lt;BR&gt;
      3386K&lt;BR&gt;
      3386M&lt;BR&gt;
      3386P&lt;BR&gt;
      3386S&lt;BR&gt;
      3386W&lt;BR&gt;
      3386X&lt;BR&gt;&lt;/FONT&gt;
    &lt;/TD&gt;
    &lt;TD BGCOLOR="#cccccc" ALIGN=CENTER&gt;&lt;FONT FACE=ARIAL SIZE=3&gt;
      25P&lt;BR&gt;
      25S&lt;BR&gt;
      25RX&lt;BR&gt;
      82P&lt;BR&gt;
      82M&lt;BR&gt;
      82PA&lt;BR&gt;
      -&lt;BR&gt;
      -&lt;BR&gt;
      -&lt;BR&gt;
      91E&lt;BR&gt;
      91X&lt;BR&gt;
      91T&lt;BR&gt;
      91B&lt;BR&gt;
      91A&lt;BR&gt;
      91V&lt;BR&gt;
      91W&lt;BR&gt;
      25W&lt;BR&gt;
      25V&lt;BR&gt;
      25P&lt;BR&gt;
      -&lt;BR&gt;
      25S&lt;BR&gt;
      25U&lt;BR&gt;
      25RX&lt;BR&gt;
      25X&lt;BR&gt;
      72XW&lt;BR&gt;
      72XL&lt;BR&gt;
      72PM&lt;BR&gt;
      72RX&lt;BR&gt;
      -&lt;BR&gt;
      72PX&lt;BR&gt;
      72P&lt;BR&gt;
      72RXW&lt;BR&gt;
      72RXL&lt;BR&gt;
      72X&lt;BR&gt;&lt;/FONT&gt;
    &lt;/TD&gt;
    &lt;TD BGCOLOR="#cccccc" ALIGN=CENTER&gt;&lt;FONT FACE=ARIAL SIZE=3&gt;
      -&lt;BR&gt;
      -&lt;BR&gt;
      -&lt;BR&gt;
      T7YB&lt;BR&gt;
      T7YA&lt;BR&gt;
      -&lt;BR&gt;
      -&lt;BR&gt;
      -&lt;BR&gt;
      -&lt;BR&gt;
      -&lt;BR&gt;
      -&lt;BR&gt;
      -&lt;BR&gt;
      -&lt;BR&gt;
      -&lt;BR&gt;
      -&lt;BR&gt;
      -&lt;BR&gt;
      -&lt;BR&gt;
      TXD&lt;BR&gt;
      TYA&lt;BR&gt;
      TYP&lt;BR&gt;
      -&lt;BR&gt;
      TYD&lt;BR&gt;
      TX&lt;BR&gt;
      -&lt;BR&gt;
      150SX&lt;BR&gt;
      100SX&lt;BR&gt;
      102T&lt;BR&gt;
      101S&lt;BR&gt;
      190T&lt;BR&gt;
      150TX&lt;BR&gt;
      101&lt;BR&gt;
      -&lt;BR&gt;
      -&lt;BR&gt;
      101SX&lt;BR&gt;&lt;/FONT&gt;
    &lt;/TD&gt;
    &lt;TD BGCOLOR="#cccccc" ALIGN=CENTER&gt;&lt;FONT FACE=ARIAL SIZE=3&gt;
      ET6P&lt;BR&gt;
      ET6S&lt;BR&gt;
      ET6X&lt;BR&gt;
      RJ-6W/8014EMW&lt;BR&gt;
      RJ-6P/8014EMP&lt;BR&gt;
      RJ-6X/8014EMX&lt;BR&gt;
      TM7W&lt;BR&gt;
      TM7P&lt;BR&gt;
      TM7X&lt;BR&gt;
      -&lt;BR&gt;
      8017SMS&lt;BR&gt;
      -&lt;BR&gt;
      8017SMB&lt;BR&gt;
      8017SMA&lt;BR&gt;
      -&lt;BR&gt;
      -&lt;BR&gt;
      CT-6W&lt;BR&gt;
      CT-6H&lt;BR&gt;
      CT-6P&lt;BR&gt;
      CT-6R&lt;BR&gt;
      -&lt;BR&gt;
      CT-6V&lt;BR&gt;
      CT-6X&lt;BR&gt;
      -&lt;BR&gt;
      -&lt;BR&gt;
      8038EKV&lt;BR&gt;
      -&lt;BR&gt;
      8038EKX&lt;BR&gt;
      -&lt;BR&gt;
      -&lt;BR&gt;
      8038EKP&lt;BR&gt;
      8038EKZ&lt;BR&gt;
      8038EKW&lt;BR&gt;
      -&lt;BR&gt;&lt;/FONT&gt;
    &lt;/TD&gt;
    &lt;TD BGCOLOR="#cccccc" ALIGN=CENTER&gt;&lt;FONT FACE=ARIAL SIZE=3&gt;
      -&lt;BR&gt;
      -&lt;BR&gt;
      -&lt;BR&gt;
      3321H&lt;BR&gt;
      3321P&lt;BR&gt;
      3321N&lt;BR&gt;
      1102H&lt;BR&gt;
      1102P&lt;BR&gt;
      1102T&lt;BR&gt;
      RVA0911V304A&lt;BR&gt;
      -&lt;BR&gt;
      RVA0911H413A&lt;BR&gt;
      RVG0707V100A&lt;BR&gt;
      RVA0607V(H)306A&lt;BR&gt;
      RVA1214H213A&lt;BR&gt;
      -&lt;BR&gt;
      -&lt;BR&gt;
      -&lt;BR&gt;
      -&lt;BR&gt;
      -&lt;BR&gt;
      -&lt;BR&gt;
      -&lt;BR&gt;
      -&lt;BR&gt;
      -&lt;BR&gt;
      3104B&lt;BR&gt;
      3104C&lt;BR&gt;
      3104F&lt;BR&gt;
      3104H&lt;BR&gt;
      -&lt;BR&gt;
      3104M&lt;BR&gt;
      3104P&lt;BR&gt;
      3104S&lt;BR&gt;
      3104W&lt;BR&gt;
      3104X&lt;BR&gt;&lt;/FONT&gt;
    &lt;/TD&gt;
    &lt;TD BGCOLOR="#cccccc" ALIGN=CENTER&gt;&lt;FONT FACE=ARIAL SIZE=3&gt;
      EVMQ0G&lt;BR&gt;
      EVMQIG&lt;BR&gt;
      EVMQ3G&lt;BR&gt;
      EVMS0G&lt;BR&gt;
      EVMQ0G&lt;BR&gt;
      EVMG0G&lt;BR&gt;
      -&lt;BR&gt;
      -&lt;BR&gt;
      -&lt;BR&gt;
      EVMK4GA00B&lt;BR&gt;
      EVM30GA00B&lt;BR&gt;
      EVMK0GA00B&lt;BR&gt;
      EVM38GA00B&lt;BR&gt;
      EVMB6&lt;BR&gt;
      EVLQ0&lt;BR&gt;
      -&lt;BR&gt;
      EVMMSG&lt;BR&gt;
      EVMMBG&lt;BR&gt;
      EVMMAG&lt;BR&gt;
      -&lt;BR&gt;
      -&lt;BR&gt;
      EVMMCS&lt;BR&gt;
      -&lt;BR&gt;
      -&lt;BR&gt;
      -&lt;BR&gt;
      -&lt;BR&gt;
      -&lt;BR&gt;
      EVMM1&lt;BR&gt;
      -&lt;BR&gt;
      -&lt;BR&gt;
      EVMM0&lt;BR&gt;
      -&lt;BR&gt;
      -&lt;BR&gt;
      EVMM3&lt;BR&gt;&lt;/FONT&gt;
    &lt;/TD&gt;
    &lt;TD BGCOLOR="#cccccc" ALIGN=CENTER&gt;&lt;FONT FACE=ARIAL SIZE=3&gt;
      -&lt;BR&gt;
      -&lt;BR&gt;
      -&lt;BR&gt;
      62-3-1&lt;BR&gt;
      62-1-2&lt;BR&gt;
      -&lt;BR&gt;
      -&lt;BR&gt;
      -&lt;BR&gt;
      -&lt;BR&gt;
      -&lt;BR&gt;
      -&lt;BR&gt;
      -&lt;BR&gt;
      -&lt;BR&gt;
      -&lt;BR&gt;
      -&lt;BR&gt;
      -&lt;BR&gt;
      67R&lt;BR&gt;
      -&lt;BR&gt;
      67P&lt;BR&gt;
      -&lt;BR&gt;
      -&lt;BR&gt;
      -&lt;BR&gt;
      -&lt;BR&gt;
      67X&lt;BR&gt;
      63V&lt;BR&gt;
      63S&lt;BR&gt;
      63M&lt;BR&gt;
      -&lt;BR&gt;
      -&lt;BR&gt;
      63H&lt;BR&gt;
      63P&lt;BR&gt;
      -&lt;BR&gt;
      -&lt;BR&gt;
      63X&lt;BR&gt;&lt;/FONT&gt;
    &lt;/TD&gt;
    &lt;TD BGCOLOR="#cccccc" ALIGN=CENTER&gt;&lt;FONT FACE=ARIAL SIZE=3&gt;
      -&lt;BR&gt;
      -&lt;BR&gt;
      -&lt;BR&gt;
      RJ/RJR50&lt;BR&gt;
      RJ/RJR50&lt;BR&gt;
      RJ/RJR50&lt;BR&gt;
      -&lt;BR&gt;
      -&lt;BR&gt;
      -&lt;BR&gt;
      -&lt;BR&gt;
      -&lt;BR&gt;
      -&lt;BR&gt;
      -&lt;BR&gt;
      -&lt;BR&gt;
      -&lt;BR&gt;
      -&lt;BR&gt;
      -&lt;BR&gt;
      -&lt;BR&gt;
      -&lt;BR&gt;
      -&lt;BR&gt;
      -&lt;BR&gt;
      -&lt;BR&gt;
      -&lt;BR&gt;
      -&lt;BR&gt;
      -&lt;BR&gt;
      -&lt;BR&gt;
      -&lt;BR&gt;
      -&lt;BR&gt;
      -&lt;BR&gt;
      -&lt;BR&gt;
      -&lt;BR&gt;
      -&lt;BR&gt;
      -&lt;BR&gt;
      -&lt;BR&gt;&lt;/FONT&gt;
    &lt;/TD&gt;
  &lt;/TR&gt;
&lt;/TABLE&gt;
&lt;P&gt;&amp;nbsp;&lt;P&gt;
&lt;TABLE BORDER=0 CELLSPACING=1 CELLPADDING=3&gt;
  &lt;TR&gt;
    &lt;TD COLSPAN=7&gt;
      &lt;FONT color="#0000FF" SIZE=4 FACE=ARIAL&gt;&lt;B&gt;SMD TRIM-POT CROSS REFERENCE&lt;/B&gt;&lt;/FONT&gt;
      &lt;P&gt;
      &lt;FONT SIZE=4 FACE=ARIAL&gt;&lt;B&gt;MULTI-TURN&lt;/B&gt;&lt;/FONT&gt;
    &lt;/TD&gt;
  &lt;/TR&gt;
  &lt;TR&gt;
    &lt;TD&gt;
      &lt;FONT SIZE=3 FACE=ARIAL&gt;&lt;B&gt;BOURNS&lt;/B&gt;&lt;/FONT&gt;
    &lt;/TD&gt;
    &lt;TD&gt;
      &lt;FONT SIZE=3 FACE=ARIAL&gt;&lt;B&gt;BI&amp;nbsp;TECH&lt;/B&gt;&lt;/FONT&gt;
    &lt;/TD&gt;
    &lt;TD&gt;
      &lt;FONT SIZE=3 FACE=ARIAL&gt;&lt;B&gt;DALE-VISHAY&lt;/B&gt;&lt;/FONT&gt;
    &lt;/TD&gt;
    &lt;TD&gt;
      &lt;FONT SIZE=3 FACE=ARIAL&gt;&lt;B&gt;PHILIPS/MEPCO&lt;/B&gt;&lt;/FONT&gt;
    &lt;/TD&gt;
    &lt;TD&gt;
      &lt;FONT SIZE=3 FACE=ARIAL&gt;&lt;B&gt;PANASONIC&lt;/B&gt;&lt;/FONT&gt;
    &lt;/TD&gt;
    &lt;TD&gt;
      &lt;FONT SIZE=3 FACE=ARIAL&gt;&lt;B&gt;TOCOS&lt;/B&gt;&lt;/FONT&gt;
    &lt;/TD&gt;
    &lt;TD&gt;
      &lt;FONT SIZE=3 FACE=ARIAL&gt;&lt;B&gt;AUX/KYOCERA&lt;/B&gt;&lt;/FONT&gt;
    &lt;/TD&gt;
  &lt;/TR&gt;
  &lt;TR&gt;
    &lt;TD BGCOLOR="#cccccc" ALIGN=CENTER&gt;&lt;FONT FACE=ARIAL SIZE=3&gt;
      3224G&lt;BR&gt;
      3224J&lt;BR&gt;
      3224W&lt;BR&gt;
      3269P&lt;BR&gt;
      3269W&lt;BR&gt;
      3269X&lt;BR&gt;&lt;/FONT&gt;
    &lt;/TD&gt;
    &lt;TD BGCOLOR="#cccccc" ALIGN=CENTER&gt;&lt;FONT FACE=ARIAL SIZE=3&gt;
      44G&lt;BR&gt;
      44J&lt;BR&gt;
      44W&lt;BR&gt;
      84P&lt;BR&gt;
      84W&lt;BR&gt;
      84X&lt;BR&gt;&lt;/FONT&gt;
    &lt;/TD&gt;
    &lt;TD BGCOLOR="#cccccc" ALIGN=CENTER&gt;&lt;FONT FACE=ARIAL SIZE=3&gt;
      -&lt;BR&gt;
      -&lt;BR&gt;
      -&lt;BR&gt;
      ST63Z&lt;BR&gt;
      ST63Y&lt;BR&gt;
      -&lt;BR&gt;&lt;/FONT&gt;
    &lt;/TD&gt;
    &lt;TD BGCOLOR="#cccccc" ALIGN=CENTER&gt;&lt;FONT FACE=ARIAL SIZE=3&gt;
      -&lt;BR&gt;
      -&lt;BR&gt;
      -&lt;BR&gt;
      ST5P&lt;BR&gt;
      ST5W&lt;BR&gt;
      ST5X&lt;BR&gt;&lt;/FONT&gt;
    &lt;/TD&gt;
    &lt;TD BGCOLOR="#cccccc" ALIGN=CENTER&gt;&lt;FONT FACE=ARIAL SIZE=3&gt;
      -&lt;BR&gt;
      -&lt;BR&gt;
      -&lt;BR&gt;
      -&lt;BR&gt;
      -&lt;BR&gt;
      -&lt;BR&gt;&lt;/FONT&gt;
    &lt;/TD&gt;
    &lt;TD BGCOLOR="#cccccc" ALIGN=CENTER&gt;&lt;FONT FACE=ARIAL SIZE=3&gt;
      -&lt;BR&gt;
      -&lt;BR&gt;
      -&lt;BR&gt;
      -&lt;BR&gt;
      -&lt;BR&gt;
      -&lt;BR&gt;&lt;/FONT&gt;
    &lt;/TD&gt;
    &lt;TD BGCOLOR="#cccccc" ALIGN=CENTER&gt;&lt;FONT FACE=ARIAL SIZE=3&gt;
      -&lt;BR&gt;
      -&lt;BR&gt;
      -&lt;BR&gt;
      -&lt;BR&gt;
      -&lt;BR&gt;
      -&lt;BR&gt;&lt;/FONT&gt;
    &lt;/TD&gt;
  &lt;/TR&gt;
  &lt;TR&gt;
    &lt;TD COLSPAN=7&gt;&amp;nbsp;
    &lt;/TD&gt;
  &lt;/TR&gt;
  &lt;TR&gt;
    &lt;TD COLSPAN=7&gt;
      &lt;FONT SIZE=4 FACE=ARIAL&gt;&lt;B&gt;SINGLE TURN&lt;/B&gt;&lt;/FONT&gt;
    &lt;/TD&gt;
  &lt;/TR&gt;
  &lt;TR&gt;
    &lt;TD&gt;
      &lt;FONT SIZE=3 FACE=ARIAL&gt;&lt;B&gt;BOURNS&lt;/B&gt;&lt;/FONT&gt;
    &lt;/TD&gt;
    &lt;TD&gt;
      &lt;FONT SIZE=3 FACE=ARIAL&gt;&lt;B&gt;BI&amp;nbsp;TECH&lt;/B&gt;&lt;/FONT&gt;
    &lt;/TD&gt;
    &lt;TD&gt;
      &lt;FONT SIZE=3 FACE=ARIAL&gt;&lt;B&gt;DALE-VISHAY&lt;/B&gt;&lt;/FONT&gt;
    &lt;/TD&gt;
    &lt;TD&gt;
      &lt;FONT SIZE=3 FACE=ARIAL&gt;&lt;B&gt;PHILIPS/MEPCO&lt;/B&gt;&lt;/FONT&gt;
    &lt;/TD&gt;
    &lt;TD&gt;
      &lt;FONT SIZE=3 FACE=ARIAL&gt;&lt;B&gt;PANASONIC&lt;/B&gt;&lt;/FONT&gt;
    &lt;/TD&gt;
    &lt;TD&gt;
      &lt;FONT SIZE=3 FACE=ARIAL&gt;&lt;B&gt;TOCOS&lt;/B&gt;&lt;/FONT&gt;
    &lt;/TD&gt;
    &lt;TD&gt;
      &lt;FONT SIZE=3 FACE=ARIAL&gt;&lt;B&gt;AUX/KYOCERA&lt;/B&gt;&lt;/FONT&gt;
    &lt;/TD&gt;
  &lt;/TR&gt;
  &lt;TR&gt;
    &lt;TD BGCOLOR="#cccccc" ALIGN=CENTER&gt;&lt;FONT FACE=ARIAL SIZE=3&gt;
      3314G&lt;BR&gt;
      3314J&lt;BR&gt;
      3364A/B&lt;BR&gt;
      3364C/D&lt;BR&gt;
      3364W/X&lt;BR&gt;
      3313G&lt;BR&gt;
      3313J&lt;BR&gt;&lt;/FONT&gt;
    &lt;/TD&gt;
    &lt;TD BGCOLOR="#cccccc" ALIGN=CENTER&gt;&lt;FONT FACE=ARIAL SIZE=3&gt;
      23B&lt;BR&gt;
      23A&lt;BR&gt;
      21X&lt;BR&gt;
      21W&lt;BR&gt;
      -&lt;BR&gt;
      22B&lt;BR&gt;
      22A&lt;BR&gt;&lt;/FONT&gt;
    &lt;/TD&gt;
    &lt;TD BGCOLOR="#cccccc" ALIGN=CENTER&gt;&lt;FONT FACE=ARIAL SIZE=3&gt;
      ST5YL/ST53YL&lt;BR&gt;
      ST5YJ/5T53YJ&lt;BR&gt;
      ST-23A&lt;BR&gt;
      ST-22B&lt;BR&gt;
      ST-22&lt;BR&gt;
      -&lt;BR&gt;
      -&lt;BR&gt;&lt;/FONT&gt;
    &lt;/TD&gt;
    &lt;TD BGCOLOR="#cccccc" ALIGN=CENTER&gt;&lt;FONT FACE=ARIAL SIZE=3&gt;
      ST-4B&lt;BR&gt;
      ST-4A&lt;BR&gt;
      -&lt;BR&gt;
      -&lt;BR&gt;
      -&lt;BR&gt;
      ST-3B&lt;BR&gt;
      ST-3A&lt;BR&gt;&lt;/FONT&gt;
    &lt;/TD&gt;
    &lt;TD BGCOLOR="#cccccc" ALIGN=CENTER&gt;&lt;FONT FACE=ARIAL SIZE=3&gt;
      -&lt;BR&gt;
      EVM-6YS&lt;BR&gt;
      EVM-1E&lt;BR&gt;
      EVM-1G&lt;BR&gt;
      EVM-1D&lt;BR&gt;
      -&lt;BR&gt;
      -&lt;BR&gt;&lt;/FONT&gt;
    &lt;/TD&gt;
    &lt;TD BGCOLOR="#cccccc" ALIGN=CENTER&gt;&lt;FONT FACE=ARIAL SIZE=3&gt;
      G4B&lt;BR&gt;
      G4A&lt;BR&gt;
      TR04-3S1&lt;BR&gt;
      TRG04-2S1&lt;BR&gt;
      -&lt;BR&gt;
      -&lt;BR&gt;
      -&lt;BR&gt;&lt;/FONT&gt;
    &lt;/TD&gt;
    &lt;TD BGCOLOR="#cccccc" ALIGN=CENTER&gt;&lt;FONT FACE=ARIAL SIZE=3&gt;
      -&lt;BR&gt;
      -&lt;BR&gt;
      DVR-43A&lt;BR&gt;
      CVR-42C&lt;BR&gt;
      CVR-42A/C&lt;BR&gt;
      -&lt;BR&gt;
      -&lt;BR&gt;&lt;/FONT&gt;
    &lt;/TD&gt;
  &lt;/TR&gt;
&lt;/TABLE&gt;
&lt;P&gt;
&lt;FONT SIZE=4 FACE=ARIAL&gt;&lt;B&gt;ALT =&amp;nbsp;ALTERNATE&lt;/B&gt;&lt;/FONT&gt;
&lt;P&gt;

&amp;nbsp;
&lt;P&gt;
&lt;/td&gt;
&lt;/tr&gt;
&lt;/table&gt;</description>
<packages>
<package name="C050-024X044">
<description>&lt;b&gt;CAPACITOR&lt;/b&gt;&lt;p&gt;
grid 5 mm, outline 2.4 x 4.4 mm</description>
<wire x1="-2.159" y1="-0.635" x2="-2.159" y2="0.635" width="0.1524" layer="51"/>
<wire x1="-2.159" y1="0.635" x2="-1.651" y2="1.143" width="0.1524" layer="21" curve="-90"/>
<wire x1="-2.159" y1="-0.635" x2="-1.651" y2="-1.143" width="0.1524" layer="21" curve="90"/>
<wire x1="1.651" y1="1.143" x2="-1.651" y2="1.143" width="0.1524" layer="21"/>
<wire x1="2.159" y1="-0.635" x2="2.159" y2="0.635" width="0.1524" layer="51"/>
<wire x1="1.651" y1="-1.143" x2="-1.651" y2="-1.143" width="0.1524" layer="21"/>
<wire x1="1.651" y1="1.143" x2="2.159" y2="0.635" width="0.1524" layer="21" curve="-90"/>
<wire x1="1.651" y1="-1.143" x2="2.159" y2="-0.635" width="0.1524" layer="21" curve="90"/>
<wire x1="-0.3048" y1="0.762" x2="-0.3048" y2="0" width="0.3048" layer="21"/>
<wire x1="-0.3048" y1="0" x2="-0.3048" y2="-0.762" width="0.3048" layer="21"/>
<wire x1="0.3302" y1="0.762" x2="0.3302" y2="0" width="0.3048" layer="21"/>
<wire x1="0.3302" y1="0" x2="0.3302" y2="-0.762" width="0.3048" layer="21"/>
<wire x1="1.27" y1="0" x2="0.3302" y2="0" width="0.1524" layer="21"/>
<wire x1="-1.27" y1="0" x2="-0.3048" y2="0" width="0.1524" layer="21"/>
<pad name="1" x="-2.54" y="0" drill="0.8128" shape="octagon"/>
<pad name="2" x="2.54" y="0" drill="0.8128" shape="octagon"/>
<text x="-2.159" y="1.397" size="1.27" layer="25" ratio="10">&gt;NAME</text>
<text x="-2.159" y="-2.667" size="1.27" layer="27" ratio="10">&gt;VALUE</text>
<rectangle x1="2.159" y1="-0.381" x2="2.54" y2="0.381" layer="51"/>
<rectangle x1="-2.54" y1="-0.381" x2="-2.159" y2="0.381" layer="51"/>
</package>
<package name="0207/10">
<description>&lt;b&gt;RESISTOR&lt;/b&gt;&lt;p&gt;
type 0207, grid 10 mm</description>
<wire x1="5.08" y1="0" x2="4.064" y2="0" width="0.6096" layer="51"/>
<wire x1="-5.08" y1="0" x2="-4.064" y2="0" width="0.6096" layer="51"/>
<wire x1="-3.175" y1="0.889" x2="-2.921" y2="1.143" width="0.1524" layer="21" curve="-90"/>
<wire x1="-3.175" y1="-0.889" x2="-2.921" y2="-1.143" width="0.1524" layer="21" curve="90"/>
<wire x1="2.921" y1="-1.143" x2="3.175" y2="-0.889" width="0.1524" layer="21" curve="90"/>
<wire x1="2.921" y1="1.143" x2="3.175" y2="0.889" width="0.1524" layer="21" curve="-90"/>
<wire x1="-3.175" y1="-0.889" x2="-3.175" y2="0.889" width="0.1524" layer="21"/>
<wire x1="-2.921" y1="1.143" x2="-2.54" y2="1.143" width="0.1524" layer="21"/>
<wire x1="-2.413" y1="1.016" x2="-2.54" y2="1.143" width="0.1524" layer="21"/>
<wire x1="-2.921" y1="-1.143" x2="-2.54" y2="-1.143" width="0.1524" layer="21"/>
<wire x1="-2.413" y1="-1.016" x2="-2.54" y2="-1.143" width="0.1524" layer="21"/>
<wire x1="2.413" y1="1.016" x2="2.54" y2="1.143" width="0.1524" layer="21"/>
<wire x1="2.413" y1="1.016" x2="-2.413" y2="1.016" width="0.1524" layer="21"/>
<wire x1="2.413" y1="-1.016" x2="2.54" y2="-1.143" width="0.1524" layer="21"/>
<wire x1="2.413" y1="-1.016" x2="-2.413" y2="-1.016" width="0.1524" layer="21"/>
<wire x1="2.921" y1="1.143" x2="2.54" y2="1.143" width="0.1524" layer="21"/>
<wire x1="2.921" y1="-1.143" x2="2.54" y2="-1.143" width="0.1524" layer="21"/>
<wire x1="3.175" y1="-0.889" x2="3.175" y2="0.889" width="0.1524" layer="21"/>
<pad name="1" x="-5.08" y="0" drill="1.1" diameter="2.1844" shape="octagon"/>
<pad name="2" x="5.08" y="0" drill="1.1" diameter="2.1844" shape="octagon"/>
<text x="-3.048" y="1.524" size="1.27" layer="25" ratio="10">&gt;NAME</text>
<text x="-2.2606" y="-0.635" size="1.27" layer="27" ratio="10">&gt;VALUE</text>
<rectangle x1="3.175" y1="-0.3048" x2="4.0386" y2="0.3048" layer="21"/>
<rectangle x1="-4.0386" y1="-0.3048" x2="-3.175" y2="0.3048" layer="21"/>
</package>
</packages>
</library>
<library name="linear">
<description>&lt;b&gt;Linear Devices&lt;/b&gt;&lt;p&gt;
Operational amplifiers,  comparators, voltage regulators, ADCs, DACs, etc.&lt;p&gt;
&lt;author&gt;Created by librarian@cadsoft.de&lt;/author&gt;</description>
<packages>
<package name="DIL14">
<description>&lt;b&gt;Dual In Line Package&lt;/b&gt;</description>
<wire x1="8.89" y1="2.921" x2="-8.89" y2="2.921" width="0.1524" layer="21"/>
<wire x1="-8.89" y1="-2.921" x2="8.89" y2="-2.921" width="0.1524" layer="21"/>
<wire x1="8.89" y1="2.921" x2="8.89" y2="-2.921" width="0.1524" layer="21"/>
<wire x1="-8.89" y1="2.921" x2="-8.89" y2="1.016" width="0.1524" layer="21"/>
<wire x1="-8.89" y1="-2.921" x2="-8.89" y2="-1.016" width="0.1524" layer="21"/>
<wire x1="-8.89" y1="1.016" x2="-8.89" y2="-1.016" width="0.1524" layer="21" curve="-180"/>
<pad name="1" x="-7.62" y="-3.81" drill="0.8128" shape="long" rot="R90"/>
<pad name="2" x="-5.08" y="-3.81" drill="0.8128" shape="long" rot="R90"/>
<pad name="7" x="7.62" y="-3.81" drill="0.8128" shape="long" rot="R90"/>
<pad name="8" x="7.62" y="3.81" drill="0.8128" shape="long" rot="R90"/>
<pad name="3" x="-2.54" y="-3.81" drill="0.8128" shape="long" rot="R90"/>
<pad name="4" x="0" y="-3.81" drill="0.8128" shape="long" rot="R90"/>
<pad name="6" x="5.08" y="-3.81" drill="0.8128" shape="long" rot="R90"/>
<pad name="5" x="2.54" y="-3.81" drill="0.8128" shape="long" rot="R90"/>
<pad name="9" x="5.08" y="3.81" drill="0.8128" shape="long" rot="R90"/>
<pad name="10" x="2.54" y="3.81" drill="0.8128" shape="long" rot="R90"/>
<pad name="11" x="0" y="3.81" drill="0.8128" shape="long" rot="R90"/>
<pad name="12" x="-2.54" y="3.81" drill="0.8128" shape="long" rot="R90"/>
<pad name="13" x="-5.08" y="3.81" drill="0.8128" shape="long" rot="R90"/>
<pad name="14" x="-7.62" y="3.81" drill="0.8128" shape="long" rot="R90"/>
<text x="-9.271" y="-3.048" size="1.27" layer="25" ratio="10" rot="R90">&gt;NAME</text>
<text x="-6.731" y="-0.635" size="1.27" layer="27" ratio="10">&gt;VALUE</text>
</package>
</packages>
</library>
<library name="con-phoenix-smkdsp">
<description>Phoenix Connectors, Type SMKDSP</description>
<packages>
<package name="SMKDSP_1,5/2">
<description>&lt;b&gt;Printklemme, Nennstrom: 17,5 A, Bemessungsspannung: 250 V, Raster: 5,0 mm&lt;/b&gt;&lt;p&gt;
Source: http://eshop.phoenixcontact.de .. 1733415.pdf&lt;B&gt; SMKDSP 1,5/ 2 &lt;/b&gt;&lt;p&gt;
Source: eshop.phoenixcontact.de .. 1733415.pdf</description>
<wire x1="4.9" y1="-1.9017" x2="-4.9" y2="-1.9017" width="0.2032" layer="21"/>
<wire x1="4.9" y1="-2.354" x2="-4.9" y2="-2.354" width="0.2032" layer="21"/>
<wire x1="4.9" y1="2.192" x2="-4.9" y2="2.192" width="0.2032" layer="21"/>
<wire x1="4.9" y1="2.6785" x2="-4.9" y2="2.6785" width="0.2032" layer="21"/>
<wire x1="2.5" y1="6.0519" x2="2.0839" y2="6.0161" width="0.2032" layer="21" curve="9.818513"/>
<wire x1="2.0839" y1="6.016" x2="1.687" y2="5.9104" width="0.2032" layer="21" curve="10.070203"/>
<wire x1="1.687" y1="5.9104" x2="1.324" y2="5.7387" width="0.2032" layer="21" curve="10.633291"/>
<wire x1="1.324" y1="5.7387" x2="1.0139" y2="5.51" width="0.2032" layer="21" curve="11.361134"/>
<wire x1="1.0139" y1="5.51" x2="0.7679" y2="5.2327" width="0.2032" layer="21" curve="12.408633"/>
<wire x1="0.7679" y1="5.2327" x2="0.6204" y2="4.9736" width="0.2032" layer="21" curve="11.10896"/>
<wire x1="0.6205" y1="4.9736" x2="0.5305" y2="4.6984" width="0.2032" layer="21" curve="11.703364"/>
<wire x1="0.5305" y1="4.6984" x2="0.5" y2="4.4136" width="0.2032" layer="21" curve="12.150409"/>
<wire x1="4.5" y1="4.4136" x2="4.4695" y2="4.6984" width="0.2032" layer="21" curve="12.140502"/>
<wire x1="4.4695" y1="4.6984" x2="4.3795" y2="4.9736" width="0.2032" layer="21" curve="11.823167"/>
<wire x1="4.3795" y1="4.9736" x2="4.2321" y2="5.2327" width="0.2032" layer="21" curve="11.320489"/>
<wire x1="4.2321" y1="5.2327" x2="3.9861" y2="5.51" width="0.2032" layer="21" curve="12.612712"/>
<wire x1="3.9861" y1="5.51" x2="3.676" y2="5.7387" width="0.2032" layer="21" curve="11.606712"/>
<wire x1="3.676" y1="5.7387" x2="3.313" y2="5.9104" width="0.2032" layer="21" curve="10.808503"/>
<wire x1="3.313" y1="5.9104" x2="2.9161" y2="6.016" width="0.2032" layer="21" curve="10.16131"/>
<wire x1="2.9161" y1="6.016" x2="2.5" y2="6.0519" width="0.2032" layer="21" curve="9.8976"/>
<wire x1="-0.5" y1="4.4136" x2="-0.5438" y2="4.7544" width="0.2032" layer="21" curve="14.529549"/>
<wire x1="-0.5438" y1="4.7544" x2="-0.6727" y2="5.0795" width="0.2032" layer="21" curve="14.02952"/>
<wire x1="-0.6727" y1="5.0795" x2="-0.9137" y2="5.4112" width="0.2032" layer="21" curve="16.398865"/>
<wire x1="-0.9136" y1="5.4113" x2="-1.282" y2="5.713" width="0.2032" layer="21" curve="14.813546"/>
<wire x1="-1.282" y1="5.713" x2="-1.7351" y2="5.9273" width="0.2032" layer="21" curve="13.519323"/>
<wire x1="-1.7351" y1="5.9273" x2="-2.2384" y2="6.0378" width="0.2032" layer="21" curve="12.581205"/>
<wire x1="-2.2384" y1="6.0378" x2="-2.7616" y2="6.0378" width="0.2032" layer="21" curve="12.28945"/>
<wire x1="-2.7616" y1="6.0378" x2="-3.2649" y2="5.9273" width="0.2032" layer="21" curve="12.443318"/>
<wire x1="-3.2649" y1="5.9273" x2="-3.718" y2="5.713" width="0.2032" layer="21" curve="13.248047"/>
<wire x1="-3.718" y1="5.713" x2="-4.0864" y2="5.4113" width="0.2032" layer="21" curve="14.439619"/>
<wire x1="-4.0864" y1="5.4113" x2="-4.3274" y2="5.0795" width="0.2032" layer="21" curve="12.857171"/>
<wire x1="-4.3273" y1="5.0795" x2="-4.4562" y2="4.7544" width="0.2032" layer="21" curve="13.812127"/>
<wire x1="-4.4562" y1="4.7544" x2="-4.5" y2="4.4136" width="0.2032" layer="21" curve="14.512364"/>
<wire x1="-4.5" y1="4.4136" x2="-4.4695" y2="4.1287" width="0.2032" layer="21" curve="12.149235"/>
<wire x1="-4.4695" y1="4.1287" x2="-4.3795" y2="3.8536" width="0.2032" layer="21" curve="11.818019"/>
<wire x1="-4.3795" y1="3.8536" x2="-4.232" y2="3.5945" width="0.2032" layer="21" curve="11.320919"/>
<wire x1="-4.2321" y1="3.5944" x2="-3.9861" y2="3.3171" width="0.2032" layer="21" curve="12.610717"/>
<wire x1="-3.9861" y1="3.3171" x2="-3.676" y2="3.0884" width="0.2032" layer="21" curve="11.607468"/>
<wire x1="-3.676" y1="3.0884" x2="-3.313" y2="2.9167" width="0.2032" layer="21" curve="10.807383"/>
<wire x1="-3.313" y1="2.9167" x2="-2.9161" y2="2.8111" width="0.2032" layer="21" curve="10.16131"/>
<wire x1="-2.9161" y1="2.8111" x2="-2.5" y2="2.7752" width="0.2032" layer="21" curve="9.89801"/>
<wire x1="0.5" y1="4.4136" x2="0.5438" y2="4.0727" width="0.2032" layer="21" curve="14.538071"/>
<wire x1="0.5438" y1="4.0727" x2="0.6727" y2="3.7476" width="0.2032" layer="21" curve="14.027417"/>
<wire x1="0.6727" y1="3.7476" x2="0.9136" y2="3.4159" width="0.2032" layer="21" curve="16.392544"/>
<wire x1="0.9136" y1="3.4159" x2="1.282" y2="3.1141" width="0.2032" layer="21" curve="14.814063"/>
<wire x1="1.282" y1="3.1141" x2="1.7351" y2="2.8998" width="0.2032" layer="21" curve="13.518622"/>
<wire x1="1.7351" y1="2.8998" x2="2.2384" y2="2.7893" width="0.2032" layer="21" curve="12.581752"/>
<wire x1="2.2384" y1="2.7893" x2="2.7616" y2="2.7893" width="0.2032" layer="21" curve="12.288948"/>
<wire x1="2.7616" y1="2.7893" x2="3.2649" y2="2.8998" width="0.2032" layer="21" curve="12.443853"/>
<wire x1="3.2649" y1="2.8998" x2="3.718" y2="3.1141" width="0.2032" layer="21" curve="13.24872"/>
<wire x1="3.718" y1="3.1141" x2="4.0864" y2="3.4159" width="0.2032" layer="21" curve="14.441093"/>
<wire x1="4.0864" y1="3.4159" x2="4.3273" y2="3.7476" width="0.2032" layer="21" curve="12.852895"/>
<wire x1="4.3273" y1="3.7476" x2="4.4562" y2="4.0727" width="0.2032" layer="21" curve="13.810089"/>
<wire x1="4.4562" y1="4.0727" x2="4.5" y2="4.4136" width="0.2032" layer="21" curve="14.520871"/>
<wire x1="-2.5" y1="2.7753" x2="-2.0839" y2="2.8111" width="0.2032" layer="21" curve="9.823356"/>
<wire x1="-2.0839" y1="2.8111" x2="-1.687" y2="2.9167" width="0.2032" layer="21" curve="10.070203"/>
<wire x1="-1.687" y1="2.9167" x2="-1.324" y2="3.0884" width="0.2032" layer="21" curve="10.632749"/>
<wire x1="-1.324" y1="3.0884" x2="-1.0139" y2="3.3171" width="0.2032" layer="21" curve="11.361858"/>
<wire x1="-1.0139" y1="3.3171" x2="-0.7679" y2="3.5944" width="0.2032" layer="21" curve="12.401879"/>
<wire x1="-0.7679" y1="3.5944" x2="-0.6204" y2="3.8536" width="0.2032" layer="21" curve="11.113221"/>
<wire x1="-0.6205" y1="3.8536" x2="-0.5305" y2="4.1287" width="0.2032" layer="21" curve="11.698276"/>
<wire x1="-0.5305" y1="4.1287" x2="-0.5001" y2="4.4136" width="0.2032" layer="21" curve="12.152389"/>
<wire x1="-4.9" y1="-6.9" x2="4.9" y2="-6.9" width="0.2032" layer="21"/>
<wire x1="4.9" y1="-6.9" x2="4.9" y2="-2.354" width="0.2032" layer="21"/>
<wire x1="4.9" y1="-2.354" x2="4.9" y2="-1.9017" width="0.2032" layer="21"/>
<wire x1="4.9" y1="-1.9017" x2="4.9" y2="2.192" width="0.2032" layer="21"/>
<wire x1="4.9" y1="2.192" x2="4.9" y2="2.6785" width="0.2032" layer="21"/>
<wire x1="4.9" y1="2.6785" x2="4.9" y2="6.3" width="0.2032" layer="21"/>
<wire x1="4.9" y1="6.3" x2="-4.9" y2="6.3" width="0.2032" layer="21"/>
<wire x1="-4.9" y1="6.3" x2="-4.9" y2="2.6785" width="0.2032" layer="21"/>
<wire x1="-4.9" y1="2.6785" x2="-4.9" y2="2.192" width="0.2032" layer="21"/>
<wire x1="-4.9" y1="2.192" x2="-4.9" y2="-1.9017" width="0.2032" layer="21"/>
<wire x1="-4.9" y1="-1.9017" x2="-4.9" y2="-2.354" width="0.2032" layer="21"/>
<wire x1="-4.9" y1="-2.354" x2="-4.9" y2="-6.9" width="0.2032" layer="21"/>
<wire x1="-4" y1="-5.4" x2="-1" y2="-5.4" width="0.2032" layer="21"/>
<wire x1="-1" y1="-5.4" x2="-1" y2="-3.75" width="0.2032" layer="21"/>
<wire x1="-1" y1="-3.75" x2="-4" y2="-3.75" width="0.2032" layer="21"/>
<wire x1="-4" y1="-3.75" x2="-4" y2="-5.4" width="0.2032" layer="21"/>
<wire x1="-4.2" y1="-6.2" x2="-0.8" y2="-6.2" width="0.2032" layer="21"/>
<wire x1="-0.8" y1="-6.2" x2="-0.8" y2="-3" width="0.2032" layer="21"/>
<wire x1="-0.8" y1="-3" x2="-4.2" y2="-3" width="0.2032" layer="21"/>
<wire x1="-4.2" y1="-3" x2="-4.2" y2="-6.2" width="0.2032" layer="21"/>
<wire x1="5" y1="-6.3" x2="5.2" y2="-6.3" width="0.2032" layer="21"/>
<wire x1="5.2" y1="-6.3" x2="5.4" y2="-6.45" width="0.2032" layer="21"/>
<wire x1="5.4" y1="-6.45" x2="5.65" y2="-6.45" width="0.2032" layer="21"/>
<wire x1="5.65" y1="-6.45" x2="5.65" y2="-1.9" width="0.2032" layer="21"/>
<wire x1="5.65" y1="-1.9" x2="5.45" y2="-1.9" width="0.2032" layer="21"/>
<wire x1="5.45" y1="-1.9" x2="5.2" y2="-2.05" width="0.2032" layer="21"/>
<wire x1="5.2" y1="-2.05" x2="5" y2="-2.05" width="0.2032" layer="21"/>
<wire x1="5" y1="1.15" x2="5.2" y2="1.15" width="0.2032" layer="21"/>
<wire x1="5.2" y1="1.15" x2="5.4" y2="0.95" width="0.2032" layer="21"/>
<wire x1="5.4" y1="0.95" x2="5.65" y2="0.95" width="0.2032" layer="21"/>
<wire x1="5.65" y1="0.95" x2="5.65" y2="3.75" width="0.2032" layer="21"/>
<wire x1="5.65" y1="3.75" x2="5.4" y2="3.75" width="0.2032" layer="21"/>
<wire x1="5.4" y1="3.75" x2="5.2" y2="3.6" width="0.2032" layer="21"/>
<wire x1="5.2" y1="3.6" x2="5" y2="3.6" width="0.2032" layer="21"/>
<wire x1="1" y1="-5.15" x2="1" y2="-5.4" width="0.2032" layer="21"/>
<wire x1="1" y1="-5.4" x2="4" y2="-5.4" width="0.2032" layer="21"/>
<wire x1="4" y1="-5.4" x2="4" y2="-3.75" width="0.2032" layer="21"/>
<wire x1="4" y1="-3.75" x2="1" y2="-3.75" width="0.2032" layer="21"/>
<wire x1="1" y1="-3.75" x2="1" y2="-5.15" width="0.2032" layer="21"/>
<wire x1="0.8" y1="-6.2" x2="4.2" y2="-6.2" width="0.2032" layer="21"/>
<wire x1="4.2" y1="-6.2" x2="4.2" y2="-3" width="0.2032" layer="21"/>
<wire x1="4.2" y1="-3" x2="0.8" y2="-3" width="0.2032" layer="21"/>
<wire x1="0.8" y1="-3" x2="0.8" y2="-6.2" width="0.2032" layer="21"/>
<pad name="1" x="-2.5" y="0" drill="1.6" diameter="1.8" shape="long" rot="R90"/>
<pad name="2" x="2.5" y="0" drill="1.6" diameter="1.8" shape="long" rot="R90"/>
<text x="-5.08" y="6.985" size="1.27" layer="25">&gt;NAME</text>
<text x="1.905" y="6.985" size="1.27" layer="27">&gt;VALUE</text>
</package>
<package name="SMKDSP_1,5/3">
<description>&lt;b&gt;Printklemme, Nennstrom: 17,5 A, Bemessungsspannung: 250 V, Raster: 5,0 mm&lt;/b&gt;&lt;p&gt;
Source: http://eshop.phoenixcontact.de .. 1733415.pdf</description>
<wire x1="9.9" y1="-1.9017" x2="-4.9" y2="-1.9017" width="0.2032" layer="21"/>
<wire x1="9.9" y1="-2.354" x2="-4.9" y2="-2.354" width="0.2032" layer="21"/>
<wire x1="9.9" y1="2.192" x2="-4.9" y2="2.192" width="0.2032" layer="21"/>
<wire x1="9.9" y1="2.6785" x2="-4.9" y2="2.6785" width="0.2032" layer="21"/>
<wire x1="2.5" y1="6.0519" x2="2.0839" y2="6.0161" width="0.2032" layer="21" curve="9.818513"/>
<wire x1="2.0839" y1="6.016" x2="1.687" y2="5.9104" width="0.2032" layer="21" curve="10.070203"/>
<wire x1="1.687" y1="5.9104" x2="1.324" y2="5.7387" width="0.2032" layer="21" curve="10.633291"/>
<wire x1="1.324" y1="5.7387" x2="1.0139" y2="5.51" width="0.2032" layer="21" curve="11.361134"/>
<wire x1="1.0139" y1="5.51" x2="0.7679" y2="5.2327" width="0.2032" layer="21" curve="12.408633"/>
<wire x1="0.7679" y1="5.2327" x2="0.6204" y2="4.9736" width="0.2032" layer="21" curve="11.10896"/>
<wire x1="0.6205" y1="4.9736" x2="0.5305" y2="4.6984" width="0.2032" layer="21" curve="11.703364"/>
<wire x1="0.5305" y1="4.6984" x2="0.5" y2="4.4136" width="0.2032" layer="21" curve="12.150409"/>
<wire x1="4.5" y1="4.4136" x2="4.4695" y2="4.6984" width="0.2032" layer="21" curve="12.140502"/>
<wire x1="4.4695" y1="4.6984" x2="4.3795" y2="4.9736" width="0.2032" layer="21" curve="11.823167"/>
<wire x1="4.3795" y1="4.9736" x2="4.2321" y2="5.2327" width="0.2032" layer="21" curve="11.320489"/>
<wire x1="4.2321" y1="5.2327" x2="3.9861" y2="5.51" width="0.2032" layer="21" curve="12.612712"/>
<wire x1="3.9861" y1="5.51" x2="3.676" y2="5.7387" width="0.2032" layer="21" curve="11.606712"/>
<wire x1="3.676" y1="5.7387" x2="3.313" y2="5.9104" width="0.2032" layer="21" curve="10.808503"/>
<wire x1="3.313" y1="5.9104" x2="2.9161" y2="6.016" width="0.2032" layer="21" curve="10.16131"/>
<wire x1="2.9161" y1="6.016" x2="2.5" y2="6.0519" width="0.2032" layer="21" curve="9.8976"/>
<wire x1="-0.5" y1="4.4136" x2="-0.5438" y2="4.7544" width="0.2032" layer="21" curve="14.529549"/>
<wire x1="-0.5438" y1="4.7544" x2="-0.6727" y2="5.0795" width="0.2032" layer="21" curve="14.030571"/>
<wire x1="-0.6727" y1="5.0795" x2="-0.9137" y2="5.4112" width="0.2032" layer="21" curve="16.398865"/>
<wire x1="-0.9136" y1="5.4113" x2="-1.282" y2="5.713" width="0.2032" layer="21" curve="14.813546"/>
<wire x1="-1.282" y1="5.713" x2="-1.7351" y2="5.9273" width="0.2032" layer="21" curve="13.519323"/>
<wire x1="-1.7351" y1="5.9273" x2="-2.2384" y2="6.0378" width="0.2032" layer="21" curve="12.581205"/>
<wire x1="-2.2384" y1="6.0378" x2="-2.7616" y2="6.0378" width="0.2032" layer="21" curve="12.28945"/>
<wire x1="-2.7616" y1="6.0378" x2="-3.2649" y2="5.9273" width="0.2032" layer="21" curve="12.443318"/>
<wire x1="-3.2649" y1="5.9273" x2="-3.718" y2="5.713" width="0.2032" layer="21" curve="13.248047"/>
<wire x1="-3.718" y1="5.713" x2="-4.0864" y2="5.4113" width="0.2032" layer="21" curve="14.439619"/>
<wire x1="-4.0864" y1="5.4113" x2="-4.3274" y2="5.0795" width="0.2032" layer="21" curve="12.857171"/>
<wire x1="-4.3273" y1="5.0795" x2="-4.4562" y2="4.7544" width="0.2032" layer="21" curve="13.812127"/>
<wire x1="-4.4562" y1="4.7544" x2="-4.5" y2="4.4136" width="0.2032" layer="21" curve="14.512364"/>
<wire x1="-4.5" y1="4.4136" x2="-4.4695" y2="4.1287" width="0.2032" layer="21" curve="12.149235"/>
<wire x1="-4.4695" y1="4.1287" x2="-4.3795" y2="3.8536" width="0.2032" layer="21" curve="11.818019"/>
<wire x1="-4.3795" y1="3.8536" x2="-4.232" y2="3.5945" width="0.2032" layer="21" curve="11.320919"/>
<wire x1="-4.2321" y1="3.5944" x2="-3.9861" y2="3.3171" width="0.2032" layer="21" curve="12.610717"/>
<wire x1="-3.9861" y1="3.3171" x2="-3.676" y2="3.0884" width="0.2032" layer="21" curve="11.607468"/>
<wire x1="-3.676" y1="3.0884" x2="-3.313" y2="2.9167" width="0.2032" layer="21" curve="10.807383"/>
<wire x1="-3.313" y1="2.9167" x2="-2.9161" y2="2.8111" width="0.2032" layer="21" curve="10.16131"/>
<wire x1="-2.9161" y1="2.8111" x2="-2.5" y2="2.7752" width="0.2032" layer="21" curve="9.89801"/>
<wire x1="0.5" y1="4.4136" x2="0.5438" y2="4.0727" width="0.2032" layer="21" curve="14.538071"/>
<wire x1="0.5438" y1="4.0727" x2="0.6727" y2="3.7476" width="0.2032" layer="21" curve="14.027417"/>
<wire x1="0.6727" y1="3.7476" x2="0.9136" y2="3.4159" width="0.2032" layer="21" curve="16.392544"/>
<wire x1="0.9136" y1="3.4159" x2="1.282" y2="3.1141" width="0.2032" layer="21" curve="14.814063"/>
<wire x1="1.282" y1="3.1141" x2="1.7351" y2="2.8998" width="0.2032" layer="21" curve="13.518622"/>
<wire x1="1.7351" y1="2.8998" x2="2.2384" y2="2.7893" width="0.2032" layer="21" curve="12.581752"/>
<wire x1="2.2384" y1="2.7893" x2="2.7616" y2="2.7893" width="0.2032" layer="21" curve="12.288948"/>
<wire x1="2.7616" y1="2.7893" x2="3.2649" y2="2.8998" width="0.2032" layer="21" curve="12.443853"/>
<wire x1="3.2649" y1="2.8998" x2="3.718" y2="3.1141" width="0.2032" layer="21" curve="13.24872"/>
<wire x1="3.718" y1="3.1141" x2="4.0864" y2="3.4159" width="0.2032" layer="21" curve="14.441093"/>
<wire x1="4.0864" y1="3.4159" x2="4.3273" y2="3.7476" width="0.2032" layer="21" curve="12.852895"/>
<wire x1="4.3273" y1="3.7476" x2="4.4562" y2="4.0727" width="0.2032" layer="21" curve="13.810089"/>
<wire x1="4.4562" y1="4.0727" x2="4.5" y2="4.4136" width="0.2032" layer="21" curve="14.520871"/>
<wire x1="-2.5" y1="2.7753" x2="-2.0839" y2="2.8111" width="0.2032" layer="21" curve="9.823356"/>
<wire x1="-2.0839" y1="2.8111" x2="-1.687" y2="2.9167" width="0.2032" layer="21" curve="10.070203"/>
<wire x1="-1.687" y1="2.9167" x2="-1.324" y2="3.0884" width="0.2032" layer="21" curve="10.632749"/>
<wire x1="-1.324" y1="3.0884" x2="-1.0139" y2="3.3171" width="0.2032" layer="21" curve="11.361858"/>
<wire x1="-1.0139" y1="3.3171" x2="-0.7679" y2="3.5944" width="0.2032" layer="21" curve="12.401879"/>
<wire x1="-0.7679" y1="3.5944" x2="-0.6204" y2="3.8536" width="0.2032" layer="21" curve="11.113221"/>
<wire x1="-0.6205" y1="3.8536" x2="-0.5305" y2="4.1287" width="0.2032" layer="21" curve="11.698276"/>
<wire x1="-0.5305" y1="4.1287" x2="-0.5001" y2="4.4136" width="0.2032" layer="21" curve="12.152389"/>
<wire x1="-4.9" y1="-6.9" x2="9.9" y2="-6.9" width="0.2032" layer="21"/>
<wire x1="9.9" y1="-6.9" x2="9.9" y2="-2.354" width="0.2032" layer="21"/>
<wire x1="9.9" y1="-2.354" x2="9.9" y2="-1.9017" width="0.2032" layer="21"/>
<wire x1="9.9" y1="-1.9017" x2="9.9" y2="2.192" width="0.2032" layer="21"/>
<wire x1="9.9" y1="2.192" x2="9.9" y2="2.6785" width="0.2032" layer="21"/>
<wire x1="9.9" y1="2.6785" x2="9.9" y2="6.3" width="0.2032" layer="21"/>
<wire x1="9.9" y1="6.3" x2="-4.9" y2="6.3" width="0.2032" layer="21"/>
<wire x1="-4.9" y1="6.3" x2="-4.9" y2="2.6785" width="0.2032" layer="21"/>
<wire x1="-4.9" y1="2.6785" x2="-4.9" y2="2.192" width="0.2032" layer="21"/>
<wire x1="-4.9" y1="2.192" x2="-4.9" y2="-1.9017" width="0.2032" layer="21"/>
<wire x1="-4.9" y1="-1.9017" x2="-4.9" y2="-2.354" width="0.2032" layer="21"/>
<wire x1="-4.9" y1="-2.354" x2="-4.9" y2="-6.9" width="0.2032" layer="21"/>
<wire x1="-4" y1="-5.4" x2="-1" y2="-5.4" width="0.2032" layer="21"/>
<wire x1="-1" y1="-5.4" x2="-1" y2="-3.75" width="0.2032" layer="21"/>
<wire x1="-1" y1="-3.75" x2="-4" y2="-3.75" width="0.2032" layer="21"/>
<wire x1="-4" y1="-3.75" x2="-4" y2="-5.4" width="0.2032" layer="21"/>
<wire x1="-4.2" y1="-6.2" x2="-0.8" y2="-6.2" width="0.2032" layer="21"/>
<wire x1="-0.8" y1="-6.2" x2="-0.8" y2="-3" width="0.2032" layer="21"/>
<wire x1="-0.8" y1="-3" x2="-4.2" y2="-3" width="0.2032" layer="21"/>
<wire x1="-4.2" y1="-3" x2="-4.2" y2="-6.2" width="0.2032" layer="21"/>
<wire x1="10" y1="-6.3" x2="10.2" y2="-6.3" width="0.2032" layer="21"/>
<wire x1="10.2" y1="-6.3" x2="10.4" y2="-6.45" width="0.2032" layer="21"/>
<wire x1="10.4" y1="-6.45" x2="10.65" y2="-6.45" width="0.2032" layer="21"/>
<wire x1="10.65" y1="-6.45" x2="10.65" y2="-1.9" width="0.2032" layer="21"/>
<wire x1="10.65" y1="-1.9" x2="10.45" y2="-1.9" width="0.2032" layer="21"/>
<wire x1="10.45" y1="-1.9" x2="10.2" y2="-2.05" width="0.2032" layer="21"/>
<wire x1="10.2" y1="-2.05" x2="10" y2="-2.05" width="0.2032" layer="21"/>
<wire x1="10" y1="1.15" x2="10.2" y2="1.15" width="0.2032" layer="21"/>
<wire x1="10.2" y1="1.15" x2="10.4" y2="0.95" width="0.2032" layer="21"/>
<wire x1="10.4" y1="0.95" x2="10.65" y2="0.95" width="0.2032" layer="21"/>
<wire x1="10.65" y1="0.95" x2="10.65" y2="3.75" width="0.2032" layer="21"/>
<wire x1="10.65" y1="3.75" x2="10.4" y2="3.75" width="0.2032" layer="21"/>
<wire x1="10.4" y1="3.75" x2="10.2" y2="3.6" width="0.2032" layer="21"/>
<wire x1="10.2" y1="3.6" x2="10" y2="3.6" width="0.2032" layer="21"/>
<wire x1="1" y1="-5.15" x2="1" y2="-5.4" width="0.2032" layer="21"/>
<wire x1="1" y1="-5.4" x2="4" y2="-5.4" width="0.2032" layer="21"/>
<wire x1="4" y1="-5.4" x2="4" y2="-3.75" width="0.2032" layer="21"/>
<wire x1="4" y1="-3.75" x2="1" y2="-3.75" width="0.2032" layer="21"/>
<wire x1="1" y1="-3.75" x2="1" y2="-5.15" width="0.2032" layer="21"/>
<wire x1="0.8" y1="-6.2" x2="4.2" y2="-6.2" width="0.2032" layer="21"/>
<wire x1="4.2" y1="-6.2" x2="4.2" y2="-3" width="0.2032" layer="21"/>
<wire x1="4.2" y1="-3" x2="0.8" y2="-3" width="0.2032" layer="21"/>
<wire x1="0.8" y1="-3" x2="0.8" y2="-6.2" width="0.2032" layer="21"/>
<wire x1="7.5" y1="6.0519" x2="7.0839" y2="6.0161" width="0.2032" layer="21" curve="9.818513"/>
<wire x1="7.0839" y1="6.016" x2="6.687" y2="5.9104" width="0.2032" layer="21" curve="10.070203"/>
<wire x1="6.687" y1="5.9104" x2="6.324" y2="5.7387" width="0.2032" layer="21" curve="10.633291"/>
<wire x1="6.324" y1="5.7387" x2="6.0139" y2="5.51" width="0.2032" layer="21" curve="11.361134"/>
<wire x1="6.0139" y1="5.51" x2="5.7679" y2="5.2327" width="0.2032" layer="21" curve="12.408633"/>
<wire x1="5.7679" y1="5.2327" x2="5.6204" y2="4.9736" width="0.2032" layer="21" curve="11.10896"/>
<wire x1="5.6205" y1="4.9736" x2="5.5305" y2="4.6984" width="0.2032" layer="21" curve="11.703364"/>
<wire x1="5.5305" y1="4.6984" x2="5.5" y2="4.4136" width="0.2032" layer="21" curve="12.150409"/>
<wire x1="9.5" y1="4.4136" x2="9.4695" y2="4.6984" width="0.2032" layer="21" curve="12.140502"/>
<wire x1="9.4695" y1="4.6984" x2="9.3795" y2="4.9736" width="0.2032" layer="21" curve="11.823167"/>
<wire x1="9.3795" y1="4.9736" x2="9.2321" y2="5.2327" width="0.2032" layer="21" curve="11.320489"/>
<wire x1="9.2321" y1="5.2327" x2="8.9861" y2="5.51" width="0.2032" layer="21" curve="12.612712"/>
<wire x1="8.9861" y1="5.51" x2="8.676" y2="5.7387" width="0.2032" layer="21" curve="11.606712"/>
<wire x1="8.676" y1="5.7387" x2="8.313" y2="5.9104" width="0.2032" layer="21" curve="10.808503"/>
<wire x1="8.313" y1="5.9104" x2="7.9161" y2="6.016" width="0.2032" layer="21" curve="10.16131"/>
<wire x1="7.9161" y1="6.016" x2="7.5" y2="6.0519" width="0.2032" layer="21" curve="9.8976"/>
<wire x1="5.5" y1="4.4136" x2="5.5438" y2="4.0727" width="0.2032" layer="21" curve="14.538071"/>
<wire x1="5.5438" y1="4.0727" x2="5.6727" y2="3.7476" width="0.2032" layer="21" curve="14.027417"/>
<wire x1="5.6727" y1="3.7476" x2="5.9136" y2="3.4159" width="0.2032" layer="21" curve="16.392544"/>
<wire x1="5.9136" y1="3.4159" x2="6.282" y2="3.1141" width="0.2032" layer="21" curve="14.814063"/>
<wire x1="6.282" y1="3.1141" x2="6.7351" y2="2.8998" width="0.2032" layer="21" curve="13.518622"/>
<wire x1="6.7351" y1="2.8998" x2="7.2384" y2="2.7893" width="0.2032" layer="21" curve="12.581752"/>
<wire x1="7.2384" y1="2.7893" x2="7.7616" y2="2.7893" width="0.2032" layer="21" curve="12.288948"/>
<wire x1="7.7616" y1="2.7893" x2="8.2649" y2="2.8998" width="0.2032" layer="21" curve="12.443853"/>
<wire x1="8.2649" y1="2.8998" x2="8.718" y2="3.1141" width="0.2032" layer="21" curve="13.24872"/>
<wire x1="8.718" y1="3.1141" x2="9.0864" y2="3.4159" width="0.2032" layer="21" curve="14.441093"/>
<wire x1="9.0864" y1="3.4159" x2="9.3273" y2="3.7476" width="0.2032" layer="21" curve="12.852895"/>
<wire x1="9.3273" y1="3.7476" x2="9.4562" y2="4.0727" width="0.2032" layer="21" curve="13.810089"/>
<wire x1="9.4562" y1="4.0727" x2="9.5" y2="4.4136" width="0.2032" layer="21" curve="14.520871"/>
<wire x1="6" y1="-5.15" x2="6" y2="-5.4" width="0.2032" layer="21"/>
<wire x1="6" y1="-5.4" x2="9" y2="-5.4" width="0.2032" layer="21"/>
<wire x1="9" y1="-5.4" x2="9" y2="-3.75" width="0.2032" layer="21"/>
<wire x1="9" y1="-3.75" x2="6" y2="-3.75" width="0.2032" layer="21"/>
<wire x1="6" y1="-3.75" x2="6" y2="-5.15" width="0.2032" layer="21"/>
<wire x1="5.8" y1="-6.2" x2="9.2" y2="-6.2" width="0.2032" layer="21"/>
<wire x1="9.2" y1="-6.2" x2="9.2" y2="-3" width="0.2032" layer="21"/>
<wire x1="9.2" y1="-3" x2="5.8" y2="-3" width="0.2032" layer="21"/>
<wire x1="5.8" y1="-3" x2="5.8" y2="-6.2" width="0.2032" layer="21"/>
<pad name="1" x="-2.5" y="0" drill="1.6" diameter="1.8" shape="long" rot="R90"/>
<pad name="2" x="2.5" y="0" drill="1.6" diameter="1.8" shape="long" rot="R90"/>
<pad name="3" x="7.5" y="0" drill="1.6" diameter="1.8" shape="long" rot="R90"/>
<text x="-5.08" y="6.985" size="1.27" layer="25">&gt;NAME</text>
<text x="1.905" y="6.985" size="1.27" layer="27">&gt;VALUE</text>
</package>
</packages>
</library>
<library name="pinhead">
<description>&lt;b&gt;Pin Header Connectors&lt;/b&gt;&lt;p&gt;
&lt;author&gt;Created by librarian@cadsoft.de&lt;/author&gt;</description>
<packages>
<package name="1X02">
<description>&lt;b&gt;PIN HEADER&lt;/b&gt;</description>
<wire x1="-1.905" y1="1.27" x2="-0.635" y2="1.27" width="0.1524" layer="21"/>
<wire x1="-0.635" y1="1.27" x2="0" y2="0.635" width="0.1524" layer="21"/>
<wire x1="0" y1="0.635" x2="0" y2="-0.635" width="0.1524" layer="21"/>
<wire x1="0" y1="-0.635" x2="-0.635" y2="-1.27" width="0.1524" layer="21"/>
<wire x1="-2.54" y1="0.635" x2="-2.54" y2="-0.635" width="0.1524" layer="21"/>
<wire x1="-1.905" y1="1.27" x2="-2.54" y2="0.635" width="0.1524" layer="21"/>
<wire x1="-2.54" y1="-0.635" x2="-1.905" y2="-1.27" width="0.1524" layer="21"/>
<wire x1="-0.635" y1="-1.27" x2="-1.905" y2="-1.27" width="0.1524" layer="21"/>
<wire x1="0" y1="0.635" x2="0.635" y2="1.27" width="0.1524" layer="21"/>
<wire x1="0.635" y1="1.27" x2="1.905" y2="1.27" width="0.1524" layer="21"/>
<wire x1="1.905" y1="1.27" x2="2.54" y2="0.635" width="0.1524" layer="21"/>
<wire x1="2.54" y1="0.635" x2="2.54" y2="-0.635" width="0.1524" layer="21"/>
<wire x1="2.54" y1="-0.635" x2="1.905" y2="-1.27" width="0.1524" layer="21"/>
<wire x1="1.905" y1="-1.27" x2="0.635" y2="-1.27" width="0.1524" layer="21"/>
<wire x1="0.635" y1="-1.27" x2="0" y2="-0.635" width="0.1524" layer="21"/>
<pad name="1" x="-1.27" y="0" drill="1.016" shape="long" rot="R90"/>
<pad name="2" x="1.27" y="0" drill="1.016" shape="long" rot="R90"/>
<text x="-2.6162" y="1.8288" size="1.27" layer="25" ratio="10">&gt;NAME</text>
<text x="-2.54" y="-3.175" size="1.27" layer="27">&gt;VALUE</text>
<rectangle x1="-1.524" y1="-0.254" x2="-1.016" y2="0.254" layer="51"/>
<rectangle x1="1.016" y1="-0.254" x2="1.524" y2="0.254" layer="51"/>
</package>
</packages>
</library>
<library name="utn-logo">
<packages>
<package name="AUDIO_LOGO">
<wire x1="3.69861875" y1="-1.064109375" x2="3.12641875" y2="-4.93166875" width="0.6096" layer="1"/>
<wire x1="3.682084375" y1="-1.17811875" x2="3.7270625" y2="-0.893096875" width="0.6096" layer="1"/>
<wire x1="3.7270625" y1="-0.893096875" x2="4.647815625" y2="-0.917003125" width="0.6096" layer="1" curve="-170.945174"/>
<wire x1="4.64955" y1="-0.93063125" x2="5.275696875" y2="-4.950615625" width="0.6096" layer="1"/>
<wire x1="3.13276875" y1="-4.86711875" x2="3.11849375" y2="-4.97808125" width="0.6096" layer="1"/>
<wire x1="3.11849375" y1="-4.97808125" x2="2.299340625" y2="-5.06268125" width="0.6096" layer="1" curve="-147.884376"/>
<wire x1="2.299340625" y1="-5.06268125" x2="0.603434375" y2="-4.106546875" width="0.6096" layer="1" curve="78.169645"/>
<wire x1="4.667046875" y1="-1.074484375" x2="5.239246875" y2="-4.94204375" width="0.6096" layer="1"/>
<wire x1="4.68358125" y1="-1.18849375" x2="4.638603125" y2="-0.903471875" width="0.6096" layer="1"/>
<wire x1="4.638603125" y1="-0.903471875" x2="3.71785" y2="-0.927378125" width="0.6096" layer="1" curve="170.945174"/>
<wire x1="5.22740625" y1="-4.872003125" x2="5.252665625" y2="-4.99395" width="0.6096" layer="1"/>
<wire x1="5.252665625" y1="-4.99395" x2="6.066325" y2="-5.07305625" width="0.6096" layer="1" curve="147.884376"/>
<wire x1="6.066325" y1="-5.07305625" x2="7.603409375" y2="-4.103690625" width="0.6096" layer="1" curve="-78.169645"/>
<wire x1="7.6" y1="-4.1" x2="14.9" y2="-4.1" width="0.6096" layer="1"/>
<wire x1="6.5" y1="-0.7" x2="6.5" y2="-2.15" width="0.4064" layer="1"/>
<wire x1="6.5" y1="-2.15" x2="8.2" y2="-2.15" width="0.4064" layer="1" curve="180"/>
<wire x1="8.2" y1="-2.15" x2="8.2" y2="-0.7" width="0.4064" layer="1"/>
<wire x1="9.2" y1="-0.7" x2="9.2" y2="-2.9" width="0.4064" layer="1"/>
<wire x1="9.2" y1="-0.7" x2="9.9" y2="-0.7" width="0.4064" layer="1"/>
<wire x1="9.9" y1="-0.7" x2="10" y2="-0.7" width="0.4064" layer="1"/>
<wire x1="9.2" y1="-3" x2="9.8" y2="-3" width="0.4064" layer="1"/>
<wire x1="9.8" y1="-3" x2="10" y2="-3" width="0.4064" layer="1"/>
<wire x1="9.9" y1="-0.7" x2="9.8" y2="-3" width="0.4064" layer="1" curve="-184.979111"/>
<wire x1="11.8" y1="-0.7" x2="11.8" y2="-3" width="0.4064" layer="1"/>
<circle x="13.7" y="-1.85" radius="1.140175" width="0.4064" layer="1"/>
<wire x1="11.2" y1="-5" x2="11.2" y2="-6.25" width="0.254" layer="1"/>
<wire x1="11.95" y1="-6.25" x2="11.2" y2="-6.25" width="0.254" layer="1"/>
<wire x1="12.55" y1="-6.25" x2="13.05" y2="-5" width="0.254" layer="1"/>
<wire x1="13.6" y1="-6.25" x2="13.05" y2="-5" width="0.254" layer="1"/>
<wire x1="12.7" y1="-5.95" x2="13.4" y2="-5.95" width="0.254" layer="1"/>
<wire x1="14.2" y1="-5" x2="14.2" y2="-6.25" width="0.254" layer="1"/>
<wire x1="14.2" y1="-5" x2="14.7" y2="-5" width="0.254" layer="1"/>
<wire x1="14.2" y1="-6.25" x2="14.7" y2="-6.25" width="0.254" layer="1"/>
<wire x1="14.7" y1="-6.25" x2="14.75" y2="-5.6" width="0.254" layer="1" curve="171.202622"/>
<wire x1="14.7" y1="-5" x2="14.75" y2="-5.6" width="0.254" layer="1" curve="-170.472684"/>
<wire x1="14.75" y1="-5.6" x2="14.3" y2="-5.6" width="0.254" layer="1"/>
</package>
<package name="UTN-LOGO">
<text x="0" y="-1" size="1.27" layer="1">UTN</text>
<wire x1="-4" y1="2" x2="8" y2="2" width="1.6764" layer="1" curve="-180"/>
<wire x1="8" y1="16" x2="-4" y2="16" width="1.6764" layer="1" curve="-180"/>
<wire x1="-4" y1="9" x2="8" y2="9" width="1.6764" layer="1"/>
<wire x1="2" y1="2" x2="2" y2="15" width="1.6764" layer="1"/>
</package>
</packages>
</library>
</libraries>
<attributes>
</attributes>
<variantdefs>
</variantdefs>
<classes>
<class number="0" name="default" width="0" drill="0">
</class>
</classes>
<designrules name="default">
<description language="de">&lt;b&gt;EAGLE Design Rules&lt;/b&gt;
&lt;p&gt;
Die Standard-Design-Rules sind so gewählt, dass sie für 
die meisten Anwendungen passen. Sollte ihre Platine 
besondere Anforderungen haben, treffen Sie die erforderlichen
Einstellungen hier und speichern die Design Rules unter 
einem neuen Namen ab.</description>
<description language="en">&lt;b&gt;EAGLE Design Rules&lt;/b&gt;
&lt;p&gt;
The default Design Rules have been set to cover
a wide range of applications. Your particular design
may have different requirements, so please make the
necessary adjustments and save your customized
design rules under a new name.</description>
<param name="layerSetup" value="(1*16)"/>
<param name="mtCopper" value="0.035mm 0.035mm 0.035mm 0.035mm 0.035mm 0.035mm 0.035mm 0.035mm 0.035mm 0.035mm 0.035mm 0.035mm 0.035mm 0.035mm 0.035mm 0.035mm"/>
<param name="mtIsolate" value="1.5mm 0.15mm 0.2mm 0.15mm 0.2mm 0.15mm 0.2mm 0.15mm 0.2mm 0.15mm 0.2mm 0.15mm 0.2mm 0.15mm 0.2mm"/>
<param name="mdWireWire" value="8mil"/>
<param name="mdWirePad" value="8mil"/>
<param name="mdWireVia" value="8mil"/>
<param name="mdPadPad" value="8mil"/>
<param name="mdPadVia" value="8mil"/>
<param name="mdViaVia" value="8mil"/>
<param name="mdSmdPad" value="8mil"/>
<param name="mdSmdVia" value="8mil"/>
<param name="mdSmdSmd" value="8mil"/>
<param name="mdViaViaSameLayer" value="8mil"/>
<param name="mnLayersViaInSmd" value="2"/>
<param name="mdCopperDimension" value="40mil"/>
<param name="mdDrill" value="8mil"/>
<param name="mdSmdStop" value="0mil"/>
<param name="msWidth" value="10mil"/>
<param name="msDrill" value="24mil"/>
<param name="msMicroVia" value="9.99mm"/>
<param name="msBlindViaRatio" value="0.5"/>
<param name="rvPadTop" value="0.25"/>
<param name="rvPadInner" value="0.25"/>
<param name="rvPadBottom" value="0.25"/>
<param name="rvViaOuter" value="0.25"/>
<param name="rvViaInner" value="0.25"/>
<param name="rvMicroViaOuter" value="0.25"/>
<param name="rvMicroViaInner" value="0.25"/>
<param name="rlMinPadTop" value="10mil"/>
<param name="rlMaxPadTop" value="20mil"/>
<param name="rlMinPadInner" value="10mil"/>
<param name="rlMaxPadInner" value="20mil"/>
<param name="rlMinPadBottom" value="10mil"/>
<param name="rlMaxPadBottom" value="20mil"/>
<param name="rlMinViaOuter" value="8mil"/>
<param name="rlMaxViaOuter" value="20mil"/>
<param name="rlMinViaInner" value="8mil"/>
<param name="rlMaxViaInner" value="20mil"/>
<param name="rlMinMicroViaOuter" value="4mil"/>
<param name="rlMaxMicroViaOuter" value="20mil"/>
<param name="rlMinMicroViaInner" value="4mil"/>
<param name="rlMaxMicroViaInner" value="20mil"/>
<param name="psTop" value="-1"/>
<param name="psBottom" value="-1"/>
<param name="psFirst" value="-1"/>
<param name="psElongationLong" value="100"/>
<param name="psElongationOffset" value="100"/>
<param name="mvStopFrame" value="1"/>
<param name="mvCreamFrame" value="0"/>
<param name="mlMinStopFrame" value="4mil"/>
<param name="mlMaxStopFrame" value="4mil"/>
<param name="mlMinCreamFrame" value="0mil"/>
<param name="mlMaxCreamFrame" value="0mil"/>
<param name="mlViaStopLimit" value="0mil"/>
<param name="srRoundness" value="0"/>
<param name="srMinRoundness" value="0mil"/>
<param name="srMaxRoundness" value="0mil"/>
<param name="slThermalIsolate" value="10mil"/>
<param name="slThermalsForVias" value="0"/>
<param name="dpMaxLengthDifference" value="10mm"/>
<param name="dpGapFactor" value="2.5"/>
<param name="checkGrid" value="0"/>
<param name="checkAngle" value="0"/>
<param name="checkFont" value="1"/>
<param name="checkRestrict" value="1"/>
<param name="useDiameter" value="13"/>
<param name="maxErrors" value="50"/>
</designrules>
<autorouter>
<pass name="Default">
<param name="RoutingGrid" value="50mil"/>
<param name="AutoGrid" value="1"/>
<param name="Efforts" value="0"/>
<param name="TopRouterVariant" value="1"/>
<param name="tpViaShape" value="round"/>
<param name="PrefDir.1" value="a"/>
<param name="PrefDir.2" value="0"/>
<param name="PrefDir.3" value="0"/>
<param name="PrefDir.4" value="0"/>
<param name="PrefDir.5" value="0"/>
<param name="PrefDir.6" value="0"/>
<param name="PrefDir.7" value="0"/>
<param name="PrefDir.8" value="0"/>
<param name="PrefDir.9" value="0"/>
<param name="PrefDir.10" value="0"/>
<param name="PrefDir.11" value="0"/>
<param name="PrefDir.12" value="0"/>
<param name="PrefDir.13" value="0"/>
<param name="PrefDir.14" value="0"/>
<param name="PrefDir.15" value="0"/>
<param name="PrefDir.16" value="a"/>
<param name="cfVia" value="8"/>
<param name="cfNonPref" value="5"/>
<param name="cfChangeDir" value="2"/>
<param name="cfOrthStep" value="2"/>
<param name="cfDiagStep" value="3"/>
<param name="cfExtdStep" value="0"/>
<param name="cfBonusStep" value="1"/>
<param name="cfMalusStep" value="1"/>
<param name="cfPadImpact" value="4"/>
<param name="cfSmdImpact" value="4"/>
<param name="cfBusImpact" value="0"/>
<param name="cfHugging" value="3"/>
<param name="cfAvoid" value="4"/>
<param name="cfPolygon" value="10"/>
<param name="cfBase.1" value="0"/>
<param name="cfBase.2" value="1"/>
<param name="cfBase.3" value="1"/>
<param name="cfBase.4" value="1"/>
<param name="cfBase.5" value="1"/>
<param name="cfBase.6" value="1"/>
<param name="cfBase.7" value="1"/>
<param name="cfBase.8" value="1"/>
<param name="cfBase.9" value="1"/>
<param name="cfBase.10" value="1"/>
<param name="cfBase.11" value="1"/>
<param name="cfBase.12" value="1"/>
<param name="cfBase.13" value="1"/>
<param name="cfBase.14" value="1"/>
<param name="cfBase.15" value="1"/>
<param name="cfBase.16" value="0"/>
<param name="mnVias" value="20"/>
<param name="mnSegments" value="9999"/>
<param name="mnExtdSteps" value="9999"/>
<param name="mnRipupLevel" value="10"/>
<param name="mnRipupSteps" value="100"/>
<param name="mnRipupTotal" value="100"/>
</pass>
<pass name="Follow-me" refer="Default" active="yes">
</pass>
<pass name="Busses" refer="Default" active="yes">
<param name="cfNonPref" value="4"/>
<param name="cfBusImpact" value="4"/>
<param name="cfHugging" value="0"/>
<param name="mnVias" value="0"/>
</pass>
<pass name="Route" refer="Default" active="yes">
</pass>
<pass name="Optimize1" refer="Default" active="yes">
<param name="cfVia" value="99"/>
<param name="cfExtdStep" value="10"/>
<param name="cfHugging" value="1"/>
<param name="mnExtdSteps" value="1"/>
<param name="mnRipupLevel" value="0"/>
</pass>
<pass name="Optimize2" refer="Optimize1" active="yes">
<param name="cfNonPref" value="0"/>
<param name="cfChangeDir" value="6"/>
<param name="cfExtdStep" value="0"/>
<param name="cfBonusStep" value="2"/>
<param name="cfMalusStep" value="2"/>
<param name="cfPadImpact" value="2"/>
<param name="cfSmdImpact" value="2"/>
<param name="cfHugging" value="0"/>
</pass>
<pass name="Optimize3" refer="Optimize2" active="yes">
<param name="cfChangeDir" value="8"/>
<param name="cfPadImpact" value="0"/>
<param name="cfSmdImpact" value="0"/>
</pass>
<pass name="Optimize4" refer="Optimize3" active="yes">
<param name="cfChangeDir" value="25"/>
</pass>
</autorouter>
<elements>
<element name="C1" library="rcl" package="C050-024X044" value="33n" x="-30.48" y="46.99"/>
<element name="C1'" library="rcl" package="C050-024X044" value="47n" x="-38.1" y="46.99"/>
<element name="C2" library="rcl" package="C050-024X044" value="33n" x="-45.72" y="46.99"/>
<element name="C2'" library="rcl" package="C050-024X044" value="47n" x="-53.34" y="46.99"/>
<element name="C3" library="rcl" package="C050-024X044" value="33n" x="-60.96" y="46.99"/>
<element name="C3'" library="rcl" package="C050-024X044" value="47n" x="-68.58" y="46.99"/>
<element name="C4" library="rcl" package="C050-024X044" value="33n" x="-16.51" y="54.61"/>
<element name="C4'" library="rcl" package="C050-024X044" value="47n" x="-24.13" y="54.61"/>
<element name="IC1" library="linear" package="DIL14" value="TL074P" x="-34.29" y="25.4"/>
<element name="IC2" library="linear" package="DIL14" value="TL074P" x="-54.61" y="25.4"/>
<element name="IN" library="con-phoenix-smkdsp" package="SMKDSP_1,5/2" value="in" x="-19.05" y="26.67">
<attribute name="OC_FARNELL" value="3041244" x="-19.05" y="26.67" size="1.778" layer="27" display="off"/>
<attribute name="MPN" value="1733570" x="-19.05" y="26.67" size="1.778" layer="27" display="off"/>
<attribute name="OC_NEWARK" value="69C8588" x="-19.05" y="26.67" size="1.778" layer="27" display="off"/>
<attribute name="MF" value="FARNELL" x="-19.05" y="26.67" size="1.778" layer="27" display="off"/>
</element>
<element name="OUT" library="con-phoenix-smkdsp" package="SMKDSP_1,5/2" value="SMKDSP_1,5/2" x="-41.91" y="7.62">
<attribute name="OC_FARNELL" value="3041244" x="-41.91" y="7.62" size="1.778" layer="27" display="off"/>
<attribute name="MPN" value="1733570" x="-41.91" y="7.62" size="1.778" layer="27" display="off"/>
<attribute name="OC_NEWARK" value="69C8588" x="-41.91" y="7.62" size="1.778" layer="27" display="off"/>
<attribute name="MF" value="FARNELL" x="-41.91" y="7.62" size="1.778" layer="27" display="off"/>
</element>
<element name="R1" library="rcl" package="0207/10" value="1k" x="-34.29" y="52.07"/>
<element name="R10" library="rcl" package="0207/10" value="6k8" x="-44.45" y="64.77"/>
<element name="R11" library="rcl" package="0207/10" value="3k3" x="-57.15" y="64.77"/>
<element name="R12" library="rcl" package="0207/10" value="100" x="-19.05" y="69.85"/>
<element name="R13" library="rcl" package="0207/10" value="6k8" x="-31.75" y="69.85"/>
<element name="R14" library="rcl" package="0207/10" value="3k3" x="-44.45" y="69.85"/>
<element name="R15" library="rcl" package="0207/10" value="3k3" x="-57.15" y="69.85"/>
<element name="R16" library="rcl" package="0207/10" value="3k3" x="-19.05" y="74.93"/>
<element name="R2" library="rcl" package="0207/10" value="1k" x="-46.99" y="52.07"/>
<element name="R3" library="rcl" package="0207/10" value="100" x="-59.69" y="52.07"/>
<element name="R4" library="rcl" package="0207/10" value="6k8" x="-19.05" y="59.69"/>
<element name="R5" library="rcl" package="0207/10" value="3k3" x="-31.75" y="59.69"/>
<element name="R6" library="rcl" package="0207/10" value="100" x="-44.45" y="59.69"/>
<element name="R7" library="rcl" package="0207/10" value="1k" x="-57.15" y="59.69"/>
<element name="R8" library="rcl" package="0207/10" value="1k" x="-19.05" y="64.77"/>
<element name="R9" library="rcl" package="0207/10" value="100" x="-31.75" y="64.77"/>
<element name="RC1" library="pinhead" package="1X02" value="RC1" x="-31.75" y="39.37"/>
<element name="RC2" library="pinhead" package="1X02" value="RC2" x="-38.1" y="39.37"/>
<element name="RC3" library="pinhead" package="1X02" value="RC3" x="-44.45" y="39.37"/>
<element name="RC4" library="pinhead" package="1X02" value="RC4" x="-50.8" y="39.37"/>
<element name="RG1" library="pinhead" package="1X02" value="RG1" x="-57.15" y="39.37"/>
<element name="RG2" library="pinhead" package="1X02" value="RG2" x="-63.5" y="39.37"/>
<element name="RG3" library="pinhead" package="1X02" value="RG3" x="-69.85" y="39.37"/>
<element name="RQ1" library="pinhead" package="1X02" value="RQ1" x="-16.51" y="46.99"/>
<element name="RQ2" library="pinhead" package="1X02" value="RQ2" x="-22.86" y="46.99"/>
<element name="U$1" library="utn-logo" package="AUDIO_LOGO" value="AUDIO_LOGO" x="-27.94" y="41.91"/>
<element name="U$2" library="utn-logo" package="UTN-LOGO" value="UTN-LOGO" x="-21.59" y="2.54"/>
<element name="VCC" library="con-phoenix-smkdsp" package="SMKDSP_1,5/3" value="SMKDSP_1,5/3" x="-62.23" y="7.62">
<attribute name="OC_FARNELL" value="3041256" x="-62.23" y="7.62" size="1.778" layer="27" display="off"/>
<attribute name="MPN" value="1733583" x="-62.23" y="7.62" size="1.778" layer="27" display="off"/>
<attribute name="OC_NEWARK" value="71C4130" x="-62.23" y="7.62" size="1.778" layer="27" display="off"/>
<attribute name="MF" value="FARNELL" x="-62.23" y="7.62" size="1.778" layer="27" display="off"/>
</element>
</elements>
<signals>
<signal name="N$7">
<contactref element="R7" pad="1"/>
<contactref element="IC1" pad="14"/>
<contactref element="C3" pad="2"/>
<contactref element="C3'" pad="2"/>
<wire x1="-58.42" y1="46.99" x2="-66.04" y2="46.99" width="0" layer="19" extent="1-1"/>
<wire x1="-62.23" y1="59.69" x2="-66.04" y2="46.99" width="0" layer="19" extent="1-1"/>
<wire x1="-41.91" y1="29.21" x2="-58.42" y2="46.99" width="0" layer="19" extent="1-1"/>
</signal>
<signal name="N$15">
<contactref element="IC1" pad="13"/>
<contactref element="C3" pad="1"/>
<contactref element="C3'" pad="1"/>
<contactref element="RC2" pad="2"/>
<wire x1="-63.5" y1="46.99" x2="-71.12" y2="46.99" width="0" layer="19" extent="1-1"/>
<wire x1="-36.83" y1="39.37" x2="-63.5" y2="46.99" width="0" layer="19" extent="1-1"/>
<wire x1="-39.37" y1="29.21" x2="-36.83" y2="39.37" width="0" layer="19" extent="1-1"/>
</signal>
<signal name="GND">
<contactref element="IC1" pad="12"/>
<contactref element="IC2" pad="3"/>
<contactref element="VCC" pad="2"/>
<contactref element="IN" pad="2"/>
<contactref element="OUT" pad="2"/>
<contactref element="IC2" pad="10"/>
<contactref element="IC2" pad="5"/>
<contactref element="IC2" pad="12"/>
<contactref element="IC1" pad="3"/>
<wire x1="-57.15" y1="21.59" x2="-59.73" y2="7.62" width="0" layer="19" extent="1-1"/>
<wire x1="-52.07" y1="21.59" x2="-57.15" y2="21.59" width="0" layer="19" extent="1-1"/>
<wire x1="-57.15" y1="29.21" x2="-57.15" y2="21.59" width="0" layer="19" extent="1-1"/>
<wire x1="-52.07" y1="29.21" x2="-57.15" y2="29.21" width="0" layer="19" extent="1-1"/>
<wire x1="-36.83" y1="21.59" x2="-52.07" y2="21.59" width="0" layer="19" extent="1-1"/>
<wire x1="-36.83" y1="29.21" x2="-36.83" y2="21.59" width="0" layer="19" extent="1-1"/>
<wire x1="-39.41" y1="7.62" x2="-36.83" y2="21.59" width="0" layer="19" extent="1-1"/>
<wire x1="-16.55" y1="26.67" x2="-36.83" y2="29.21" width="0" layer="19" extent="1-1"/>
</signal>
<signal name="-9V">
<contactref element="VCC" pad="3"/>
<contactref element="IC2" pad="11"/>
<contactref element="IC1" pad="11"/>
<wire x1="-54.61" y1="29.21" x2="-54.73" y2="7.62" width="0" layer="19" extent="1-1"/>
<wire x1="-34.29" y1="29.21" x2="-54.61" y2="29.21" width="0" layer="19" extent="1-1"/>
</signal>
<signal name="+9V">
<contactref element="VCC" pad="1"/>
<contactref element="IC2" pad="4"/>
<contactref element="IC1" pad="4"/>
<wire x1="-54.61" y1="21.59" x2="-64.73" y2="7.62" width="0" layer="19" extent="1-1"/>
<wire x1="-34.29" y1="21.59" x2="-54.61" y2="21.59" width="0" layer="19" extent="1-1"/>
</signal>
<signal name="IN">
<contactref element="IN" pad="1"/>
<contactref element="C1" pad="1"/>
<contactref element="C1'" pad="1"/>
<wire x1="-40.64" y1="46.99" x2="-33.02" y2="46.99" width="0" layer="19" extent="1-1"/>
<wire x1="-21.55" y1="26.67" x2="-33.02" y2="46.99" width="0" layer="19" extent="1-1"/>
</signal>
<signal name="N$12">
<contactref element="R1" pad="2"/>
<contactref element="R2" pad="1"/>
<contactref element="IC1" pad="8"/>
<wire x1="-52.07" y1="52.07" x2="-29.21" y2="52.07" width="0" layer="19" extent="1-1"/>
<wire x1="-26.67" y1="29.21" x2="-29.21" y2="52.07" width="0" layer="19" extent="1-1"/>
</signal>
<signal name="N$13">
<contactref element="R2" pad="2"/>
<contactref element="IC1" pad="6"/>
<contactref element="IC1" pad="9"/>
<contactref element="RC1" pad="1"/>
<wire x1="-33.02" y1="39.37" x2="-41.91" y2="52.07" width="0" layer="19" extent="1-1"/>
<wire x1="-29.21" y1="29.21" x2="-33.02" y2="39.37" width="0" layer="19" extent="1-1"/>
<wire x1="-29.21" y1="21.59" x2="-29.21" y2="29.21" width="0" layer="19" extent="1-1"/>
</signal>
<signal name="N$16">
<contactref element="R4" pad="1"/>
<contactref element="IC1" pad="7"/>
<contactref element="R3" pad="2"/>
<wire x1="-54.61" y1="52.07" x2="-24.13" y2="59.69" width="0" layer="19" extent="1-1"/>
<wire x1="-26.67" y1="21.59" x2="-24.13" y2="59.69" width="0" layer="19" extent="1-1"/>
</signal>
<signal name="N$17">
<contactref element="R4" pad="2"/>
<contactref element="IC1" pad="10"/>
<contactref element="RQ1" pad="1"/>
<wire x1="-17.78" y1="46.99" x2="-13.97" y2="59.69" width="0" layer="19" extent="1-1"/>
<wire x1="-31.75" y1="29.21" x2="-17.78" y2="46.99" width="0" layer="19" extent="1-1"/>
</signal>
<signal name="N$4">
<contactref element="C2" pad="1"/>
<contactref element="C2'" pad="1"/>
<contactref element="C1" pad="2"/>
<contactref element="C1'" pad="2"/>
<contactref element="R1" pad="1"/>
<contactref element="IC1" pad="2"/>
<contactref element="IC1" pad="5"/>
<contactref element="R9" pad="1"/>
<wire x1="-39.37" y1="52.07" x2="-36.83" y2="64.77" width="0" layer="19" extent="1-1"/>
<wire x1="-35.56" y1="46.99" x2="-39.37" y2="52.07" width="0" layer="19" extent="1-1"/>
<wire x1="-27.94" y1="46.99" x2="-35.56" y2="46.99" width="0" layer="19" extent="1-1"/>
<wire x1="-48.26" y1="46.99" x2="-39.37" y2="52.07" width="0" layer="19" extent="1-1"/>
<wire x1="-55.88" y1="46.99" x2="-48.26" y2="46.99" width="0" layer="19" extent="1-1"/>
<wire x1="-39.37" y1="21.59" x2="-35.56" y2="46.99" width="0" layer="19" extent="1-1"/>
<wire x1="-31.75" y1="21.59" x2="-39.37" y2="21.59" width="0" layer="19" extent="1-1"/>
</signal>
<signal name="N$18">
<contactref element="C2" pad="2"/>
<contactref element="C2'" pad="2"/>
<contactref element="IC1" pad="1"/>
<contactref element="R5" pad="2"/>
<contactref element="R6" pad="1"/>
<contactref element="RG2" pad="1"/>
<wire x1="-43.18" y1="46.99" x2="-26.67" y2="59.69" width="0" layer="19" extent="1-1"/>
<wire x1="-50.8" y1="46.99" x2="-43.18" y2="46.99" width="0" layer="19" extent="1-1"/>
<wire x1="-49.53" y1="59.69" x2="-50.8" y2="46.99" width="0" layer="19" extent="1-1"/>
<wire x1="-64.77" y1="39.37" x2="-50.8" y2="46.99" width="0" layer="19" extent="1-1"/>
<wire x1="-41.91" y1="21.59" x2="-43.18" y2="46.99" width="0" layer="19" extent="1-1"/>
</signal>
<signal name="N$1">
<contactref element="R3" pad="1"/>
<contactref element="RC1" pad="2"/>
<wire x1="-30.48" y1="39.37" x2="-64.77" y2="52.07" width="0" layer="19" extent="1-1"/>
</signal>
<signal name="N$2">
<contactref element="R5" pad="1"/>
<contactref element="RQ1" pad="2"/>
<wire x1="-36.83" y1="59.69" x2="-15.24" y2="46.99" width="0" layer="19" extent="1-1"/>
</signal>
<signal name="N$5">
<contactref element="IC2" pad="1"/>
<contactref element="R8" pad="2"/>
<contactref element="R10" pad="1"/>
<contactref element="RC3" pad="1"/>
<contactref element="RQ2" pad="1"/>
<wire x1="-24.13" y1="46.99" x2="-13.97" y2="64.77" width="0" layer="19" extent="1-1"/>
<wire x1="-45.72" y1="39.37" x2="-24.13" y2="46.99" width="0" layer="19" extent="1-1"/>
<wire x1="-62.23" y1="21.59" x2="-45.72" y2="39.37" width="0" layer="19" extent="1-1"/>
<wire x1="-49.53" y1="64.77" x2="-45.72" y2="39.37" width="0" layer="19" extent="1-1"/>
</signal>
<signal name="N$6">
<contactref element="IC2" pad="2"/>
<contactref element="R7" pad="2"/>
<contactref element="R8" pad="1"/>
<wire x1="-52.07" y1="59.69" x2="-24.13" y2="64.77" width="0" layer="19" extent="1-1"/>
<wire x1="-59.69" y1="21.59" x2="-52.07" y2="59.69" width="0" layer="19" extent="1-1"/>
</signal>
<signal name="N$9">
<contactref element="R6" pad="2"/>
<contactref element="RC2" pad="1"/>
<wire x1="-39.37" y1="39.37" x2="-39.37" y2="59.69" width="0" layer="19" extent="1-1"/>
</signal>
<signal name="N$10">
<contactref element="C4" pad="2"/>
<contactref element="C4'" pad="2"/>
<contactref element="IC2" pad="8"/>
<contactref element="R13" pad="1"/>
<wire x1="-21.59" y1="54.61" x2="-13.97" y2="54.61" width="0" layer="19" extent="1-1"/>
<wire x1="-36.83" y1="69.85" x2="-21.59" y2="54.61" width="0" layer="19" extent="1-1"/>
<wire x1="-46.99" y1="29.21" x2="-21.59" y2="54.61" width="0" layer="19" extent="1-1"/>
</signal>
<signal name="N$11">
<contactref element="C4" pad="1"/>
<contactref element="C4'" pad="1"/>
<contactref element="IC2" pad="9"/>
<contactref element="R12" pad="2"/>
<wire x1="-19.05" y1="54.61" x2="-13.97" y2="69.85" width="0" layer="19" extent="1-1"/>
<wire x1="-26.67" y1="54.61" x2="-19.05" y2="54.61" width="0" layer="19" extent="1-1"/>
<wire x1="-49.53" y1="29.21" x2="-26.67" y2="54.61" width="0" layer="19" extent="1-1"/>
</signal>
<signal name="N$14">
<contactref element="IC2" pad="7"/>
<contactref element="RG1" pad="2"/>
<contactref element="RC4" pad="1"/>
<wire x1="-52.07" y1="39.37" x2="-46.99" y2="21.59" width="0" layer="19" extent="1-1"/>
<wire x1="-55.88" y1="39.37" x2="-52.07" y2="39.37" width="0" layer="19" extent="1-1"/>
</signal>
<signal name="N$19">
<contactref element="IC2" pad="6"/>
<contactref element="R10" pad="2"/>
<contactref element="R11" pad="1"/>
<wire x1="-39.37" y1="64.77" x2="-49.53" y2="21.59" width="0" layer="19" extent="1-1"/>
<wire x1="-62.23" y1="64.77" x2="-39.37" y2="64.77" width="0" layer="19" extent="1-1"/>
</signal>
<signal name="N$20">
<contactref element="R11" pad="2"/>
<contactref element="RG1" pad="1"/>
<wire x1="-52.07" y1="64.77" x2="-58.42" y2="39.37" width="0" layer="19" extent="1-1"/>
</signal>
<signal name="N$23">
<contactref element="R13" pad="2"/>
<contactref element="R15" pad="2"/>
<contactref element="R14" pad="2"/>
<contactref element="IC2" pad="13"/>
<contactref element="RG3" pad="1"/>
<wire x1="-39.37" y1="69.85" x2="-26.67" y2="69.85" width="0" layer="19" extent="1-1"/>
<wire x1="-52.07" y1="69.85" x2="-39.37" y2="69.85" width="0" layer="19" extent="1-1"/>
<wire x1="-71.12" y1="39.37" x2="-52.07" y2="69.85" width="0" layer="19" extent="1-1"/>
<wire x1="-59.69" y1="29.21" x2="-71.12" y2="39.37" width="0" layer="19" extent="1-1"/>
</signal>
<signal name="OUT">
<contactref element="R16" pad="2"/>
<contactref element="IC2" pad="14"/>
<contactref element="OUT" pad="1"/>
<wire x1="-62.23" y1="29.21" x2="-13.97" y2="74.93" width="0" layer="19" extent="1-1"/>
<wire x1="-44.41" y1="7.62" x2="-62.23" y2="29.21" width="0" layer="19" extent="1-1"/>
</signal>
<signal name="N$25">
<contactref element="R12" pad="1"/>
<contactref element="RC4" pad="2"/>
<wire x1="-49.53" y1="39.37" x2="-24.13" y2="69.85" width="0" layer="19" extent="1-1"/>
</signal>
<signal name="N$22">
<contactref element="R14" pad="1"/>
<contactref element="RQ2" pad="2"/>
<wire x1="-49.53" y1="69.85" x2="-21.59" y2="46.99" width="0" layer="19" extent="1-1"/>
</signal>
<signal name="N$24">
<contactref element="R15" pad="1"/>
<contactref element="RG2" pad="2"/>
<wire x1="-62.23" y1="69.85" x2="-62.23" y2="39.37" width="0" layer="19" extent="1-1"/>
</signal>
<signal name="N$3">
<contactref element="R9" pad="2"/>
<contactref element="RC3" pad="2"/>
<wire x1="-43.18" y1="39.37" x2="-26.67" y2="64.77" width="0" layer="19" extent="1-1"/>
</signal>
<signal name="N$8">
<contactref element="R16" pad="1"/>
<contactref element="RG3" pad="2"/>
<wire x1="-68.58" y1="39.37" x2="-24.13" y2="74.93" width="0" layer="19" extent="1-1"/>
</signal>
</signals>
</board>
</drawing>
</eagle>
